{
    "@class": "com.kony.gen.viz.model.component.KVizLabel",
    "DNDConfig": null,
    "__parentReadjusting__": false,
    "_bottom_": {
        "type": "number",
        "value": "0"
    },
    "_height_": {
        "type": "string",
        "value": "60dp"
    },
    "_left_": {
        "type": "string",
        "value": "4%"
    },
    "_margin_": [
        1,
        1,
        1,
        1
    ],
    "_padding_": [
        0,
        0,
        0,
        0
    ],
    "_right_": {
        "type": "string",
        "value": "0%"
    },
    "_skin_": "sd966d5becbb4e709d4a627970f57d1e",
    "_text_": "",
    "_width_": {
        "type": "string",
        "value": "96%"
    },
    "_wrapping_": 2,
    "android": {
        "textStyle": {
            "letterSpacing": 0,
            "strikeThrough": false
        }
    },
    "canUpdateUI": true,
    "centery": {
        "type": "string",
        "value": "30dp"
    },
    "containerweight": 100,
    "contentalignment": 4,
    "id": "lblEmploymentStatus",
    "info": null,
    "ipad": {
        "psp": {
            "wrapping": 2
        }
    },
    "iphone": {
        "psp": {
            "wrapping": 2
        }
    },
    "isvisible": true,
    "kuid": "ae2529e554eb4571884110de517ab0e8",
    "name": "kony.ui.Label",
    "parent": "subFlexEmploymentStatus",
    "pf": "frmLoanWorkInfo",
    "texti18n": "Employment_Status_textbox",
    "textstyle": {},
    "tooltip": "",
    "wType": "Label",
    "zindex": 1
}