{
    "@class": "com.kony.gen.viz.model.container.KVizHBox",
    "DNDConfig": null,
    "__markedForDelete__": true,
    "_margin_": [
        0,
        0,
        0,
        0
    ],
    "_orientation_": 1,
    "_padding_": [
        0,
        0,
        0,
        0
    ],
    "_percent_": true,
    "_position_": 3,
    "_skin_": "s3240d32b9a74cc78d1e0768cd2cdf1b",
    "allboxes": [],
    "canUpdateUI": true,
    "children": [
        "VBox0f3da940daac64b"
    ],
    "containerweight": 100,
    "contextmenu": null,
    "id": "HBox0f8605226cf804c",
    "info": null,
    "isvisible": true,
    "kuid": "g1fa001ebb6e4df6916054c41dc30611",
    "layouttype": 0,
    "margininpixel": false,
    "name": "kony.ui.Box",
    "paddinginpixel": false,
    "parent": "VBox0b1073bb8cf034e",
    "pf": "frmIBMFConfirm",
    "wType": "HBox",
    "widgetalignment": 4
}