{
    "@class": "com.kony.gen.viz.model.container.KVizHBox",
    "DNDConfig": null,
    "_margin_": [
        0,
        1,
        0,
        0
    ],
    "_orientation_": 1,
    "_padding_": [
        0,
        0,
        0,
        0
    ],
    "_percent_": true,
    "_position_": 3,
    "_skin_": "s3240d32b9a74cc78d1e0768cd2cdf1b",
    "allboxes": [],
    "canUpdateUI": true,
    "children": [
        "VBox0b1073bb8cf034e"
    ],
    "containerweight": 100,
    "contextmenu": null,
    "id": "HboxContents",
    "info": null,
    "isvisible": true,
    "kuid": "dc95638de2e4471f8b8d249f32dfabc3",
    "layouttype": 0,
    "margininpixel": false,
    "name": "kony.ui.Box",
    "parent": "vboxMiddle",
    "pf": "frmIBMFConfirm",
    "wType": "HBox",
    "widgetalignment": 1
}