{
    "@class": "com.kony.gen.viz.model.container.KVizVBox",
    "DNDConfig": null,
    "__markedForDelete__": true,
    "_margin_": [
        0,
        0,
        0,
        0
    ],
    "_orientation_": 2,
    "_padding_": [
        0,
        0,
        0,
        0
    ],
    "_percent_": true,
    "_position_": 3,
    "_skin_": "s1d003235ba44abb9dfdf5953e3600a0",
    "allboxes": [],
    "canUpdateUI": true,
    "children": [
        "HBox0b7cb2419c5254c",
        "CopyHBox0dc64065f8a5247",
        "CopyHBox0b6bb3cd96b6149",
        "CopyHBox0e7d85eb3339540",
        "CopyHBox0dc64943c11d946",
        "CopyHBox0a0ce4aa5a17a44"
    ],
    "containerweight": 100,
    "contextmenu": null,
    "id": "VBox0ce41d92f3e6d4a",
    "info": null,
    "isvisible": true,
    "kuid": "c1831bffa9a94436b3b7cea8d319c956",
    "layouttype": 0,
    "margininpixel": false,
    "name": "kony.ui.Box",
    "paddInPixel": [
        0,
        0,
        0,
        0
    ],
    "parent": "hbox502735421211160",
    "pf": "frmIBMFConfirm",
    "templateType": "forms",
    "wType": "VBox",
    "widgetalignment": 1
}