{
    "DNDConfig": null,
    "_enabled_": false,
    "_margin_": [
        0,
        0,
        0,
        0
    ],
    "_skin_": "se8b14e75ed14d658bda36aa266aa782",
    "_text_": "Back",
    "canUpdateUI": true,
    "containerweight": 31,
    "contentalignment": 5,
    "desktopweb": {
        "@class": "com.kony.gen.viz.model.component.property.button.DesktopWebButtonProperty",
        "_padding_": [
            0,
            0,
            0,
            0
        ],
        "displayText": true,
        "padding": [
            0,
            0,
            0,
            0
        ],
        "paddingInPixel": false,
        "render": true
    },
    "displaytext": true,
    "focusskin": "s5acbd7611124b5db2432a29feceb493",
    "hexpand": true,
    "id": "btnBac",
    "ide_onClick": "p2kwiet2012247646528_btnBac_onClick_seq0",
    "info": null,
    "isvisible": true,
    "kiosk": {
        "@class": "com.kony.gen.viz.model.component.property.button.KioskButtonProperty",
        "render": true
    },
    "kuid": "p2kwiet2012247646503",
    "margininpixel": false,
    "name": "kony.ui.Button",
    "parent": "hbox866854059250344",
    "pf": "frmIBOpenNewTermDepositAccComplete",
    "spa": {
        "@class": "com.kony.gen.viz.model.component.property.button.SPAButtonProperty",
        "displayText": true
    },
    "texti18n": "keyBackSpa",
    "vexpand": false,
    "wType": "Button",
    "widgetalignment": 5
}