{
    "DNDConfig": null,
    "_data_": [],
    "_enabled_": false,
    "_indicator_": "none",
    "_margin_": [
        0,
        0,
        0,
        0
    ],
    "_orientation_": 1,
    "_padding_": [
        0,
        0,
        0,
        0
    ],
    "_skin_": "seg2Normal",
    "alternaterowskin": "s893f13f9fdc4253863544311f1d9489",
    "canUpdateUI": true,
    "containerheightreference": 1,
    "containerweight": 100,
    "context": {
        "channel": "mobile",
        "formID": "AdvancedWidgetsSegements",
        "templateType": "segments",
        "topLevelBox": false
    },
    "counter": 3,
    "desktopweb": {
        "@class": "com.kony.gen.viz.model.container.property.segment2.DesktopWebSegment2Property",
        "render": true
    },
    "focusedindex": null,
    "focuseditem": null,
    "generatedtemplate": "p2kwiet2012247644250",
    "groupcells": false,
    "hasSections": false,
    "hiddencolumns": {},
    "id": "segfuture",
    "ide_onRowClick": "p2kwiet2012247644245_segfuture_onRowClick_seq0",
    "info": null,
    "isvisible": true,
    "kiosk": {
        "@class": "com.kony.gen.viz.model.container.property.segment2.KioskSegment2Property",
        "render": true
    },
    "kuid": "p2kwiet2012247644212",
    "layoutalignment": 3,
    "layouttype": 0,
    "margininpixel": false,
    "name": "kony.ui.SegmentedUI2",
    "needpageindicator": true,
    "paddinginpixel": false,
    "paginationconfig": {
        "position": "bottom"
    },
    "parent": "vbox588684466102177",
    "pf": "frmIBMyActivities",
    "retainselection": false,
    "rowTemplateId": "p2kwiet2012247644250",
    "rowcounter": 2,
    "rowfocusskin": "sbbc7f0678bf4c678c40fe82030b9661",
    "rowskin": "s01e0182a4d14a4da5e4e707eafeea1b",
    "screenlevelwidget": false,
    "scrollingevents": false,
    "seccounter": 0,
    "sectionheaderskin": "s9bd6d2f2f8c4fce89dae24cc47abe06",
    "selectedRows": null,
    "selectedState": false,
    "selectedindex": null,
    "selectedindices": null,
    "selecteditems": null,
    "selectedsectionindex": 0,
    "selectionbehavior": "default",
    "selectionbehaviorconfig": {},
    "separatorcolor": "64646400",
    "separatorrequired": false,
    "separatorthickness": 1,
    "showscrollbars": false,
    "spa": {
        "@class": "com.kony.gen.viz.model.container.property.segment2.SPASegment2Property"
    },
    "viewtype": "tableview",
    "wType": "Segment",
    "widgetalignment": 1,
    "widgetdatamap": {
        "button588684466113119": "button588684466113119",
        "imgschedule": "imgschedule",
        "lblamountfut": "lblamountfut",
        "lbldateon": "lbldateon",
        "lblendon": "lblendon",
        "lblfromac": "lblfromac",
        "lblrepeat": "lblrepeat",
        "lbltoac": "lbltoac",
        "lbltransid": "lbltransid",
        "vbox588684466114492": "vbox588684466114492",
        "vbox588684466114506": "vbox588684466114506",
        "vbox588684466114526": "vbox588684466114526",
        "vbox588684466114540": "vbox588684466114540",
        "vbox588684466114554": "vbox588684466114554",
        "vbox588684466114568": "vbox588684466114568"
    }
}