{
    "@class": "com.kony.gen.viz.model.container.KVizSegment2",
    "DNDConfig": null,
    "__parentReadjusting__": false,
    "_data_": [
        {
            "imgBillerLogo": {
                "@class": "com.viz.ide.model.segment.ImageSegmentData",
                "src": "biller_0005.png"
            },
            "imgFav": {
                "@class": "com.viz.ide.model.segment.ImageSegmentData",
                "src": "icon_fav_active.png"
            },
            "lblBillerGroup": {
                "@class": "com.viz.ide.model.segment.SimpleTextSegmentData",
                "text": "Comp Code [2006]"
            },
            "lblBillerName": {
                "@class": "com.viz.ide.model.segment.SimpleTextSegmentData",
                "text": "TMB Credit card"
            },
            "lblFullyearAmt": {
                "@class": "com.viz.ide.model.segment.SimpleTextSegmentData",
                "text": "Your donation amount this year 100.00 THB."
            }
        },
        {
            "imgBillerLogo": {
                "@class": "com.viz.ide.model.segment.ImageSegmentData",
                "src": "biller_0002.png"
            },
            "imgFav": {
                "@class": "com.viz.ide.model.segment.ImageSegmentData",
                "src": "icon_fav_active.png"
            },
            "lblBillerGroup": {
                "@class": "com.viz.ide.model.segment.SimpleTextSegmentData",
                "text": "Comp Code [2006]"
            },
            "lblBillerName": {
                "@class": "com.viz.ide.model.segment.SimpleTextSegmentData",
                "text": "TMB Credit card"
            },
            "lblFullyearAmt": {
                "@class": "com.viz.ide.model.segment.SimpleTextSegmentData",
                "text": "Your donation amount this year 100.00 THB."
            }
        },
        {
            "imgBillerLogo": {
                "@class": "com.viz.ide.model.segment.ImageSegmentData",
                "src": "biller_0014.png"
            },
            "imgFav": {
                "@class": "com.viz.ide.model.segment.ImageSegmentData",
                "src": "icon_fav_active.png"
            },
            "lblBillerGroup": {
                "@class": "com.viz.ide.model.segment.SimpleTextSegmentData",
                "text": "Comp Code [2006]"
            },
            "lblBillerName": {
                "@class": "com.viz.ide.model.segment.SimpleTextSegmentData",
                "text": "Dtac Bangkok region"
            },
            "lblFullyearAmt": {
                "@class": "com.viz.ide.model.segment.SimpleTextSegmentData",
                "text": "Your donation amount this year 100.00 THB."
            }
        },
        {
            "imgBillerLogo": {
                "@class": "com.viz.ide.model.segment.ImageSegmentData",
                "src": "biller_0018.png"
            },
            "imgFav": {
                "@class": "com.viz.ide.model.segment.ImageSegmentData",
                "src": "icon_fav_inactive.png"
            },
            "lblBillerGroup": {
                "@class": "com.viz.ide.model.segment.SimpleTextSegmentData",
                "text": "Comp Code [2006]"
            },
            "lblBillerName": {
                "@class": "com.viz.ide.model.segment.SimpleTextSegmentData",
                "text": "TMB Credit card"
            },
            "lblFullyearAmt": {
                "@class": "com.viz.ide.model.segment.SimpleTextSegmentData",
                "text": "Your donation amount this year 1.00 THB."
            }
        },
        {
            "imgBillerLogo": {
                "@class": "com.viz.ide.model.segment.ImageSegmentData",
                "src": "biller_0023.png"
            },
            "imgFav": {
                "@class": "com.viz.ide.model.segment.ImageSegmentData",
                "src": "icon_fav_inactive.png"
            },
            "lblBillerGroup": {
                "@class": "com.viz.ide.model.segment.SimpleTextSegmentData",
                "text": "Comp Code [2006]"
            },
            "lblBillerName": {
                "@class": "com.viz.ide.model.segment.SimpleTextSegmentData",
                "text": "TMB Credit card Bangkok Chatuchuk Thailand"
            },
            "lblFullyearAmt": {
                "@class": "com.viz.ide.model.segment.SimpleTextSegmentData",
                "text": "Your donation amount this year 100.00 THB."
            }
        },
        {
            "imgBillerLogo": {
                "@class": "com.viz.ide.model.segment.ImageSegmentData",
                "src": "biller_0019.png"
            },
            "imgFav": {
                "@class": "com.viz.ide.model.segment.ImageSegmentData",
                "src": "icon_fav_inactive.png"
            },
            "lblBillerGroup": {
                "@class": "com.viz.ide.model.segment.SimpleTextSegmentData",
                "text": "Comp Code [2006]"
            },
            "lblBillerName": {
                "@class": "com.viz.ide.model.segment.SimpleTextSegmentData",
                "text": "TMB Credit card Bangkok Chatuchuk Thailand"
            },
            "lblFullyearAmt": {
                "@class": "com.viz.ide.model.segment.SimpleTextSegmentData",
                "text": "Your donation amount this year 100.00 THB."
            }
        },
        {
            "imgBillerLogo": {
                "@class": "com.viz.ide.model.segment.ImageSegmentData",
                "src": "biller_0012.png"
            },
            "imgFav": {
                "@class": "com.viz.ide.model.segment.ImageSegmentData",
                "src": "icon_fav_inactive.png"
            },
            "lblBillerGroup": {
                "@class": "com.viz.ide.model.segment.SimpleTextSegmentData",
                "text": "Comp Code [2006]"
            },
            "lblBillerName": {
                "@class": "com.viz.ide.model.segment.SimpleTextSegmentData",
                "text": "Simple"
            },
            "lblFullyearAmt": {
                "@class": "com.viz.ide.model.segment.SimpleTextSegmentData",
                "text": "Your donation amount this year 1222.00 THB."
            }
        }
    ],
    "_height_": {
        "type": "ref",
        "value": "preferred"
    },
    "_indicator_": "none",
    "_left_": {
        "type": "string",
        "value": "0dp"
    },
    "_margin_": [
        0,
        0,
        0,
        0
    ],
    "_orientation_": 2,
    "_padding_": [
        0,
        0,
        0,
        0
    ],
    "_top_": {
        "type": "string",
        "value": "0%"
    },
    "_width_": {
        "type": "string",
        "value": "100%"
    },
    "autogrowmode": 1,
    "canUpdateUI": true,
    "containerweight": 100,
    "counter": "06",
    "focusedindex": null,
    "focuseditem": null,
    "groupcells": false,
    "hasSections": false,
    "id": "segDonationBillers",
    "info": null,
    "ipad": {
        "psp": {
            "indicator": "rowselect"
        }
    },
    "iphone": {
        "psp": {
            "indicator": "none"
        }
    },
    "isvisible": true,
    "kuid": "ab491c5fecd24b2699c457cd6c49b263",
    "masterdata": {},
    "name": "kony.ui.SegmentedUI2",
    "needpageindicator": true,
    "pageoffdotimage": "pageoffdot.png",
    "pageondotimage": "pageondot.png",
    "paginationconfig": {
        "position": "bottom"
    },
    "parent": "FlexScrollContainer0d84a22aac63c47",
    "pf": "frmDonationSelectBillers",
    "retainselection": false,
    "rowTemplateId": "gf449e10673a49948ef2939e8eb1690f",
    "rowcounter": 6,
    "rowfocusskin": "s01e0182a4d14a4da5e4e707eafeea1b",
    "rowskin": "s01e0182a4d14a4da5e4e707eafeea1b",
    "rowtemplate": "FlexContainer0g554304d1dae4f",
    "screenlevelwidget": false,
    "seccounter": 0,
    "sectionheaderskin": "s8bfadf7251c4abfa23d31af10ef7493",
    "selectedRows": null,
    "selectedState": false,
    "selectedindex": null,
    "selectedindices": null,
    "selecteditems": null,
    "selectedsectionindex": 0,
    "selectionbehavior": "default",
    "separatorcolor": "00588f46",
    "separatorrequired": true,
    "separatorthickness": 1,
    "showscrollbars": false,
    "viewtype": "tableview",
    "wType": "Segment",
    "widgetalignment": 5,
    "widgetdatamap": {
        "FlexContainer0decbb3f78cfb46": "FlexContainer0decbb3f78cfb46",
        "FlexContainer0g554304d1dae4f": "FlexContainer0g554304d1dae4f",
        "flexFav": "flexFav",
        "imgBillerLogo": "imgBillerLogo",
        "imgFav": "imgFav",
        "lblBillerGroup": "lblBillerGroup",
        "lblBillerName": "lblBillerName",
        "lblFullyearAmt": "lblFullyearAmt"
    },
    "widgetskin": "se4a16c5d57f4e9eb7322e13ad764386",
    "zindex": 1
}