{
    "DNDConfig": null,
    "_enabled_": false,
    "_margin_": [
        0,
        0,
        0,
        0
    ],
    "_skin_": "sf436a232b414fe6af77d8b75a3b2ad7",
    "_text_": "",
    "canUpdateUI": true,
    "containerweight": 43,
    "contentalignment": 5,
    "desktopweb": {
        "@class": "com.kony.gen.viz.model.component.property.button.DesktopWebButtonProperty",
        "_padding_": [
            0,
            2,
            0,
            0
        ],
        "displayText": true,
        "padding": [
            0,
            2,
            0,
            0
        ],
        "paddingInPixel": false,
        "render": true
    },
    "displaytext": true,
    "focusskin": "sc636f0356044acba02c5d8d9dec9d34",
    "hexpand": true,
    "id": "btnToken",
    "ide_onClick": "p2kwiet2012247646154_btnToken_onClick_seq0",
    "info": null,
    "isvisible": true,
    "kiosk": {
        "@class": "com.kony.gen.viz.model.component.property.button.KioskButtonProperty",
        "render": true
    },
    "kuid": "p2kwiet2012247646121",
    "margininpixel": false,
    "name": "kony.ui.Button",
    "parent": "hbxToken",
    "pf": "frmIBOpenNewSavingsAccConfirmation",
    "spa": {
        "@class": "com.kony.gen.viz.model.component.property.button.SPAButtonProperty",
        "displayText": true
    },
    "texti18n": "keySwitchToSMS",
    "vexpand": false,
    "wType": "Button",
    "widgetalignment": 5
}