{
    "DNDConfig": null,
    "__markedForDelete__": true,
    "_enabled_": false,
    "_margin_": [
        0,
        0,
        0,
        0
    ],
    "_padding_": [
        0,
        0,
        0,
        0
    ],
    "_skin_": "s36165aa77784b778dd5e1ff9e79c117",
    "_text_": "",
    "canUpdateUI": true,
    "containerweight": 6,
    "contentalignment": 5,
    "desktopweb": {
        "@class": "com.kony.gen.viz.model.component.property.button.DesktopWebButtonProperty",
        "displayText": true,
        "render": true
    },
    "displaytext": true,
    "focusskin": "s36165aa77784b778dd5e1ff9e79c117",
    "hexpand": true,
    "id": "btnAgreeCheck2",
    "ide_onClick": "AS_Button_b139212e63f04b8f8d3fb6c0ed5710b0",
    "info": null,
    "isvisible": true,
    "kiosk": {
        "@class": "com.kony.gen.viz.model.component.property.button.KioskButtonProperty",
        "render": true
    },
    "kuid": "d9e4bbe6e1674fa1aa93f280ad83cad4",
    "margininpixel": false,
    "name": "kony.ui.Button",
    "paddInPixel": [
        0,
        0,
        0,
        0
    ],
    "paddinginpixel": false,
    "parent": "HBox0b4dba0f3ebe048",
    "pf": "frmIBMFTnC",
    "spa": {
        "@class": "com.kony.gen.viz.model.component.property.button.SPAButtonProperty",
        "displayText": true
    },
    "vexpand": false,
    "wType": "Button",
    "widgetalignment": 4
}