{
    "DNDConfig": null,
    "_enabled_": false,
    "_margin_": [
        0,
        0,
        0,
        0
    ],
    "_padding_": [
        0,
        0,
        0,
        0
    ],
    "_skin_": "s05a9759cb4343468b9de1592a66408d",
    "_text_": "",
    "android": {
        "@class": "com.kony.gen.viz.model.component.property.button.AndroidButtonProperty",
        "_margin_": [
            0,
            1,
            0,
            1
        ],
        "_padding_": [
            10,
            0,
            0,
            0
        ],
        "contentAlignment": 6,
        "displayText": true,
        "margin": [
            0,
            1,
            0,
            1
        ],
        "marginInPixel": false,
        "padding": [
            10,
            0,
            0,
            0
        ],
        "paddingInPixel": true,
        "render": true
    },
    "canUpdateUI": true,
    "containerweight": 11,
    "contentalignment": 5,
    "displaytext": true,
    "focusskin": "s05a9759cb4343468b9de1592a66408d",
    "hexpand": false,
    "id": "button474999996108",
    "ide_onClick": "p2kwiet2012247628486_button474999996108_onClick_seq0",
    "info": null,
    "iphone": {
        "@class": "com.kony.gen.viz.model.component.property.button.IPhoneButtonProperty",
        "_margin_": [
            0,
            0,
            5,
            0
        ],
        "_padding_": [
            0,
            0,
            10,
            0
        ],
        "displayText": true,
        "margin": [
            0,
            0,
            5,
            0
        ],
        "marginInPixel": false,
        "padding": [
            0,
            0,
            10,
            0
        ],
        "paddingInPixel": true,
        "psp": {
            "glowEffect": false,
            "showProgressIndicator": false
        },
        "render": true
    },
    "isvisible": true,
    "kuid": "p2kwiet2012247628447",
    "margininpixel": false,
    "name": "kony.ui.Button",
    "paddinginpixel": false,
    "parent": "hbox4769997143083",
    "pf": "frmCMChgAccessPin",
    "showprogressindicator": false,
    "spa": {
        "@class": "com.kony.gen.viz.model.component.property.button.SPAButtonProperty",
        "displayText": true
    },
    "spaan": {
        "@class": "com.kony.gen.viz.model.component.property.button.SPAAndroidButtonProperty",
        "_margin_": [
            2,
            1,
            2,
            1
        ],
        "_padding_": [
            0,
            8,
            0,
            8
        ],
        "margin": [
            2,
            1,
            2,
            1
        ],
        "marginInPixel": false,
        "padding": [
            0,
            8,
            0,
            8
        ],
        "paddingInPixel": false,
        "render": true
    },
    "spabb": {
        "@class": "com.kony.gen.viz.model.component.property.button.SPABBButtonProperty",
        "_padding_": [
            0,
            8,
            0,
            8
        ],
        "padding": [
            0,
            8,
            0,
            8
        ],
        "paddingInPixel": false,
        "render": true
    },
    "spaip": {
        "@class": "com.kony.gen.viz.model.component.property.button.SPAIPhoneButtonProperty",
        "_margin_": [
            2,
            1,
            2,
            1
        ],
        "_padding_": [
            0,
            8,
            0,
            8
        ],
        "margin": [
            2,
            1,
            2,
            1
        ],
        "marginInPixel": false,
        "padding": [
            0,
            8,
            0,
            8
        ],
        "paddingInPixel": false,
        "render": true
    },
    "spawinphone8": {
        "@class": "com.kony.gen.viz.model.component.property.button.SPAWinPhone8ButtonProperty",
        "render": true
    },
    "vexpand": false,
    "wType": "Button",
    "widgetalignment": 6,
    "winphone8": {
        "@class": "com.kony.gen.viz.model.component.property.button.WinPhone8ButtonProperty",
        "_margin_": [
            1,
            1,
            1,
            1
        ],
        "_padding_": [
            1,
            10,
            1,
            10
        ],
        "displayText": true,
        "margin": [
            1,
            1,
            1,
            1
        ],
        "marginInPixel": false,
        "padding": [
            1,
            10,
            1,
            10
        ],
        "paddingInPixel": true,
        "psp": {
            "enableCache": false
        },
        "render": true
    }
}