{
    "DNDConfig": null,
    "_enabled_": false,
    "_margin_": [
        0,
        0,
        0,
        0
    ],
    "_skin_": "s10646d4c490418b8b830f4e1a3ba503",
    "_text_": "",
    "android": {
        "@class": "com.kony.gen.viz.model.component.property.textbox2.AndroidTextBox2Property",
        "_padding_": [
            2,
            0,
            0,
            0
        ],
        "autoFilter": false,
        "containerHeightMode": 1,
        "ide_onEndEditing": "p2kwiet15245716321099_tbxRef2Value_Android_onEndEditing_seq0",
        "padding": [
            2,
            0,
            0,
            0
        ],
        "paddingInPixel": false,
        "psp": {
            "keyboardActionLabel": 12
        },
        "render": true,
        "viewType": "default"
    },
    "autocapitalize": "none",
    "autocomplete": false,
    "autocorrect": false,
    "autofilter": false,
    "canUpdateUI": true,
    "containerheightmode": 1,
    "containerheightreference": 1,
    "containerweight": 100,
    "contentalignment": 7,
    "focusskin": "s10646d4c490418b8b830f4e1a3ba503",
    "hexpand": true,
    "id": "tbxRef2Value",
    "ide_onTextChange": "p2kwiet15245716321099_tbxRef2Value_onTextChange_seq0",
    "info": null,
    "iphone": {
        "@class": "com.kony.gen.viz.model.component.property.textbox2.IPhoneTextBox2Property",
        "autoCorrect": false,
        "containerHeightMode": 3,
        "ide_onEndEditing": "p2kwiet15245716321099_tbxRef2Value_iPhone_onEndEditing_seq0",
        "psp": {
            "closeButtonText": "Done",
            "keyboardActionLabel": 1,
            "pasteboardType": 4,
            "showClearButton": true,
            "showCloseButton": true,
            "showProgressIndicator": true
        },
        "render": true,
        "viewType": "default"
    },
    "isvisible": true,
    "keyboardstyle": "A",
    "keyboardtype": "A",
    "kuid": "p2kwiet1524571632972",
    "margininpixel": false,
    "mode": "A",
    "name": "kony.ui.TextBox2",
    "parent": "vbox507412449845050",
    "pf": "frmBillPayment",
    "securetextentry": false,
    "spa": {
        "@class": "com.kony.gen.viz.model.component.property.textbox2.SPATextBox2Property",
        "autoCorrect": false,
        "containerHeightMode": 3
    },
    "spaan": {
        "@class": "com.kony.gen.viz.model.component.property.textbox2.SPAAndroidTextBox2Property",
        "render": true
    },
    "spabb": {
        "@class": "com.kony.gen.viz.model.component.property.textbox2.SPABBTextBox2Property",
        "render": true
    },
    "spaip": {
        "@class": "com.kony.gen.viz.model.component.property.textbox2.SPAIPhoneTextBox2Property",
        "render": true
    },
    "spawinphone8": {
        "@class": "com.kony.gen.viz.model.component.property.textbox2.SPAWinPhone8TextBox2Property",
        "render": true
    },
    "textinputmode": "A",
    "vexpand": false,
    "viewtype": "default",
    "wType": "TextField",
    "widgetalignment": 5,
    "winphone8": {
        "@class": "com.kony.gen.viz.model.component.property.textbox2.WinPhone8TextBox2Property",
        "autoFilter": false,
        "containerHeightMode": 1,
        "psp": {
            "enableCache": false
        },
        "render": true
    }
}