{
    "DNDConfig": null,
    "_enabled_": false,
    "_margin_": [
        0,
        0,
        0,
        0
    ],
    "_padding_": [
        0,
        3,
        0,
        3
    ],
    "_skin_": "s27ea8a2941b4c9091070f743335aa65",
    "_text_": "",
    "canUpdateUI": true,
    "containerweight": 0,
    "contentalignment": 5,
    "desktopweb": {
        "@class": "com.kony.gen.viz.model.component.property.button.DesktopWebButtonProperty",
        "displayText": true,
        "render": true
    },
    "displaytext": true,
    "focusskin": "s27ea8a2941b4c9091070f743335aa65",
    "gridcell": {
        "colNo": 1,
        "colSpan": 1,
        "rowNo": 1,
        "rowSpan": 2
    },
    "hexpand": true,
    "id": "btnMenuMyAccountSummary",
    "ide_onClick": "p2kwiet2012247649745_btnMenuMyAccountSummary_onClick_seq0",
    "info": null,
    "isvisible": true,
    "kiosk": {
        "@class": "com.kony.gen.viz.model.component.property.button.KioskButtonProperty",
        "render": true
    },
    "kuid": "p2kwiet2012247649726",
    "margininpixel": false,
    "name": "kony.ui.Button",
    "paddinginpixel": false,
    "parent": "hbox451137409789493",
    "pf": "frmIBTransferTemplate",
    "spa": {
        "@class": "com.kony.gen.viz.model.component.property.button.SPAButtonProperty",
        "displayText": true
    },
    "vexpand": false,
    "wType": "Button",
    "widgetalignment": 5
}