{
    "DNDConfig": null,
    "__parentReadjusting__": false,
    "_height_": {
        "type": "string",
        "value": "55dp"
    },
    "_left_": {
        "type": "string",
        "value": "0dp"
    },
    "_margin_": [
        0,
        0,
        0,
        0
    ],
    "_orientation_": 6,
    "_padding_": [
        0,
        0,
        0,
        0
    ],
    "_percent_": true,
    "_skin_": "s918d2c198cc4b1b99c1a0fe1f4e0370",
    "_top_": {
        "type": "string",
        "value": "5%"
    },
    "_width_": {
        "type": "string",
        "value": "100%"
    },
    "allboxes": [],
    "autogrowmode": 0,
    "canUpdateUI": true,
    "children": [
        "btnMinus",
        "Label0a3e31d6293b14c",
        "flxSlider",
        "CopyLabel0i8a5f83a941e4d",
        "btnPlus"
    ],
    "clipbounds": false,
    "containerweight": 100,
    "enablescrolling": true,
    "id": "FlexContainer0b1cf72161a214c",
    "info": null,
    "isvisible": true,
    "kuid": "d55089e3b2454d5c9585e980f7e28fd1",
    "layouttype": 3,
    "name": "kony.ui.FlexContainer",
    "parent": "flexAmountInfo",
    "pf": "frmMBManageCardLimit",
    "snapgridsize": 10,
    "snaptogrid": true,
    "wType": "FlexContainer",
    "widgetalignment": 1,
    "zindex": 1
}