{
    "DNDConfig": null,
    "_enabled_": false,
    "_margin_": [
        0,
        0,
        0,
        0
    ],
    "_padding_": [
        0,
        22,
        0,
        0
    ],
    "_skin_": "s973e5e2ee6b49d58a7fd24f3eef432a",
    "_text_": "",
    "canUpdateUI": true,
    "containerweight": 100,
    "contentalignment": 6,
    "desktopweb": {
        "@class": "com.kony.gen.viz.model.component.property.button.DesktopWebButtonProperty",
        "_margin_": [
            23,
            0,
            0,
            0
        ],
        "displayText": true,
        "margin": [
            23,
            0,
            0,
            0
        ],
        "marginInPixel": false,
        "render": true
    },
    "displaytext": true,
    "focusskin": "sc6b68e7e7194269b999f53f2863325c",
    "hexpand": true,
    "id": "btnTPSchedule",
    "ide_onClick": "p2kwiet2012247649128_btnTPSchedule_onClick_seq0",
    "info": null,
    "isvisible": false,
    "kiosk": {
        "@class": "com.kony.gen.viz.model.component.property.button.KioskButtonProperty",
        "_margin_": [
            0,
            0,
            0,
            0
        ],
        "margin": [
            0,
            0,
            0,
            0
        ],
        "marginInPixel": false,
        "render": true
    },
    "kuid": "p2kwiet2012247649063",
    "margininpixel": false,
    "name": "kony.ui.Button",
    "paddinginpixel": false,
    "parent": "vbox4455366701226552",
    "pf": "frmIBTopUpViewNEdit",
    "spa": {
        "@class": "com.kony.gen.viz.model.component.property.button.SPAButtonProperty",
        "displayText": true
    },
    "vexpand": false,
    "wType": "Button",
    "widgetalignment": 6
}