{
    "DNDConfig": null,
    "_enabled_": false,
    "_margin_": [
        0,
        0,
        0,
        0
    ],
    "_skin_": "sf436a232b414fe6af77d8b75a3b2ad7",
    "_text_": "",
    "canUpdateUI": true,
    "containerweight": 56,
    "contentalignment": 5,
    "desktopweb": {
        "@class": "com.kony.gen.viz.model.component.property.button.DesktopWebButtonProperty",
        "displayText": true,
        "render": true
    },
    "displaytext": true,
    "focusskin": "sc636f0356044acba02c5d8d9dec9d34",
    "hexpand": true,
    "id": "button506369893806238",
    "ide_onClick": "p2kwiet2012247649718_button506369893806238_onClick_seq0",
    "info": null,
    "isvisible": true,
    "kiosk": {
        "@class": "com.kony.gen.viz.model.component.property.button.KioskButtonProperty",
        "render": true
    },
    "kuid": "p2kwiet2012247649684",
    "margininpixel": false,
    "name": "kony.ui.Button",
    "parent": "hbxToken",
    "pf": "frmIBTransferNowConfirmation",
    "spa": {
        "@class": "com.kony.gen.viz.model.component.property.button.SPAButtonProperty",
        "displayText": true
    },
    "texti18n": "keySwitchToSMS",
    "vexpand": false,
    "wType": "Button",
    "widgetalignment": 5
}