{
    "DNDConfig": null,
    "_enabled_": false,
    "_margin_": [
        0,
        0,
        0,
        0
    ],
    "_orientation_": 2,
    "_position_": 3,
    "_resize_": true,
    "_skin_": "sd8830aa54674b7c88e2bc24ab3f9828",
    "allboxes": [],
    "borderCollapse": false,
    "canUpdateUI": true,
    "children": [
        "hbxHeader",
        "Fromaccount",
        "hbxFrom",
        "line448307264428175",
        "hbxTo",
        "lblTransferDet",
        "line445417506919651",
        "hbxDetails",
        "hbxSplitXfer",
        "hbxScheduleDetails",
        "line685084991234368",
        "hbox101458964925294",
        "hbxTransNotify",
        "hbxTransNtr",
        "hbox101458964925296",
        "line685084991243228",
        "hbxSplitMN",
        "hbxNotifyRecip",
        "hbxSplitNtr",
        "hbxRecipient",
        "hbxOtpBox",
        "hbxButn",
        "hboxPreConfirm"
    ],
    "containerweight": 50,
    "desktopweb": {
        "@class": "com.kony.gen.viz.model.container.property.vbox.DesktopWebVBoxProperty",
        "_padding_": [
            0,
            0,
            0,
            0
        ],
        "padding": [
            0,
            0,
            0,
            0
        ],
        "paddingInPixel": false,
        "render": true
    },
    "focusskin": "sd8830aa54674b7c88e2bc24ab3f9828",
    "id": "vbxConfirm",
    "info": null,
    "isvisible": true,
    "kiosk": {
        "@class": "com.kony.gen.viz.model.container.property.vbox.KioskVBoxProperty",
        "render": true
    },
    "kuid": "p2kwiet2012247649712",
    "layouttype": 0,
    "margininpixel": false,
    "name": "kony.ui.Box",
    "parent": "hbxContent",
    "pf": "frmIBTransferNowConfirmation",
    "spa": {
        "@class": "com.kony.gen.viz.model.container.property.vbox.SPAVBoxProperty"
    },
    "templateType": "forms",
    "wType": "VBox",
    "widgetalignment": 1
}