{
    "DNDConfig": null,
    "_enabled_": false,
    "_margin_": [
        0,
        0,
        0,
        0
    ],
    "_padding_": [
        0,
        0,
        0,
        0
    ],
    "_skin_": "s8237d26d64f42269d33b1a570ccc1f2",
    "_text_": "",
    "android": {
        "@class": "com.kony.gen.viz.model.component.property.radio.AndroidRadioProperty",
        "render": true
    },
    "canUpdateUI": true,
    "containerweight": 100,
    "contentalignment": 5,
    "context": {
        "channel": "mobile",
        "formID": "BasicWidgets1",
        "templateType": "forms",
        "topLevelBox": null
    },
    "focusskin": "s8237d26d64f42269d33b1a570ccc1f2",
    "hexpand": true,
    "id": "radioGroup",
    "info": null,
    "iphone": {
        "@class": "com.kony.gen.viz.model.component.property.radio.IPhoneRadioProperty",
        "_margin_": [
            0,
            0,
            0,
            0
        ],
        "margin": [
            0,
            0,
            0,
            0
        ],
        "marginInPixel": true,
        "psp": {
            "dropDownImage": "downarr.png",
            "groupCells": false,
            "viewType": 0
        },
        "render": true
    },
    "isvisible": true,
    "itemorientation": "horizontal",
    "kuid": "p2kwiet2012247628653",
    "margininpixel": false,
    "masterdata": [
        [
            "1",
            "Mobile Phone",
            "mobilePhone"
        ],
        [
            "2",
            "Email",
            "email"
        ]
    ],
    "name": "kony.ui.RadioButtonGroup",
    "paddinginpixel": false,
    "parent": "hbxRadioButton",
    "pf": "frmContactUsMB",
    "selectedkey": "2",
    "selectedkeyvalue": [
        "2",
        "อีเมล"
    ],
    "spa": {
        "@class": "com.kony.gen.viz.model.component.property.radio.SPARadioProperty"
    },
    "spaan": {
        "@class": "com.kony.gen.viz.model.component.property.radio.SPAAndroidRadioProperty",
        "render": true
    },
    "spabb": {
        "@class": "com.kony.gen.viz.model.component.property.radio.SPABBRadioProperty",
        "render": true
    },
    "spaip": {
        "@class": "com.kony.gen.viz.model.component.property.radio.SPAIPhoneRadioProperty",
        "render": true
    },
    "spawinphone8": {
        "@class": "com.kony.gen.viz.model.component.property.radio.SPAWinPhone8RadioProperty",
        "render": true
    },
    "vexpand": false,
    "wType": "RadioButtonGroup",
    "widgetalignment": 5,
    "winphone8": {
        "@class": "com.kony.gen.viz.model.component.property.radio.WinPhone8RadioProperty",
        "_margin_": [
            1,
            1,
            1,
            1
        ],
        "margin": [
            1,
            1,
            1,
            1
        ],
        "marginInPixel": true,
        "psp": {
            "enableCache": false
        },
        "render": true
    }
}