{
    "@class": "com.kony.gen.viz.model.container.KVizHBox",
    "DNDConfig": null,
    "__markedForDelete__": true,
    "_margin_": [
        0,
        0,
        0,
        0
    ],
    "_orientation_": 1,
    "_padding_": [
        0,
        0,
        0,
        0
    ],
    "_percent_": true,
    "_position_": 3,
    "_skin_": "se5753c758864cea9ba9dbbb1dd5cd7c",
    "allboxes": [],
    "canUpdateUI": true,
    "children": [
        "CopyVBox0ga3b79ba5e714a"
    ],
    "containerweight": 100,
    "contextmenu": null,
    "id": "HBoxTranDate",
    "info": null,
    "isvisible": true,
    "kuid": "c832cf851d3f45debcc01acb02daf3db",
    "layouttype": 0,
    "margininpixel": false,
    "name": "kony.ui.Box",
    "parent": "VBox0h53198ff9a8d49",
    "pf": "frmIBMFSelPurchaseFundsEntry",
    "wType": "HBox",
    "widgetalignment": 1
}