{
    "@class": "com.kony.gen.viz.model.component.KVizLine",
    "DNDConfig": null,
    "_margin_": [
        0,
        0,
        0,
        0
    ],
    "_padding_": [
        0,
        0,
        0,
        0
    ],
    "_skin_": "s024464288c44afca73faaf6ef88d102",
    "_thickness_": 2,
    "canUpdateUI": true,
    "containerWeightLocked": false,
    "containerweight": 100,
    "id": "LineSearch",
    "info": null,
    "isvisible": true,
    "kuid": "d4c2302a926e4c3797b15e6959307f96",
    "name": "kony.ui.Line",
    "parent": "VBoxSearch",
    "pf": "frmIBMFSelPurchaseFundsEntry",
    "wType": "Line"
}