{
    "@class": "com.kony.gen.viz.model.container.KVizVBox",
    "DNDConfig": null,
    "__markedForDelete__": true,
    "_margin_": [
        5,
        1,
        0,
        1
    ],
    "_orientation_": 2,
    "_padding_": [
        0,
        0,
        0,
        0
    ],
    "_percent_": true,
    "_position_": 3,
    "_skin_": "s0e13ed4077f481ab090dae6b2e595ed",
    "allboxes": [],
    "canUpdateUI": true,
    "children": [
        "lblAmountname",
        "hbxenteramnt"
    ],
    "containerweight": 100,
    "contextmenu": null,
    "id": "VBox0f3da940daac64b",
    "info": null,
    "isvisible": true,
    "kuid": "gf59f62fde884dec9c04a1379442a655",
    "layouttype": 0,
    "margininpixel": false,
    "name": "kony.ui.Box",
    "parent": "HBoxSelectAmount",
    "pf": "frmIBMFSelPurchaseFundsEntry",
    "wType": "VBox",
    "widgetalignment": 1
}