{
    "@class": "com.kony.gen.viz.model.container.KVizVBox",
    "DNDConfig": null,
    "__markedForDelete__": true,
    "_margin_": [
        5,
        4,
        0,
        4
    ],
    "_orientation_": 2,
    "_padding_": [
        0,
        0,
        0,
        0
    ],
    "_percent_": true,
    "_position_": 3,
    "_skin_": "s0e13ed4077f481ab090dae6b2e595ed",
    "allboxes": [],
    "canUpdateUI": true,
    "children": [
        "LabelFundHouseVal"
    ],
    "containerweight": 50,
    "contextmenu": null,
    "donotUpdateContainerWeight": false,
    "id": "VBox0f99a063894474f",
    "info": null,
    "isvisible": true,
    "kuid": "b8b639952581416ab4c5248948abf57b",
    "layouttype": 0,
    "margininpixel": false,
    "name": "kony.ui.Box",
    "paddInPixel": [
        0,
        0,
        0,
        0
    ],
    "parent": "HBoxSelectFundHouse",
    "pf": "frmIBMFSelPurchaseFundsEntry",
    "wType": "VBox",
    "widgetalignment": 1
}