{
    "@class": "com.kony.gen.viz.model.container.KVizVBox",
    "DNDConfig": null,
    "__markedForDelete__": true,
    "_margin_": [
        0,
        0,
        0,
        0
    ],
    "_orientation_": 2,
    "_padding_": [
        0,
        0,
        0,
        0
    ],
    "_percent_": true,
    "_position_": 3,
    "_skin_": "s0e13ed4077f481ab090dae6b2e595ed",
    "allboxes": [],
    "canUpdateUI": true,
    "children": [
        "CopyImage0e7f1ac3d05ec47"
    ],
    "containerweight": 5,
    "contextmenu": null,
    "donotUpdateContainerWeight": false,
    "id": "VBoxArrowFund",
    "info": null,
    "isvisible": true,
    "kuid": "ae5fc8d88bda4b96a6b5ea7fefd0b240",
    "layouttype": 0,
    "name": "kony.ui.Box",
    "paddInPixel": [
        0,
        0,
        0,
        0
    ],
    "parent": "HBox0a4153fb9f97e4b",
    "pf": "frmIBMFSelPurchaseFundsEntry",
    "templateType": "forms",
    "wType": "VBox",
    "widgetalignment": 5
}