{
    "@class": "com.kony.gen.viz.model.container.KVizVBox",
    "DNDConfig": null,
    "_margin_": [
        0,
        0,
        0,
        0
    ],
    "_orientation_": 2,
    "_padding_": [
        0,
        0,
        0,
        0
    ],
    "_percent_": true,
    "_position_": 3,
    "_skin_": "s0e13ed4077f481ab090dae6b2e595ed",
    "allboxes": [],
    "canUpdateUI": true,
    "children": [
        "HBoxPaymentDetail",
        "HBoxSelectAccount",
        "HBoxSelectedAccount",
        "HBoxSelectAmount",
        "HBoxTranDate"
    ],
    "containerweight": 100,
    "contextmenu": null,
    "id": "VBox0h53198ff9a8d49",
    "info": null,
    "isvisible": true,
    "kuid": "a7869ca1cf8a41c5970903cf760cd564",
    "layouttype": 0,
    "name": "kony.ui.Box",
    "parent": "HBoxDetail",
    "pf": "frmIBMFSelPurchaseFundsEntry",
    "wType": "VBox",
    "widgetalignment": 1
}