{
    "DNDConfig": null,
    "_enabled_": false,
    "_margin_": [
        0,
        0,
        0,
        0
    ],
    "_padding_": [
        1,
        0,
        1,
        1
    ],
    "_skin_": "s50eebac0ac14516ae50579f5d95bf2d",
    "_text_": "Last Login:",
    "_wrapping_": 2,
    "canUpdateUI": true,
    "containerweight": 34,
    "contentalignment": 9,
    "desktopweb": {
        "@class": "com.kony.gen.viz.model.component.property.label.DesktopWebLabelProperty",
        "psp": {
            "textCopyable": false
        },
        "render": true
    },
    "hexpand": true,
    "id": "lblLastLoginTime",
    "info": null,
    "isvisible": true,
    "kiosk": {
        "@class": "com.kony.gen.viz.model.component.property.label.KioskLabelProperty",
        "render": true
    },
    "kuid": "p2kwiet2012247651165",
    "margininpixel": false,
    "name": "kony.ui.Label",
    "paddinginpixel": false,
    "parent": "hbox866794452740856",
    "pf": "hdrIBPostLogin",
    "spa": {
        "@class": "com.kony.gen.viz.model.component.property.label.SPALabelProperty",
        "psp": {
            "textCopyable": false
        }
    },
    "texti18n": "keyIBHeaderlblLastLogin",
    "tooltip": "",
    "vexpand": false,
    "wType": "Label",
    "widgetalignment": 3
}