{
    "DNDConfig": null,
    "_base64_": null,
    "_enabled_": false,
    "_margin_": [
        0,
        0,
        0,
        0
    ],
    "_padding_": [
        0,
        0,
        0,
        0
    ],
    "_skin_": "s74407cc01df451c9a740ebe48f853eb",
    "_src_": "transparent.png",
    "_text_": "transparent.png",
    "android": {
        "@class": "com.kony.gen.viz.model.component.property.image2.AndroidImage2Property",
        "render": true
    },
    "canUpdateUI": true,
    "containerweight": 100,
    "contentalignment": 5,
    "context": {
        "channel": "mobile",
        "ispercent": true,
        "platform": "iphone",
        "templateType": "forms",
        "topLevelBox": false
    },
    "hexpand": false,
    "id": "image2447443295186",
    "imagescalemode": 0,
    "imagewhenfailed": "transparent.png",
    "imagewhiledownloading": "transparent.png",
    "info": null,
    "iphone": {
        "@class": "com.kony.gen.viz.model.component.property.image2.IPhoneImage2Property",
        "psp": {
            "glossyEffect": 0
        },
        "render": true
    },
    "ispercent": true,
    "isvisible": true,
    "kuid": "p2kwiet2012247634055",
    "margininpixel": false,
    "name": "kony.ui.Image2",
    "paddinginpixel": false,
    "parent": "hbxAdv",
    "pf": "frmMyRecipientAddAccComplete",
    "referenceheight": 60,
    "referencewidth": 300,
    "spa": {
        "@class": "com.kony.gen.viz.model.component.property.image2.SPAImage2Property"
    },
    "spaan": {
        "@class": "com.kony.gen.viz.model.component.property.image2.SPAAndroidImage2Property",
        "render": true
    },
    "spabb": {
        "@class": "com.kony.gen.viz.model.component.property.image2.SPABBImage2Property",
        "render": true
    },
    "spaip": {
        "@class": "com.kony.gen.viz.model.component.property.image2.SPAIPhoneImage2Property",
        "render": true
    },
    "spawinphone8": {
        "@class": "com.kony.gen.viz.model.component.property.image2.SPAWinPhone8Image2Property",
        "render": true
    },
    "srcType": 1,
    "vexpand": false,
    "wType": "Image",
    "widgetalignment": 5,
    "winphone8": {
        "@class": "com.kony.gen.viz.model.component.property.image2.WinPhone8Image2Property",
        "psp": {
            "enableCache": false
        },
        "render": true
    }
}