{
    "DNDConfig": null,
    "_enabled_": false,
    "_margin_": [
        10,
        0,
        0,
        0
    ],
    "_skin_": "s543bc07c1c94e538bb8e380ce34e482",
    "_text_": "TextBox2",
    "autocapitalize": "none",
    "autocomplete": false,
    "autocorrect": false,
    "autofilter": false,
    "canUpdateUI": true,
    "containerheightmode": 1,
    "containerheightreference": 1,
    "containerweight": 70,
    "contentalignment": 6,
    "desktopweb": {
        "@class": "com.kony.gen.viz.model.component.property.textbox2.DesktopWebTextBox2Property",
        "_padding_": [
            1,
            0,
            0,
            0
        ],
        "containerHeightMode": 3,
        "ide_onBeginEditing": "p2kwiet2012247646427_txtTDamount_DESKTOPWEB_onBeginEditing_seq0",
        "ide_onEndEditing": "p2kwiet2012247646427_txtTDamount_DESKTOPWEB_onEndEditing_seq0",
        "padding": [
            1,
            0,
            0,
            0
        ],
        "paddingInPixel": false,
        "render": true
    },
    "focusskin": "sfba10054a404f908e77e7feb6660173",
    "hexpand": true,
    "id": "txtTDamount",
    "info": null,
    "isvisible": true,
    "keyboardstyle": "A",
    "keyboardtype": "A",
    "kiosk": {
        "@class": "com.kony.gen.viz.model.component.property.textbox2.KioskTextBox2Property",
        "render": true
    },
    "kuid": "p2kwiet2012247646402",
    "margininpixel": false,
    "mode": "A",
    "name": "kony.ui.TextBox2",
    "parent": "hbxAmount",
    "pf": "frmIBOpenNewTermDepositAcc",
    "securetextentry": false,
    "spa": {
        "@class": "com.kony.gen.viz.model.component.property.textbox2.SPATextBox2Property",
        "autoCorrect": false,
        "containerHeightMode": 3
    },
    "textinputmode": "A",
    "vexpand": false,
    "viewtype": "default",
    "wType": "TextField",
    "widgetalignment": 6
}