{
    "DNDConfig": null,
    "_enabled_": false,
    "_margin_": [
        0,
        0,
        0,
        0
    ],
    "_orientation_": 1,
    "_padding_": [
        0,
        1,
        0,
        0
    ],
    "_percent_": true,
    "_position_": 3,
    "_resize_": true,
    "_skin_": "s70aad17b6d344bf9a9cc6ca7b433fed",
    "allboxes": [],
    "borderCollapse": false,
    "canUpdateUI": true,
    "children": [
        "imgToAcct",
        "vbox1010778103111889"
    ],
    "containerweight": 100,
    "desktopweb": {
        "@class": "com.kony.gen.viz.model.container.property.hbox.DesktopWebHBoxProperty",
        "_padding_": [
            0,
            0,
            0,
            0
        ],
        "_position_": 3,
        "padding": [
            0,
            1,
            0,
            1
        ],
        "paddingInPixel": false,
        "position": 3,
        "psp": {
            "hoverSkin": "s999e504e01b4ea3a2dad24f5074a9b1",
            "ide_onHover": "AS_HBox_d3c4c0c8c6644b739d583713d9170d04"
        },
        "render": true
    },
    "disabledSkins": {},
    "id": "hbxToAccount",
    "ide_onClick": "AS_HBox_e9daaa932b3e40f685bd240cc81f2af4",
    "info": null,
    "isvisible": true,
    "kiosk": {
        "@class": "com.kony.gen.viz.model.container.property.hbox.KioskHBoxProperty",
        "_position_": 3,
        "position": 3,
        "render": true
    },
    "kuid": "f0cef49df4c742109aa22822c24f2c43",
    "layoutalignment": 3,
    "layouttype": 0,
    "margininpixel": false,
    "name": "kony.ui.Box",
    "paddinginpixel": false,
    "parent": "popIBTransferOptions",
    "pf": "popIBTransferOptions",
    "spa": {
        "@class": "com.kony.gen.viz.model.container.property.hbox.SPAHBoxProperty"
    },
    "templateType": "forms",
    "wType": "HBox",
    "widgetalignment": 1
}