{
    "@class": "com.kony.gen.viz.model.container.KVizVBox",
    "DNDConfig": null,
    "_margin_": [
        0,
        0,
        0,
        0
    ],
    "_orientation_": 2,
    "_padding_": [
        0,
        0,
        0,
        0
    ],
    "_percent_": true,
    "_position_": 3,
    "_skin_": "s0e13ed4077f481ab090dae6b2e595ed",
    "allboxes": [],
    "canUpdateUI": true,
    "children": [
        "imgClose"
    ],
    "containerweight": 6,
    "contextmenu": null,
    "donotUpdateContainerWeight": false,
    "id": "vboxClose",
    "ide_onClick": "AS_VBox_ae76d1b571da415f89925f090a414f95",
    "info": null,
    "isvisible": true,
    "kuid": "a4af07d5027f4bd088f9208fbf28f19b",
    "layouttype": 0,
    "name": "kony.ui.Box",
    "paddInPixel": [
        0,
        0,
        0,
        0
    ],
    "parent": "hboxClose",
    "pf": "popIBTransferOptions",
    "wType": "VBox",
    "widgetalignment": 1
}