{
    "@class": "com.kony.gen.viz.model.component.KVizButton",
    "DNDConfig": null,
    "_margin_": [
        6,
        0,
        6,
        6
    ],
    "_padding_": [
        0,
        0,
        0,
        0
    ],
    "_skin_": "s20f438f5c59401e9befbd1d63fbf738",
    "_text_": "Refresh QR Code",
    "canUpdateUI": true,
    "containerweight": 100,
    "contentalignment": 5,
    "displaytext": true,
    "focusskin": "sb03125d6967435d9bab3829bc2d31d6",
    "id": "btnQRCodeRefresh",
    "ide_onClick": "AS_Button_b1769236dda34646b224708777efc415",
    "info": null,
    "isvisible": true,
    "kuid": "d70df3fefdf441a384155db444881eb7",
    "margininpixel": false,
    "name": "kony.ui.Button",
    "paddinginpixel": false,
    "parent": "CopyHBox0ac8c3ff28e8245",
    "pf": "QRCodeDisplay",
    "wType": "Button",
    "widgetalignment": 5
}