{
    "@class": "com.kony.gen.viz.model.container.KVizHBox",
    "DNDConfig": null,
    "_margin_": [
        5,
        0,
        0,
        0
    ],
    "_orientation_": 1,
    "_padding_": [
        0,
        0,
        0,
        0
    ],
    "_percent_": true,
    "_position_": 3,
    "_skin_": "s3240d32b9a74cc78d1e0768cd2cdf1b",
    "allboxes": [],
    "canUpdateUI": true,
    "children": [
        "richTextQRDesc"
    ],
    "containerweight": 100,
    "contextmenu": null,
    "id": "HBox0c058e16e06e640",
    "info": null,
    "isvisible": true,
    "kuid": "bbfd7cdb066143c391525d5529241ac6",
    "layouttype": 0,
    "margininpixel": false,
    "name": "kony.ui.Box",
    "parent": "QRCodeDisplay",
    "pf": "QRCodeDisplay",
    "wType": "HBox",
    "widgetalignment": 1
}