{
    "@class": "com.kony.gen.viz.model.component.KVizLabel",
    "DNDConfig": null,
    "_margin_": [
        1,
        1,
        1,
        1
    ],
    "_padding_": [
        0,
        0,
        0,
        0
    ],
    "_skin_": "s8491869602c4965908b37e13640ba80",
    "_text_": "How to Sign In with QR Code",
    "_wrapping_": 2,
    "android": {
        "textStyle": {
            "letterSpacing": 0,
            "strikeThrough": false
        }
    },
    "canUpdateUI": true,
    "containerweight": 96,
    "contentalignment": 4,
    "donotUpdateContainerWeight": false,
    "id": "lbl2",
    "info": null,
    "ipad": {
        "psp": {
            "wrapping": 2
        }
    },
    "iphone": {
        "psp": {
            "wrapping": 2
        }
    },
    "isvisible": true,
    "kuid": "ec8bbc7d2dce4ebd88cda98dc539a2b6",
    "margininpixel": false,
    "name": "kony.ui.Label",
    "paddInPixel": [
        0,
        0,
        0,
        0
    ],
    "parent": "HBox0b2ac0129db3e46",
    "pf": "QRCodeDisplay",
    "tooltip": "",
    "wType": "Label",
    "widgetalignment": 4
}