{
    "@class": "com.kony.gen.viz.model.component.KVizLine",
    "DNDConfig": null,
    "_margin_": [
        0,
        7,
        0,
        0
    ],
    "_padding_": [
        0,
        0,
        0,
        0
    ],
    "_skin_": "sd979001a5854b76bdf1ba13a95d0b8f",
    "_thickness_": 1,
    "canUpdateUI": true,
    "containerWeightLocked": false,
    "containerweight": 100,
    "id": "Line0ef25875241fa4a",
    "info": null,
    "isvisible": true,
    "kuid": "ee90a1d060904fbd8788963785c06169",
    "margininpixel": false,
    "name": "kony.ui.Line",
    "parent": "QRCodeDisplay",
    "pf": "QRCodeDisplay",
    "wType": "Line"
}