{
    "@class": "com.kony.gen.viz.model.container.KVizVBox",
    "DNDConfig": null,
    "_margin_": [
        1,
        77,
        0,
        0
    ],
    "_orientation_": 2,
    "_padding_": [
        0,
        0,
        0,
        0
    ],
    "_percent_": true,
    "_position_": 3,
    "_skin_": "s0e13ed4077f481ab090dae6b2e595ed",
    "allboxes": [],
    "canUpdateUI": true,
    "children": [
        "imgQRRefresh"
    ],
    "containerweight": 35,
    "contextmenu": null,
    "id": "VBox0ad2bcf64319946",
    "info": null,
    "isvisible": true,
    "kuid": "eef6c73e079547df80768b644fd89f39",
    "layouttype": 0,
    "margininpixel": false,
    "name": "kony.ui.Box",
    "paddInPixel": [
        0,
        192,
        0,
        0
    ],
    "paddinginpixel": false,
    "parent": "HBoxQRCode",
    "pf": "QRCodeDisplay",
    "wType": "VBox",
    "widgetalignment": 1
}