{
    "@class": "com.kony.gen.viz.model.component.KVizLink",
    "DNDConfig": null,
    "_margin_": [
        0,
        0,
        0,
        0
    ],
    "_padding_": [
        0,
        0,
        0,
        0
    ],
    "_skin_": "s4827b9a014c4c64aef88304ed4f0a0b",
    "_text_": "",
    "canUpdateUI": true,
    "containerweight": 23,
    "contentalignment": 5,
    "desktopweb": {
        "psp": {
            "hoverSkin": "s878b21070784d2492b60c278b244c14"
        }
    },
    "donotUpdateContainerWeight": false,
    "id": "lblRedeem",
    "ide_onClick": "AS_Link_e38abafd2d7041969d493b9494a3b530",
    "info": null,
    "isvisible": true,
    "kuid": "habd2c323ccb44caa171e0d19a4685f5",
    "name": "kony.ui.Link",
    "paddInPixel": [
        0,
        0,
        0,
        0
    ],
    "parent": "hbxLinks",
    "pf": "frmIBMFSuitTnC",
    "texti18n": "key_MF_Redeem",
    "wType": "Link"
}