{
    "@class": "com.kony.gen.viz.model.component.KVizLine",
    "DNDConfig": null,
    "_margin_": [
        0,
        0,
        0,
        0
    ],
    "_padding_": [
        0,
        0,
        0,
        0
    ],
    "_skin_": "s39db7d025404e4b94521036cef4b99f",
    "_thickness_": 1,
    "canUpdateUI": true,
    "containerWeightLocked": false,
    "containerweight": 100,
    "id": "LineSavePopup",
    "info": null,
    "iscustomlayout": false,
    "isvisible": true,
    "kuid": "a5b6c19de4cf428d8bcd2ba3a4b9a67b",
    "name": "kony.ui.Line",
    "parent": "sboxRight",
    "pf": "frmBillPaymentCompleteCalendar",
    "retaincontentalignment": false,
    "retainflexpositionproperties": false,
    "wType": "Line"
}