{
    "DNDConfig": null,
    "_enabled_": false,
    "_margin_": [
        0,
        0,
        0,
        0
    ],
    "_orientation_": 2,
    "_padding_": [
        1,
        1,
        1,
        1
    ],
    "_position_": 3,
    "_resize_": true,
    "_skin_": "sa53654b4113418f8dcb6d569eb3ef8f",
    "allboxes": [],
    "borderCollapse": false,
    "canUpdateUI": true,
    "children": [
        "lblname",
        "lblamt",
        "hbox47336710533359",
        "hbox47503540196269"
    ],
    "containerweight": 89,
    "desktopweb": {
        "@class": "com.kony.gen.viz.model.container.property.vbox.DesktopWebVBoxProperty",
        "_margin_": [
            3,
            0,
            0,
            0
        ],
        "_padding_": [
            0,
            0,
            0,
            0
        ],
        "margin": [
            3,
            0,
            0,
            0
        ],
        "marginInPixel": false,
        "padding": [
            0,
            0,
            0,
            0
        ],
        "paddingInPixel": false,
        "render": true
    },
    "id": "vbox589518614375453",
    "info": null,
    "isvisible": true,
    "kiosk": {
        "@class": "com.kony.gen.viz.model.container.property.vbox.KioskVBoxProperty",
        "render": true
    },
    "kuid": "p2kwiet2012247640600",
    "layouttype": 0,
    "margininpixel": false,
    "name": "kony.ui.Box",
    "paddinginpixel": false,
    "parent": "hbxdetails",
    "pf": "frmIBChequeServiceViewReturnedCheque",
    "spa": {
        "@class": "com.kony.gen.viz.model.container.property.vbox.SPAVBoxProperty"
    },
    "templateType": "forms",
    "wType": "VBox",
    "widgetalignment": 1
}