{
    "@class": "com.kony.gen.viz.model.container.KVizHBox",
    "DNDConfig": null,
    "_margin_": [
        0,
        0,
        0,
        0
    ],
    "_orientation_": 1,
    "_padding_": [
        0,
        0,
        0,
        0
    ],
    "_percent_": true,
    "_position_": 3,
    "_skin_": "s3240d32b9a74cc78d1e0768cd2cdf1b",
    "allboxes": [],
    "canUpdateUI": true,
    "children": [
        "coverFlowTP"
    ],
    "containerweight": 100,
    "contextmenu": null,
    "id": "hbxCoverFlowTP",
    "info": null,
    "isvisible": true,
    "kuid": "ebcda62187324be89b22b4be26348c02",
    "layouttype": 0,
    "name": "kony.ui.Box",
    "parent": "vbxBPRight",
    "pf": "frmIBOpenNewSavingsAcc",
    "wType": "HBox",
    "widgetalignment": 1
}