{
    "@class": "com.kony.gen.viz.model.component.KVizSwitch",
    "DNDConfig": null,
    "__parentReadjusting__": false,
    "_height_": {
        "type": "string",
        "value": "32dp"
    },
    "_left_": {
        "type": "string",
        "value": "0dp"
    },
    "_margin_": [
        0,
        0,
        0,
        0
    ],
    "_padding_": [
        0,
        0,
        0,
        0
    ],
    "_render_": true,
    "_skin_": "s7cb4bd8f34f4c6f8b44e225ffb9d24d",
    "_top_": {
        "type": "string",
        "value": "20dp"
    },
    "_width_": {
        "type": "string",
        "value": "57dp"
    },
    "android": {
        "render": true
    },
    "canUpdateUI": true,
    "centery": {
        "type": "string",
        "value": "50.00%"
    },
    "containerweight": 100,
    "id": "switchNews",
    "info": null,
    "iphone": {
        "render": true
    },
    "iscustomlayout": false,
    "isvisible": true,
    "kiosk": {
        "render": false
    },
    "kuid": "a9700c7268ec4d8992d2eb3849d53153",
    "leftsidetext": "ON",
    "name": "kony.ui.Switch",
    "onslide": null,
    "osPlatform": "android",
    "osVersion": "iOS7",
    "parent": "flexNews",
    "pf": "frmENotificationSettings",
    "retaincontentalignment": false,
    "retainflexpositionproperties": false,
    "rightsidetext": "OFF",
    "selectedindex": 1,
    "spaan": {
        "render": false
    },
    "spabb": {
        "render": false
    },
    "spaip": {
        "render": false
    },
    "spawinphone8": {
        "render": false
    },
    "wType": "Switch",
    "widgetalignment": 5,
    "winphone8": {
        "render": false
    },
    "zindex": 1
}