{
    "DNDConfig": null,
    "__parentReadjusting__": false,
    "_height_": {
        "type": "string",
        "value": "11%"
    },
    "_left_": {
        "type": "string",
        "value": "0dp"
    },
    "_margin_": [
        0,
        0,
        0,
        0
    ],
    "_orientation_": 6,
    "_padding_": [
        0,
        0,
        0,
        0
    ],
    "_percent_": true,
    "_skin_": "sba9e07ff0cb4e999b83fb20f34cc077",
    "_top_": {
        "type": "string",
        "value": "0dp"
    },
    "_width_": {
        "type": "string",
        "value": "100%"
    },
    "allboxes": [],
    "autogrowmode": 0,
    "canUpdateUI": true,
    "children": [
        "CopylblCustomerName0ecdaaec26a4f4f",
        "CopyimgPromptPay0f5ae56b53a0b45"
    ],
    "clipbounds": true,
    "containerweight": 100,
    "enablescrolling": true,
    "focusskin": "sba9e07ff0cb4e999b83fb20f34cc077",
    "id": "CopyFlexContainer0c37f03171a3646",
    "info": null,
    "isvisible": true,
    "kuid": "a813f359ee184f6c84b9878d60c325e6",
    "layouttype": 2,
    "name": "kony.ui.FlexContainer",
    "parent": "flexScrollboxShare",
    "pf": "frmMyQRCode",
    "snapgridsize": 10,
    "snaptogrid": true,
    "wType": "FlexContainer",
    "widgetalignment": 1,
    "zindex": 1
}