{
    "DNDConfig": null,
    "__parentReadjusting__": false,
    "_height_": {
        "type": "string",
        "value": "98%"
    },
    "_left_": {
        "type": "string",
        "value": "1dp"
    },
    "_margin_": [
        0,
        0,
        0,
        0
    ],
    "_orientation_": 6,
    "_padding_": [
        0,
        0,
        0,
        0
    ],
    "_percent_": true,
    "_skin_": "scb567ac86574f7f92c8317147339ca7",
    "_top_": {
        "type": "string",
        "value": "2%"
    },
    "_width_": {
        "type": "string",
        "value": "25%"
    },
    "allboxes": [],
    "autogrowmode": 0,
    "canUpdateUI": true,
    "children": [
        "CopyImage0a252dba5572c40",
        "CopyLabel0bfc8976873e84a"
    ],
    "clipbounds": true,
    "containerweight": 100,
    "enablescrolling": true,
    "focusskin": "scb567ac86574f7f92c8317147339ca7",
    "id": "vbxMessenger",
    "info": null,
    "isvisible": true,
    "kuid": "c62412d00ba544af97bf8dd5d58a8f01",
    "layouttype": 4,
    "name": "kony.ui.FlexContainer",
    "parent": "hbxShareOption",
    "pf": "frmMyQRCode",
    "snapgridsize": 10,
    "snaptogrid": true,
    "wType": "FlexContainer",
    "widgetalignment": 1,
    "zindex": 1
}