{
    "DNDConfig": null,
    "__parentReadjusting__": false,
    "_height_": {
        "type": "ref",
        "value": "preferred"
    },
    "_margin_": [
        0,
        0,
        0,
        0
    ],
    "_orientation_": 6,
    "_padding_": [
        0,
        0,
        0,
        0
    ],
    "_percent_": true,
    "_skin_": "sf16386922154a1ea965e4cdf033ea5e",
    "_top_": {
        "type": "string",
        "value": "2%"
    },
    "_width_": {
        "type": "string",
        "value": "100%"
    },
    "allboxes": [],
    "autogrowmode": 1,
    "canUpdateUI": true,
    "centerx": {
        "type": "string",
        "value": "50.00%"
    },
    "children": [
        "imgBusiness",
        "lblAcceptBusiness"
    ],
    "clipbounds": true,
    "containerweight": 100,
    "enablescrolling": true,
    "focusskin": "s60a3bb5747a4dc397ce5a463c4eba92",
    "id": "flxAcceptBusiness",
    "ide_onClick": "AS_FlexContainer_f11081a6590241d883a9477ff6096f1c",
    "info": null,
    "isvisible": true,
    "kuid": "fb8db71f3b1940c5ab1da272272b722b",
    "layouttype": 3,
    "name": "kony.ui.FlexContainer",
    "parent": "flxBody",
    "pf": "frmMBRTPStartUp",
    "snapgridsize": 10,
    "snaptogrid": true,
    "wType": "FlexContainer",
    "widgetalignment": 1,
    "zindex": 1
}