{
    "DNDConfig": null,
    "_enabled_": false,
    "_margin_": [
        4,
        0,
        2,
        0
    ],
    "_padding_": [
        0,
        5,
        0,
        6
    ],
    "_skin_": "s4f6c2d263c34896a7a70e9d93a3ccca",
    "_text_": "",
    "canUpdateUI": true,
    "containerweight": 33,
    "contentalignment": 5,
    "desktopweb": {
        "@class": "com.kony.gen.viz.model.component.property.button.DesktopWebButtonProperty",
        "_padding_": [
            0,
            5,
            0,
            6
        ],
        "displayText": true,
        "padding": [
            0,
            5,
            0,
            6
        ],
        "paddingInPixel": false,
        "render": true
    },
    "displaytext": true,
    "focusskin": "s1820bca17164c40a5000b2d6f74fa66",
    "hexpand": true,
    "id": "fbBtn",
    "ide_onClick": "p2kwiet2012247638987_fbBtn_onClick_seq0",
    "info": null,
    "isvisible": true,
    "kiosk": {
        "@class": "com.kony.gen.viz.model.component.property.button.KioskButtonProperty",
        "_padding_": [
            0,
            5,
            0,
            6
        ],
        "padding": [
            0,
            5,
            0,
            6
        ],
        "paddingInPixel": false,
        "render": true
    },
    "kuid": "p2kwiet2012247638940",
    "margininpixel": false,
    "name": "kony.ui.Button",
    "paddinginpixel": false,
    "parent": "hbxOptions",
    "pf": "frmIBApplySoGooODComplete",
    "spa": {
        "@class": "com.kony.gen.viz.model.component.property.button.SPAButtonProperty",
        "displayText": true
    },
    "vexpand": false,
    "wType": "Button",
    "widgetalignment": 5
}