{
    "DNDConfig": null,
    "_data_": [],
    "_enabled_": false,
    "_indicator_": "none",
    "_margin_": [
        0,
        2,
        0,
        0
    ],
    "_orientation_": 2,
    "_padding_": [
        0,
        0,
        0,
        0
    ],
    "_skin_": "seg2Normal",
    "canUpdateUI": true,
    "containerheightreference": 1,
    "containerweight": 100,
    "context": {
        "channel": "mobile",
        "formID": "AdvancedWidgetsSegements",
        "templateType": "segments",
        "topLevelBox": false
    },
    "counter": 3,
    "desktopweb": {
        "@class": "com.kony.gen.viz.model.container.property.segment2.DesktopWebSegment2Property",
        "_margin_": [
            0,
            2,
            0,
            0
        ],
        "margin": [
            0,
            2,
            0,
            0
        ],
        "marginInPixel": false,
        "render": true
    },
    "focusedindex": null,
    "focuseditem": null,
    "generatedtemplate": "p2kwiet2012247638990",
    "groupcells": false,
    "hasSections": false,
    "hiddencolumns": {},
    "id": "segApplyTnx",
    "info": null,
    "isvisible": true,
    "kiosk": {
        "@class": "com.kony.gen.viz.model.container.property.segment2.KioskSegment2Property",
        "_margin_": [
            0,
            2,
            0,
            0
        ],
        "margin": [
            0,
            2,
            0,
            0
        ],
        "marginInPixel": false,
        "render": true
    },
    "kuid": "p2kwiet2012247638978",
    "layoutalignment": 3,
    "layouttype": 0,
    "margininpixel": false,
    "name": "kony.ui.SegmentedUI2",
    "needpageindicator": true,
    "paddinginpixel": false,
    "paginationconfig": {
        "position": "bottom"
    },
    "parent": "vboxMiddle",
    "pf": "frmIBApplySoGooODComplete",
    "retainselection": false,
    "rowTemplateId": "p2kwiet2012247638990",
    "rowcounter": 2,
    "rowfocusskin": "sbbc7f0678bf4c678c40fe82030b9661",
    "rowskin": "s01e0182a4d14a4da5e4e707eafeea1b",
    "screenlevelwidget": false,
    "scrollingevents": false,
    "seccounter": 0,
    "sectionheaderskin": "s9bd6d2f2f8c4fce89dae24cc47abe06",
    "selectedRows": null,
    "selectedState": false,
    "selectedindex": null,
    "selectedindices": null,
    "selecteditems": null,
    "selectedsectionindex": 0,
    "selectionbehavior": "default",
    "selectionbehaviorconfig": {},
    "separatorcolor": "c1c1c100",
    "separatorrequired": true,
    "separatorthickness": 1,
    "showscrollbars": false,
    "spa": {
        "@class": "com.kony.gen.viz.model.container.property.segment2.SPASegment2Property"
    },
    "viewtype": "tableview",
    "wType": "Segment",
    "widgetalignment": 1,
    "widgetdatamap": {
        "hboxTnxDesc": "hboxTnxDesc",
        "hbxAmount": "hbxAmount",
        "hbxInstallment": "hbxInstallment",
        "hbxInterest": "hbxInterest",
        "hbxLink": "hbxLink",
        "hbxPlan": "hbxPlan",
        "hbxPostedDate": "hbxPostedDate",
        "hbxTotalAmount": "hbxTotalAmount",
        "hbxTransactionDate": "hbxTransactionDate",
        "imgMoreHide": "imgMoreHide",
        "imgStatus": "imgStatus",
        "lblAmount": "lblAmount",
        "lblAmountVal": "lblAmountVal",
        "lblInstallment": "lblInstallment",
        "lblInstallmentVal": "lblInstallmentVal",
        "lblInterest": "lblInterest",
        "lblInterestVal": "lblInterestVal",
        "lblPlan": "lblPlan",
        "lblPlanVal": "lblPlanVal",
        "lblPostedDate": "lblPostedDate",
        "lblPostedDateVal": "lblPostedDateVal",
        "lblTotalAmount": "lblTotalAmount",
        "lblTotalAmountVal": "lblTotalAmountVal",
        "lblTransaction": "lblTransaction",
        "lblTransactionDate": "lblTransactionDate",
        "lblTransactionDateVal": "lblTransactionDateVal",
        "linkMoreHide": "linkMoreHide"
    }
}