{
    "DNDConfig": null,
    "_enabled_": false,
    "_margin_": [
        0,
        0,
        0,
        0
    ],
    "_orientation_": 2,
    "_padding_": [
        0,
        0,
        0,
        0
    ],
    "_position_": 3,
    "_resize_": true,
    "_skin_": "s97cc6c86bf047e2b52aaaa0fedee429",
    "allboxes": [],
    "borderCollapse": false,
    "canUpdateUI": true,
    "children": [
        "label474288733625",
        "hbxDepositAccnt",
        "line475148950238521",
        "label866795318717733",
        "lblDreamDesc",
        "label866795318717734",
        "lblTargetAmount",
        "hbox50741257659210",
        "label866795318717737",
        "hbox866795318717738",
        "hbox866795318717739",
        "hbox866795318717740",
        "hbox866795318717741",
        "hbox866795318717742",
        "label866795318717753",
        "hbox866795318717754",
        "lblnotAvaliable",
        "richtext476042680167636",
        "button866825109123369"
    ],
    "containerweight": 50,
    "desktopweb": {
        "@class": "com.kony.gen.viz.model.container.property.vbox.DesktopWebVBoxProperty",
        "_margin_": [
            0,
            4,
            0,
            0
        ],
        "_padding_": [
            0,
            0,
            3,
            0
        ],
        "margin": [
            0,
            4,
            0,
            0
        ],
        "marginInPixel": false,
        "padding": [
            0,
            0,
            3,
            0
        ],
        "paddingInPixel": false,
        "render": true
    },
    "id": "vbox507353026213307",
    "info": null,
    "isvisible": true,
    "kiosk": {
        "@class": "com.kony.gen.viz.model.container.property.vbox.KioskVBoxProperty",
        "_margin_": [
            0,
            0,
            0,
            0
        ],
        "_padding_": [
            0,
            0,
            0,
            0
        ],
        "margin": [
            0,
            0,
            0,
            0
        ],
        "marginInPixel": false,
        "padding": [
            0,
            0,
            0,
            0
        ],
        "paddingInPixel": false,
        "render": true
    },
    "kuid": "p2kwiet2012247642551",
    "layouttype": 0,
    "margininpixel": false,
    "name": "kony.ui.Box",
    "paddinginpixel": false,
    "parent": "hbox450064933452914",
    "pf": "frmIBDreamSavingMaintenance",
    "spa": {
        "@class": "com.kony.gen.viz.model.container.property.vbox.SPAVBoxProperty"
    },
    "templateType": "forms",
    "wType": "VBox",
    "widgetalignment": 1
}