{
    "DNDConfig": null,
    "_enabled_": false,
    "_margin_": [
        0,
        0,
        0,
        0
    ],
    "_padding_": [
        0,
        0,
        0,
        0
    ],
    "_skin_": "s6fcb7970d764d55bfe8e43310c5a3ca",
    "_text_": "",
    "canUpdateUI": true,
    "containerweight": 35,
    "contentalignment": 5,
    "desktopweb": {
        "@class": "com.kony.gen.viz.model.component.property.button.DesktopWebButtonProperty",
        "displayText": true,
        "render": true
    },
    "displaytext": true,
    "focusskin": "sa3e60c5e4734bebbfbac381f3759a04",
    "hexpand": true,
    "id": "btnReturnCheq",
    "ide_onClick": "p2kwiet2012247640532_btnReturnCheq_onClick_seq0",
    "info": null,
    "isvisible": true,
    "kiosk": {
        "@class": "com.kony.gen.viz.model.component.property.button.KioskButtonProperty",
        "render": true
    },
    "kuid": "p2kwiet2012247640521",
    "margininpixel": false,
    "name": "kony.ui.Button",
    "paddinginpixel": false,
    "parent": "hbxBillerLogoName",
    "pf": "frmIBChequeServiceStopChequeAck",
    "spa": {
        "@class": "com.kony.gen.viz.model.component.property.button.SPAButtonProperty",
        "displayText": true
    },
    "texti18n": "keyReturnCheque",
    "vexpand": false,
    "wType": "Button",
    "widgetalignment": 5
}