{
    "DNDConfig": null,
    "__parentReadjusting__": false,
    "_height_": {
        "type": "string",
        "value": "22%"
    },
    "_margin_": [
        0,
        0,
        0,
        0
    ],
    "_orientation_": 6,
    "_padding_": [
        0,
        0,
        0,
        0
    ],
    "_percent_": true,
    "_skin_": "s60a3bb5747a4dc397ce5a463c4eba92",
    "_width_": {
        "type": "string",
        "value": "100%"
    },
    "allboxes": [],
    "autogrowmode": 0,
    "canUpdateUI": true,
    "children": [
        "btnApprove",
        "btnHavingProblem",
        "CopyflxLine0gad35b2cc1ac44"
    ],
    "clipbounds": true,
    "containerweight": 100,
    "enablescrolling": true,
    "focusskin": "sf16386922154a1ea965e4cdf033ea5e",
    "id": "flexFooter",
    "info": null,
    "isvisible": true,
    "kuid": "c2219bfc71fd4d2a99e36fb8a05942a6",
    "layouttype": 2,
    "name": "kony.ui.FlexContainer",
    "parent": "flexFullBody",
    "pf": "frmUVApprovalMB",
    "snapgridsize": 10,
    "snaptogrid": true,
    "wType": "FlexContainer",
    "widgetalignment": 1,
    "zindex": 1
}