{
    "DNDConfig": null,
    "_enabled_": false,
    "_margin_": [
        0,
        0,
        0,
        0
    ],
    "_skin_": "s3fac7f5c4394523b159eab74ba11516",
    "_text_": "",
    "canUpdateUI": true,
    "containerweight": 100,
    "contentalignment": 4,
    "desktopweb": {
        "@class": "com.kony.gen.viz.model.component.property.combobox.DesktopWebComboBoxProperty",
        "_padding_": [
            1,
            1,
            1,
            1
        ],
        "padding": [
            1,
            1,
            1,
            1
        ],
        "paddingInPixel": false,
        "psp": {
            "autoSuggest": false,
            "hoverSkin": "s97ba7df10db4d458ccdd2cb756a5173",
            "viewType": 0
        },
        "render": true
    },
    "focusskin": "s97ba7df10db4d458ccdd2cb756a5173",
    "hexpand": true,
    "id": "cbxSelectCat",
    "ide_onSelection": "p2kwiet2012247639664_cbxSelectCat_onSelection_seq0",
    "info": null,
    "isvisible": true,
    "kiosk": {
        "@class": "com.kony.gen.viz.model.component.property.combobox.KioskComboBoxProperty",
        "render": true
    },
    "kuid": "p2kwiet2012247639654",
    "margininpixel": false,
    "masterdata": [],
    "name": "kony.ui.ComboBox",
    "parent": "hbxComboBox",
    "pf": "frmIBBeepAndBillList",
    "selectedkey": "",
    "selectedkeyvalue": [],
    "spa": {
        "@class": "com.kony.gen.viz.model.component.property.combobox.SPAComboBoxProperty"
    },
    "vexpand": false,
    "wType": "ComboBox",
    "widgetalignment": 5
}