{
    "DNDConfig": null,
    "_enabled_": false,
    "_margin_": [
        0,
        0,
        0,
        0
    ],
    "_padding_": [
        0,
        0,
        0,
        0
    ],
    "_skin_": "s1adaa3b40b648b7890db6b35b6d1698",
    "_text_": "  ",
    "canUpdateUI": true,
    "containerweight": 9,
    "contentalignment": 5,
    "desktopweb": {
        "@class": "com.kony.gen.viz.model.component.property.button.DesktopWebButtonProperty",
        "_padding_": [
            0,
            8,
            0,
            8
        ],
        "displayText": true,
        "padding": [
            0,
            8,
            0,
            8
        ],
        "paddingInPixel": false,
        "render": true
    },
    "displaytext": true,
    "focusskin": "s1adaa3b40b648b7890db6b35b6d1698",
    "hexpand": true,
    "id": "btnNext",
    "ide_onClick": "p2kwiet2012247647346_btnNext_onClick_seq0",
    "info": null,
    "isvisible": true,
    "kiosk": {
        "@class": "com.kony.gen.viz.model.component.property.button.KioskButtonProperty",
        "render": true
    },
    "kuid": "p2kwiet2012247647116",
    "margininpixel": false,
    "name": "kony.ui.Button",
    "paddinginpixel": false,
    "parent": "hbxPrevNext",
    "pf": "frmIBPostLoginDashboard",
    "spa": {
        "@class": "com.kony.gen.viz.model.component.property.button.SPAButtonProperty",
        "displayText": true
    },
    "vexpand": false,
    "wType": "Button",
    "widgetalignment": 3
}