{
    "DNDConfig": null,
    "_enabled_": false,
    "_margin_": [
        0,
        0,
        59,
        5
    ],
    "_padding_": [
        4,
        0,
        0,
        0
    ],
    "_skin_": "sa3dc8400b2e4c279e1b842ebafc32ae",
    "_text_": "",
    "canUpdateUI": true,
    "containerweight": 100,
    "contentalignment": 4,
    "desktopweb": {
        "@class": "com.kony.gen.viz.model.component.property.button.DesktopWebButtonProperty",
        "displayText": true,
        "render": true
    },
    "displaytext": true,
    "focusskin": "seffece54e4c46ed868cda1e7f04ba77",
    "hexpand": true,
    "id": "button503629151205731",
    "ide_onClick": "p2kwiet2012247647397_button503629151205731_onClick_seq0",
    "info": null,
    "isvisible": true,
    "kiosk": {
        "@class": "com.kony.gen.viz.model.component.property.button.KioskButtonProperty",
        "render": true
    },
    "kuid": "p2kwiet2012247647384",
    "margininpixel": false,
    "name": "kony.ui.Button",
    "paddinginpixel": false,
    "parent": "vbox503629151205725",
    "pf": "frmIBPreLogin",
    "spa": {
        "@class": "com.kony.gen.viz.model.component.property.button.SPAButtonProperty",
        "displayText": true
    },
    "texti18n": "keyPreLoginbtnActivateNow",
    "vexpand": false,
    "wType": "Button",
    "widgetalignment": 5
}