{
    "DNDConfig": null,
    "_enabled_": false,
    "_margin_": [
        0,
        0,
        0,
        0
    ],
    "_padding_": [
        0,
        0,
        0,
        0
    ],
    "_skin_": "s453f1f2236c43bcba4ab3e869bcf4cf",
    "_text_": "",
    "_wrapping_": 2,
    "android": {
        "@class": "com.kony.gen.viz.model.component.property.label.AndroidLabelProperty",
        "_margin_": [
            3,
            2,
            1,
            2
        ],
        "_padding_": [
            0,
            1,
            0,
            1
        ],
        "margin": [
            3,
            2,
            1,
            2
        ],
        "marginInPixel": false,
        "padding": [
            0,
            1,
            0,
            1
        ],
        "paddingInPixel": false,
        "psp": {
            "textCopyable": false
        },
        "render": true
    },
    "canUpdateUI": true,
    "containerweight": 100,
    "contentalignment": 4,
    "hexpand": true,
    "id": "lblSelectSlider",
    "info": null,
    "iphone": {
        "@class": "com.kony.gen.viz.model.component.property.label.IPhoneLabelProperty",
        "_margin_": [
            4,
            2,
            1,
            2
        ],
        "_padding_": [
            1,
            1,
            1,
            1
        ],
        "margin": [
            4,
            2,
            1,
            2
        ],
        "marginInPixel": false,
        "padding": [
            1,
            1,
            1,
            1
        ],
        "paddingInPixel": false,
        "psp": {
            "textCopyable": false,
            "wrapping": 2
        },
        "render": true
    },
    "isvisible": true,
    "kuid": "p2kwiet2012247635487",
    "margininpixel": false,
    "name": "kony.ui.Label",
    "paddinginpixel": false,
    "parent": "vbxMyfreqSlide",
    "pf": "frmOpenAccountSavingCareMB",
    "spa": {
        "@class": "com.kony.gen.viz.model.component.property.label.SPALabelProperty",
        "psp": {
            "textCopyable": false
        }
    },
    "spaan": {
        "@class": "com.kony.gen.viz.model.component.property.label.SPAAndroidLabelProperty",
        "_margin_": [
            3,
            2,
            1,
            2
        ],
        "_padding_": [
            0,
            1,
            0,
            1
        ],
        "margin": [
            3,
            2,
            1,
            2
        ],
        "marginInPixel": false,
        "padding": [
            0,
            1,
            0,
            1
        ],
        "paddingInPixel": false,
        "render": true
    },
    "spabb": {
        "@class": "com.kony.gen.viz.model.component.property.label.SPABBLabelProperty",
        "_margin_": [
            3,
            2,
            1,
            2
        ],
        "_padding_": [
            0,
            1,
            0,
            1
        ],
        "margin": [
            3,
            2,
            1,
            2
        ],
        "marginInPixel": false,
        "padding": [
            0,
            1,
            0,
            1
        ],
        "paddingInPixel": false,
        "render": true
    },
    "spaip": {
        "@class": "com.kony.gen.viz.model.component.property.label.SPAIPhoneLabelProperty",
        "_margin_": [
            3,
            2,
            1,
            2
        ],
        "_padding_": [
            0,
            1,
            0,
            1
        ],
        "margin": [
            3,
            2,
            1,
            2
        ],
        "marginInPixel": false,
        "padding": [
            0,
            1,
            0,
            1
        ],
        "paddingInPixel": false,
        "render": true
    },
    "spawinphone8": {
        "@class": "com.kony.gen.viz.model.component.property.label.SPAWinPhone8LabelProperty",
        "render": true
    },
    "texti18n": "keyOpenAmountFrom",
    "tooltip": "",
    "vexpand": false,
    "wType": "Label",
    "widgetalignment": 5,
    "winphone8": {
        "@class": "com.kony.gen.viz.model.component.property.label.WinPhone8LabelProperty",
        "_margin_": [
            3,
            2,
            1,
            2
        ],
        "_padding_": [
            0,
            1,
            0,
            1
        ],
        "margin": [
            3,
            2,
            1,
            2
        ],
        "marginInPixel": false,
        "padding": [
            0,
            1,
            0,
            1
        ],
        "paddingInPixel": false,
        "psp": {
            "enableCache": false
        },
        "render": true
    }
}