{
    "@class": "com.kony.gen.viz.model.container.KVizVBox",
    "DNDConfig": null,
    "__markedForDelete__": true,
    "_margin_": [
        0,
        0,
        0,
        0
    ],
    "_orientation_": 2,
    "_padding_": [
        0,
        0,
        0,
        0
    ],
    "_percent_": true,
    "_position_": 3,
    "_skin_": "s0e13ed4077f481ab090dae6b2e595ed",
    "allboxes": [],
    "canUpdateUI": true,
    "children": [
        "lblAccountNameVal",
        "lblAccountbalval"
    ],
    "containerweight": 95,
    "contextmenu": null,
    "id": "CopyVBox0e4e5e315225f4e",
    "info": null,
    "isvisible": true,
    "kuid": "ja70b54a7b624221b234c61d7e2acfbe",
    "layouttype": 0,
    "name": "kony.ui.Box",
    "paddInPixel": [
        0,
        0,
        0,
        0
    ],
    "parent": "CopyHBox0e91af88e063b48",
    "pf": "frmIBMFSelPurchaseFundsLP",
    "wType": "VBox",
    "widgetalignment": 1
}