{
    "DNDConfig": null,
    "__markedForDelete__": true,
    "_enabled_": false,
    "_margin_": [
        0,
        0,
        0,
        0
    ],
    "_orientation_": 1,
    "_padding_": [
        1,
        0,
        1,
        0
    ],
    "_percent_": true,
    "_position_": 3,
    "_resize_": true,
    "_skin_": "se5753c758864cea9ba9dbbb1dd5cd7c",
    "allboxes": [],
    "borderCollapse": false,
    "canUpdateUI": true,
    "children": [
        "CopyVBox0a958cba23dc248"
    ],
    "containerweight": 100,
    "desktopweb": {
        "@class": "com.kony.gen.viz.model.container.property.hbox.DesktopWebHBoxProperty",
        "_position_": 3,
        "position": 3,
        "render": true
    },
    "id": "HBoxSelectedUnitHolderNo",
    "ide_onClick": "AS_HBox_fcfd35909ebb491798e4733428828ac4",
    "info": null,
    "isvisible": true,
    "kiosk": {
        "@class": "com.kony.gen.viz.model.container.property.hbox.KioskHBoxProperty",
        "_position_": 3,
        "position": 3,
        "render": true
    },
    "kuid": "g74abe1102814103aa80cc588aca00c0",
    "layoutalignment": 3,
    "layouttype": 0,
    "margininpixel": false,
    "name": "kony.ui.Box",
    "paddinginpixel": false,
    "parent": "VBox0d86dea8280e444",
    "pf": "frmIBMFSelPurchaseFundsLP",
    "spa": {
        "@class": "com.kony.gen.viz.model.container.property.hbox.SPAHBoxProperty"
    },
    "wType": "HBox",
    "widgetalignment": 1
}