{
    "@class": "com.kony.gen.viz.model.component.KVizImage2",
    "DNDConfig": null,
    "__markedForDelete__": true,
    "_base64_": null,
    "_margin_": [
        2,
        0,
        2,
        0
    ],
    "_padding_": [
        0,
        0,
        0,
        0
    ],
    "_skin_": "s55d8a5125e74bb0b2eaca75c423dae1",
    "_src_": "step1.png",
    "canUpdateUI": true,
    "containerweight": 96,
    "context": {
        "channel": "desktop",
        "formID": "frmIBMFSelPurchaseFundsLP",
        "ispercent": true,
        "templateType": "forms",
        "topLevelBox": null
    },
    "id": "ImageStep",
    "imagescalemode": 1,
    "info": null,
    "invokedProperty": "src",
    "ispercent": true,
    "isvisible": true,
    "kuid": "d213021c0f094dc0880050cb470ce716",
    "margininpixel": false,
    "name": "kony.ui.Image2",
    "paddInPixel": [
        0,
        0,
        0,
        0
    ],
    "parent": "HBox0ed51eb1afc7040",
    "pf": "frmIBMFSelPurchaseFundsLP",
    "srcType": 1,
    "wType": "Image",
    "widgetalignment": 5
}