{
    "@class": "com.kony.gen.viz.model.component.KVizButton",
    "DNDConfig": null,
    "__parentReadjusting__": false,
    "_height_": {
        "type": "string",
        "value": "100%"
    },
    "_left_": {
        "type": "string",
        "value": "0dp"
    },
    "_margin_": [
        6,
        6,
        6,
        6
    ],
    "_padding_": [
        0,
        0,
        0,
        0
    ],
    "_skin_": "sc1c6d943f5c4644879aed96ec02ef36",
    "_text_": "",
    "_top_": {
        "type": "string",
        "value": "0dp"
    },
    "_width_": {
        "type": "string",
        "value": "100%"
    },
    "canUpdateUI": true,
    "containerweight": 100,
    "contentalignment": 5,
    "displaytext": true,
    "focusskin": "sc1c6d943f5c4644879aed96ec02ef36",
    "id": "btnBack",
    "info": null,
    "isvisible": true,
    "kuid": "dda91aaff6c54c2fae2c2e8c53a5c3b2",
    "name": "kony.ui.Button",
    "parent": "flxFooter",
    "pf": "frmLoanApplicationStatus",
    "texti18n": "Back",
    "wType": "Button",
    "zindex": 1
}