{
    "DNDConfig": null,
    "_enabled_": false,
    "_margin_": [
        1,
        0,
        7,
        0
    ],
    "_padding_": [
        0,
        1,
        0,
        1
    ],
    "_skin_": "s3fac7f5c4394523b159eab74ba11516",
    "_text_": "",
    "canUpdateUI": true,
    "containerweight": 70,
    "contentalignment": 4,
    "desktopweb": {
        "@class": "com.kony.gen.viz.model.component.property.combobox.DesktopWebComboBoxProperty",
        "_margin_": [
            1,
            0,
            7,
            0
        ],
        "margin": [
            1,
            0,
            7,
            0
        ],
        "marginInPixel": false,
        "psp": {
            "autoSuggest": false,
            "hoverSkin": "s97ba7df10db4d458ccdd2cb756a5173",
            "viewType": 0
        },
        "render": true
    },
    "focusskin": "s97ba7df10db4d458ccdd2cb756a5173",
    "hexpand": true,
    "id": "comboAmount",
    "info": null,
    "isvisible": true,
    "kiosk": {
        "@class": "com.kony.gen.viz.model.component.property.combobox.KioskComboBoxProperty",
        "_margin_": [
            1,
            0,
            7,
            0
        ],
        "margin": [
            1,
            0,
            7,
            0
        ],
        "marginInPixel": false,
        "render": true
    },
    "kuid": "p2kwiet2012247648740",
    "margininpixel": false,
    "masterdata": [
        [
            "0",
            "Select TopUp Amount"
        ],
        [
            "1",
            "100"
        ],
        [
            "2",
            "200"
        ],
        [
            "3",
            "300"
        ],
        [
            "4",
            "400"
        ]
    ],
    "name": "kony.ui.ComboBox",
    "paddinginpixel": false,
    "parent": "hbxAmount",
    "pf": "frmIBTopUpCW",
    "selectedkey": "0",
    "selectedkeyvalue": [
        "0",
        "Select TopUp Amount"
    ],
    "spa": {
        "@class": "com.kony.gen.viz.model.component.property.combobox.SPAComboBoxProperty"
    },
    "vexpand": false,
    "wType": "ComboBox",
    "widgetalignment": 5
}