{
    "DNDConfig": null,
    "_enabled_": false,
    "_margin_": [
        0,
        0,
        0,
        0
    ],
    "_padding_": [
        0,
        0,
        0,
        0
    ],
    "canUpdateUI": true,
    "containerweight": 100,
    "contentalignment": 5,
    "customProperties": {
        "data": "[]",
        "onSelect": null,
        "selectedItem": "0"
    },
    "cwEvents": [],
    "cwid": "jsSPACustomWidget201224764586",
    "desktopweb": {
        "@class": "com.kony.gen.viz.model.psp.WidgetProperty",
        "render": true
    },
    "hexpand": true,
    "id": "customFromAccountIB",
    "info": null,
    "isvisible": true,
    "kiosk": {
        "@class": "com.kony.gen.viz.model.psp.WidgetProperty",
        "render": false
    },
    "kuid": "p2kwiet2012247641583",
    "margininpixel": false,
    "name": "vCoverflow-kony.ui",
    "paddinginpixel": false,
    "parent": "vbxXferRight",
    "pf": "frmIBCMFreqUsedAcnt",
    "platformKey": "spa",
    "spa": {
        "@class": "com.kony.gen.viz.model.psp.WidgetProperty"
    },
    "vexpand": false,
    "wType": "TPW",
    "widgetalignment": 5
}