{
    "DNDConfig": null,
    "_enabled_": false,
    "_margin_": [
        0,
        0,
        0,
        0
    ],
    "_orientation_": 1,
    "_padding_": [
        0,
        0,
        0,
        0
    ],
    "_percent_": true,
    "_position_": 3,
    "_resize_": true,
    "_skin_": "s70aad17b6d344bf9a9cc6ca7b433fed",
    "allboxes": [],
    "android": {
        "@class": "com.kony.gen.viz.model.container.property.hbox.AndroidHBoxProperty",
        "_margin_": [
            0,
            0,
            0,
            0
        ],
        "_padding_": [
            11,
            0,
            11,
            0
        ],
        "_position_": 3,
        "margin": [
            0,
            0,
            0,
            0
        ],
        "marginInPixel": true,
        "padding": [
            11,
            0,
            11,
            0
        ],
        "paddingInPixel": true,
        "position": 3,
        "render": true
    },
    "borderCollapse": false,
    "canUpdateUI": true,
    "children": [
        "lblUseful15",
        "lblUsefulValue15"
    ],
    "containerweight": 100,
    "id": "hbxUseful15",
    "info": null,
    "iphone": {
        "@class": "com.kony.gen.viz.model.container.property.hbox.IPhoneHBoxProperty",
        "_margin_": [
            0,
            0,
            0,
            0
        ],
        "_padding_": [
            10,
            0,
            10,
            0
        ],
        "_position_": 3,
        "margin": [
            0,
            0,
            0,
            0
        ],
        "marginInPixel": true,
        "padding": [
            10,
            0,
            10,
            0
        ],
        "paddingInPixel": true,
        "position": 3,
        "render": true
    },
    "isvisible": false,
    "kuid": "p2kwiet2012247626437",
    "layoutalignment": 3,
    "margininpixel": false,
    "name": "kony.ui.Box",
    "paddinginpixel": false,
    "parent": "vbox53130498610",
    "pf": "frmAccountDetailsMBold",
    "spa": {
        "@class": "com.kony.gen.viz.model.container.property.hbox.SPAHBoxProperty"
    },
    "spaan": {
        "@class": "com.kony.gen.viz.model.container.property.hbox.SPAAndroidHBoxProperty",
        "_margin_": [
            0,
            0,
            0,
            0
        ],
        "_padding_": [
            4,
            2,
            4,
            2
        ],
        "margin": [
            0,
            0,
            0,
            0
        ],
        "marginInPixel": false,
        "padding": [
            4,
            2,
            4,
            2
        ],
        "paddingInPixel": false,
        "render": true
    },
    "spabb": {
        "@class": "com.kony.gen.viz.model.container.property.hbox.SPABBHBoxProperty",
        "_margin_": [
            2,
            0,
            2,
            0
        ],
        "_padding_": [
            2,
            0,
            2,
            0
        ],
        "margin": [
            2,
            0,
            2,
            0
        ],
        "marginInPixel": false,
        "padding": [
            2,
            0,
            2,
            0
        ],
        "paddingInPixel": false,
        "render": true
    },
    "spaip": {
        "@class": "com.kony.gen.viz.model.container.property.hbox.SPAIPhoneHBoxProperty",
        "_margin_": [
            0,
            0,
            0,
            0
        ],
        "_padding_": [
            4,
            2,
            4,
            2
        ],
        "margin": [
            0,
            0,
            0,
            0
        ],
        "marginInPixel": false,
        "padding": [
            4,
            2,
            4,
            2
        ],
        "paddingInPixel": false,
        "render": true
    },
    "spawinphone8": {
        "@class": "com.kony.gen.viz.model.container.property.hbox.SPAWinPhone8HBoxProperty",
        "render": true
    },
    "templateType": "forms",
    "wType": "HBox",
    "widgetalignment": 1,
    "winphone8": {
        "@class": "com.kony.gen.viz.model.container.property.hbox.WinPhone8HBoxProperty",
        "_margin_": [
            7,
            0,
            7,
            0
        ],
        "_padding_": [
            7,
            0,
            7,
            0
        ],
        "_position_": 3,
        "margin": [
            7,
            0,
            7,
            0
        ],
        "marginInPixel": true,
        "padding": [
            7,
            0,
            7,
            0
        ],
        "paddingInPixel": true,
        "position": 3,
        "psp": {
            "enableCache": false
        },
        "render": true
    }
}