{
    "DNDConfig": null,
    "__parentReadjusting__": false,
    "_bottom_": {
        "type": "string",
        "value": "10dp"
    },
    "_height_": {
        "type": "ref",
        "value": "preferred"
    },
    "_margin_": [
        0,
        0,
        0,
        0
    ],
    "_orientation_": 6,
    "_padding_": [
        0,
        0,
        0,
        0
    ],
    "_percent_": true,
    "_skin_": "s4e4a93dc3bb42cfbd8eaf003f506c1a",
    "_top_": {
        "type": "string",
        "value": "10dp"
    },
    "_width_": {
        "type": "string",
        "value": "64%"
    },
    "allboxes": [],
    "autogrowmode": 1,
    "canUpdateUI": true,
    "children": [
        "lblFrmAccntNickName",
        "lblFrmAccntNum",
        "lblFrmAccntName"
    ],
    "clipbounds": true,
    "containerweight": 100,
    "enablescrolling": true,
    "id": "flxFromAccount",
    "info": null,
    "isvisible": true,
    "kuid": "bd5d63fb6bcb4185be6c8480e51c406e",
    "layouttype": 4,
    "name": "kony.ui.FlexContainer",
    "parent": "hbxFromAccnt",
    "pf": "frmMBFTEdit",
    "snapgridsize": 10,
    "snaptogrid": true,
    "wType": "FlexContainer",
    "widgetalignment": 1,
    "zindex": 1
}