{
    "@class": "com.kony.gen.viz.model.component.KVizButton",
    "DNDConfig": null,
    "__parentReadjusting__": false,
    "_height_": {
        "type": "string",
        "value": "10%"
    },
    "_margin_": [
        6,
        6,
        6,
        6
    ],
    "_padding_": [
        0,
        0,
        0,
        0
    ],
    "_skin_": "s26e209fba9b4493bb5a43da86d48c69",
    "_text_": "Button",
    "_top_": {
        "type": "string",
        "value": "10dp"
    },
    "_width_": {
        "type": "string",
        "value": "80%"
    },
    "canUpdateUI": true,
    "centerx": {
        "type": "string",
        "value": "50%"
    },
    "centery": {
        "type": "string",
        "value": "80%"
    },
    "containerweight": 100,
    "contentalignment": 5,
    "disabledSkins": {},
    "displaytext": true,
    "focusskin": "sd73af8e5e69407b85e19faf41d7e6b7",
    "id": "btnRegister",
    "info": null,
    "iphone": {
        "psp": {
            "showProgressIndicator": false
        }
    },
    "isvisible": true,
    "kuid": "c4a9e8036c2144a4b2be2d3441556e5d",
    "name": "kony.ui.Button",
    "parent": "flxPopup",
    "pf": "frmAccountSummaryLanding",
    "showprogressindicator": false,
    "wType": "Button",
    "zindex": 1
}