{
    "DNDConfig": null,
    "__parentReadjusting__": false,
    "_height_": {
        "type": "string",
        "value": "20%"
    },
    "_left_": {
        "type": "string",
        "value": "0%"
    },
    "_margin_": [
        0,
        0,
        0,
        0
    ],
    "_orientation_": 6,
    "_padding_": [
        0,
        0,
        0,
        0
    ],
    "_percent_": true,
    "_skin_": "s918d2c198cc4b1b99c1a0fe1f4e0370",
    "_top_": {
        "type": "string",
        "value": "40%"
    },
    "_width_": {
        "type": "string",
        "value": "100%"
    },
    "allboxes": [],
    "autogrowmode": 0,
    "canUpdateUI": true,
    "children": [
        "CopyFlexContainer0ib21401112a144",
        "CopyFlexContainer0d96188dc6bdc47",
        "CopyFlexContainer0b6f4be71432d46",
        "CopyFlexContainer0f34c995d152e45"
    ],
    "clipbounds": true,
    "containerweight": 100,
    "enablescrolling": true,
    "id": "CopyFlexContainer0jc673c9a88344e",
    "info": null,
    "isvisible": true,
    "kuid": "h53a5f7e428a47a5aa65a7e8e8ed2dca",
    "layouttype": 2,
    "name": "kony.ui.FlexContainer",
    "parent": "flxSkeletonScroll",
    "pf": "frmAccountSummaryLanding",
    "snapgridsize": 10,
    "snaptogrid": true,
    "wType": "FlexContainer",
    "widgetalignment": 1,
    "zindex": 1
}