{
    "DNDConfig": null,
    "__parentReadjusting__": false,
    "_height_": {
        "type": "string",
        "value": "20%"
    },
    "_left_": {
        "type": "string",
        "value": "0%"
    },
    "_margin_": [
        0,
        0,
        0,
        0
    ],
    "_orientation_": 6,
    "_padding_": [
        0,
        0,
        0,
        0
    ],
    "_percent_": true,
    "_skin_": "s918d2c198cc4b1b99c1a0fe1f4e0370",
    "_top_": {
        "type": "string",
        "value": "20%"
    },
    "_width_": {
        "type": "string",
        "value": "100%"
    },
    "allboxes": [],
    "autogrowmode": 0,
    "canUpdateUI": true,
    "children": [
        "CopyFlexContainer0ccd70d31094f49",
        "CopyFlexContainer0d9990bcabdb540",
        "CopyFlexContainer0i0cf724888734d",
        "CopyFlexContainer0fe7af13483a54b"
    ],
    "clipbounds": true,
    "containerweight": 100,
    "enablescrolling": true,
    "id": "CopyFlexContainer0a5f4fd33b31f41",
    "info": null,
    "isvisible": true,
    "kuid": "ib304a3a3be6431a94ac11dc36227562",
    "layouttype": 2,
    "name": "kony.ui.FlexContainer",
    "parent": "flxSkeletonScroll",
    "pf": "frmAccountSummaryLanding",
    "snapgridsize": 10,
    "snaptogrid": true,
    "wType": "FlexContainer",
    "widgetalignment": 1,
    "zindex": 1
}