{
    "DNDConfig": null,
    "_enabled_": false,
    "_margin_": [
        0,
        0,
        0,
        0
    ],
    "_padding_": [
        0,
        3,
        0,
        3
    ],
    "_skin_": "sc07d12aeaf542c9babd28519d766e8c",
    "_text_": "",
    "canUpdateUI": true,
    "containerweight": 12,
    "contentalignment": 5,
    "desktopweb": {
        "@class": "com.kony.gen.viz.model.component.property.button.DesktopWebButtonProperty",
        "_padding_": [
            0,
            0,
            0,
            15
        ],
        "contentAlignment": 5,
        "displayText": true,
        "padding": [
            0,
            0,
            0,
            15
        ],
        "paddingInPixel": false,
        "psp": {
            "hoverSkin": "s35cdb06352b487c9708c6429c28490d"
        },
        "render": true
    },
    "displaytext": true,
    "focusskin": "s35cdb06352b487c9708c6429c28490d",
    "hexpand": true,
    "id": "btnprinter",
    "ide_onClick": "p2kwiet2012247644560_btnprinter_onClick_seq0",
    "info": null,
    "isvisible": true,
    "kuid": "p2kwiet2012247644272",
    "margininpixel": false,
    "name": "kony.ui.Button",
    "paddinginpixel": false,
    "parent": "hbox588684466100102",
    "pf": "frmIBMyActivities",
    "spa": {
        "@class": "com.kony.gen.viz.model.component.property.button.SPAButtonProperty",
        "displayText": true
    },
    "vexpand": false,
    "wType": "Button",
    "widgetalignment": 5
}