{
    "DNDConfig": null,
    "_enabled_": false,
    "_margin_": [
        0,
        0,
        0,
        0
    ],
    "_padding_": [
        0,
        3,
        0,
        3
    ],
    "_skin_": "s073f811a5654bc29884b87ff47b1ec1",
    "_text_": "",
    "canUpdateUI": true,
    "containerweight": 14,
    "contentalignment": 5,
    "desktopweb": {
        "@class": "com.kony.gen.viz.model.component.property.button.DesktopWebButtonProperty",
        "_padding_": [
            0,
            0,
            0,
            3
        ],
        "contentAlignment": 5,
        "displayText": true,
        "padding": [
            0,
            0,
            0,
            3
        ],
        "paddingInPixel": false,
        "psp": {
            "hoverSkin": "s44bdfebe7b94423a59d98e60029d3e1"
        },
        "render": true
    },
    "displaytext": true,
    "focusskin": "s44bdfebe7b94423a59d98e60029d3e1",
    "hexpand": true,
    "id": "btnsubmit",
    "ide_onClick": "p2kwiet2012247644560_btnsubmit_onClick_seq0",
    "info": null,
    "isvisible": true,
    "kuid": "p2kwiet2012247644266",
    "margininpixel": false,
    "name": "kony.ui.Button",
    "paddinginpixel": false,
    "parent": "hbox588684466100175",
    "pf": "frmIBMyActivities",
    "spa": {
        "@class": "com.kony.gen.viz.model.component.property.button.SPAButtonProperty",
        "displayText": true
    },
    "texti18n": "MyActivitiesIB_Submit",
    "vexpand": false,
    "wType": "Button",
    "widgetalignment": 5
}