{
    "DNDConfig": null,
    "_enabled_": false,
    "_margin_": [
        0,
        0,
        0,
        0
    ],
    "_padding_": [
        0,
        3,
        0,
        3
    ],
    "_skin_": "sc630a05ccde47fb9a1f06bfb4f2ed0d",
    "_text_": "",
    "canUpdateUI": true,
    "containerweight": 42,
    "contentalignment": 5,
    "desktopweb": {
        "@class": "com.kony.gen.viz.model.component.property.button.DesktopWebButtonProperty",
        "_margin_": [
            1,
            0,
            0,
            0
        ],
        "_padding_": [
            2,
            2,
            2,
            2
        ],
        "contentAlignment": 5,
        "displayText": true,
        "margin": [
            1,
            0,
            0,
            0
        ],
        "marginInPixel": false,
        "padding": [
            2,
            2,
            2,
            2
        ],
        "paddingInPixel": false,
        "psp": {
            "hoverSkin": "s8fc3e7bee344f40a1a4cf815ffcebf3"
        },
        "render": true
    },
    "displaytext": true,
    "focusskin": "s8fc3e7bee344f40a1a4cf815ffcebf3",
    "hexpand": true,
    "id": "button474170747310706",
    "ide_onClick": "p2kwiet2012247644560_button474170747310706_onClick_seq0",
    "info": null,
    "isvisible": true,
    "kuid": "p2kwiet2012247644536",
    "margininpixel": false,
    "name": "kony.ui.Button",
    "paddinginpixel": false,
    "parent": "hbxCal",
    "pf": "frmIBMyActivities",
    "spa": {
        "@class": "com.kony.gen.viz.model.component.property.button.SPAButtonProperty",
        "displayText": true
    },
    "texti18n": "MyActivitiesIB_FutureTrans",
    "vexpand": false,
    "wType": "Button",
    "widgetalignment": 5
}