{
    "DNDConfig": null,
    "_enabled_": false,
    "_margin_": [
        0,
        0,
        0,
        0
    ],
    "_padding_": [
        0,
        0,
        0,
        0
    ],
    "_skin_": "s88c6e4bc9b14fbaa47455a3aa5af337",
    "_text_": "",
    "canUpdateUI": true,
    "containerweight": 6,
    "contentalignment": 5,
    "desktopweb": {
        "@class": "com.kony.gen.viz.model.component.property.link.DesktopWebLinkProperty",
        "render": true
    },
    "focusskin": "s88c6e4bc9b14fbaa47455a3aa5af337",
    "hexpand": true,
    "id": "linkprev",
    "ide_onClick": "p2kwiet2012247644560_linkprev_onClick_seq0",
    "info": null,
    "isvisible": false,
    "kuid": "p2kwiet2012247644298",
    "margininpixel": false,
    "name": "kony.ui.Link",
    "paddinginpixel": false,
    "parent": "hbxbottom",
    "pf": "frmIBMyActivities",
    "spa": {
        "@class": "com.kony.gen.viz.model.component.property.link.SPALinkProperty"
    },
    "texti18n": "keyPrev",
    "vexpand": false,
    "wType": "Link",
    "widgetalignment": 6
}