{
    "@class": "com.kony.gen.viz.model.component.KVizButton",
    "DNDConfig": null,
    "__markedForDelete__": true,
    "_margin_": [
        3,
        0,
        3,
        0
    ],
    "_padding_": [
        0,
        2,
        0,
        2
    ],
    "_skin_": "s79822a23a114b70b6a9a9389e690e70",
    "_text_": "Button",
    "canUpdateUI": true,
    "containerweight": 100,
    "contentalignment": 5,
    "displaytext": true,
    "focusskin": "s51feb22c79d445f9ad29db36f315efa",
    "id": "btnPassportID",
    "ide_onClick": "AS_Button_b1e278b09f724cb88ac899903edba267",
    "info": null,
    "isvisible": true,
    "kuid": "dcf862adc44c443fbb11e649c3b4bd7e",
    "margininpixel": false,
    "name": "kony.ui.Button",
    "paddInPixel": [
        29.68,
        29.68,
        29.68,
        29.68
    ],
    "paddinginpixel": false,
    "parent": "CopyVBox0j8acb7c060184f",
    "pf": "frmMBActivation",
    "texti18n": "Passportno",
    "wType": "Button"
}