{
    "@class": "com.kony.gen.viz.model.component.KVizLine",
    "DNDConfig": null,
    "_margin_": [
        0,
        1,
        0,
        0
    ],
    "_padding_": [
        0,
        0,
        0,
        0
    ],
    "_skin_": "sc24385b80964be1aa17ec1f78fbfe66",
    "_thickness_": 4,
    "canUpdateUI": true,
    "containerWeightLocked": false,
    "containerweight": 100,
    "id": "lineCitizen",
    "info": null,
    "isvisible": true,
    "kuid": "cedb6283d78c4996a0c61a4dae6b1d27",
    "margininpixel": false,
    "name": "kony.ui.Line",
    "parent": "VBox0e8b7798b940b4a",
    "pf": "frmMBActivation",
    "wType": "Line"
}