{
    "DNDConfig": null,
    "_enabled_": false,
    "_margin_": [
        0,
        0,
        0,
        0
    ],
    "_padding_": [
        2,
        2,
        2,
        2
    ],
    "_render_": true,
    "_skin_": "s770c79e7dfa4148b5bc64ca2bfa3e38",
    "_text_": "",
    "_wrapping_": 2,
    "canUpdateUI": true,
    "containerweight": 100,
    "contentalignment": 4,
    "desktopweb": {
        "@class": "com.kony.gen.viz.model.component.property.richtext.DesktopWebRichTextProperty",
        "render": true
    },
    "hexpand": true,
    "id": "richTextBenNotSpecified",
    "info": null,
    "isvisible": true,
    "kiosk": {
        "@class": "com.kony.gen.viz.model.component.property.richtext.KioskRichTextProperty",
        "render": true
    },
    "kuid": "p2kwiet2012247646279",
    "margininpixel": false,
    "name": "kony.ui.RichText",
    "paddinginpixel": false,
    "parent": "vbox96743040828318",
    "pf": "frmIBOpenNewSavingsCareAccComplete",
    "spa": {
        "@class": "com.kony.gen.viz.model.component.property.richtext.SPARichTextProperty"
    },
    "texti18n": "keyBeneficiariesNotSpecifyDetail",
    "vexpand": false,
    "wType": "RichText",
    "widgetalignment": 5
}