{
    "DNDConfig": null,
    "__parentReadjusting__": false,
    "_height_": {
        "type": "string",
        "value": "100%"
    },
    "_left_": {
        "type": "string",
        "value": "0dp"
    },
    "_margin_": [
        0,
        0,
        0,
        0
    ],
    "_orientation_": 6,
    "_padding_": [
        0,
        0,
        0,
        0
    ],
    "_percent_": true,
    "_skin_": "sf16386922154a1ea965e4cdf033ea5e",
    "_top_": {
        "type": "string",
        "value": "0%"
    },
    "_width_": {
        "type": "string",
        "value": "100%"
    },
    "allboxes": [],
    "autogrowmode": 0,
    "canUpdateUI": true,
    "centerx": {
        "type": "string",
        "value": "49.98%"
    },
    "children": [
        "segCardlesswithdrawActivation",
        "flexFooter",
        "flexCrossmark"
    ],
    "clipbounds": true,
    "containerweight": 100,
    "enablescrolling": true,
    "focusskin": "s60a3bb5747a4dc397ce5a463c4eba92",
    "id": "flexTutorial",
    "info": null,
    "isvisible": true,
    "kuid": "bc9232f5fdc04077b6694fa2444d8aa7",
    "layouttype": 2,
    "name": "kony.ui.FlexContainer",
    "parent": "frmTutorialForCardlessWithdraw",
    "pf": "frmTutorialForCardlessWithdraw",
    "snapgridsize": 10,
    "snaptogrid": true,
    "wType": "FlexContainer",
    "widgetalignment": 1,
    "zindex": 1
}