{
    "DNDConfig": null,
    "_enabled_": false,
    "_margin_": [
        3,
        0,
        0,
        0
    ],
    "_skin_": "s5acbd7611124b5db2432a29feceb493",
    "_text_": "",
    "canUpdateUI": true,
    "containerweight": 49,
    "contentalignment": 5,
    "desktopweb": {
        "@class": "com.kony.gen.viz.model.component.property.button.DesktopWebButtonProperty",
        "displayText": true,
        "render": true
    },
    "displaytext": true,
    "focusskin": "sfa8adc8f9d844e4ba21b93d33bed075",
    "hexpand": true,
    "id": "btnAddMoreBiller",
    "ide_onClick": "p2kwiet2012247645428_btnAddMoreBiller_onClick_seq0",
    "info": null,
    "isvisible": true,
    "kiosk": {
        "@class": "com.kony.gen.viz.model.component.property.button.KioskButtonProperty",
        "render": true
    },
    "kuid": "p2kwiet2012247645357",
    "margininpixel": false,
    "name": "kony.ui.Button",
    "parent": "hbxReturnAddMore",
    "pf": "frmIBMyTopUpsHome",
    "spa": {
        "@class": "com.kony.gen.viz.model.component.property.button.SPAButtonProperty",
        "displayText": true
    },
    "texti18n": "keybtnAddMore",
    "vexpand": false,
    "wType": "Button",
    "widgetalignment": 6
}