{
    "DNDConfig": null,
    "_enabled_": false,
    "_orientation_": 2,
    "_position_": 3,
    "_resize_": true,
    "_skin_": "s97cc6c86bf047e2b52aaaa0fedee429",
    "allboxes": [],
    "borderCollapse": false,
    "canUpdateUI": true,
    "children": [
        "imgTMBLogo",
        "hbxBillersAddContainer",
        "hbxBillersConfirmContainer",
        "hbxBillersCompleteContainer",
        "hbxBillersViewContainer",
        "hbxBillersEditContainer"
    ],
    "containerweight": 50,
    "desktopweb": {
        "@class": "com.kony.gen.viz.model.container.property.vbox.DesktopWebVBoxProperty",
        "_margin_": [
            2,
            0,
            2,
            0
        ],
        "margin": [
            2,
            0,
            2,
            0
        ],
        "marginInPixel": false,
        "render": true
    },
    "id": "vboxBillersLevel3",
    "info": null,
    "isvisible": true,
    "kiosk": {
        "@class": "com.kony.gen.viz.model.container.property.vbox.KioskVBoxProperty",
        "render": true
    },
    "kuid": "p2kwiet2012247645396",
    "layouttype": 0,
    "name": "kony.ui.Box",
    "parent": "hbox5046420151114970",
    "pf": "frmIBMyTopUpsHome",
    "spa": {
        "@class": "com.kony.gen.viz.model.container.property.vbox.SPAVBoxProperty"
    },
    "templateType": "forms",
    "wType": "VBox",
    "widgetalignment": 1
}