{
    "DNDConfig": null,
    "_enabled_": false,
    "_margin_": [
        0,
        0,
        0,
        0
    ],
    "_padding_": [
        0,
        0,
        0,
        0
    ],
    "canUpdateUI": true,
    "containerweight": 89,
    "contentalignment": 5,
    "customProperties": {
        "selectedDate1": null,
        "selectedDate2": null
    },
    "cwEvents": [],
    "cwid": "jsSPACustomWidget201224764580",
    "desktopweb": {
        "@class": "com.kony.gen.viz.model.psp.WidgetProperty",
        "render": true
    },
    "hexpand": true,
    "id": "dateslider",
    "info": null,
    "isvisible": true,
    "kuid": "p2kwiet2012247640621",
    "margininpixel": false,
    "name": "dateRange-kony.ui",
    "paddinginpixel": false,
    "parent": "hbxslider",
    "pf": "frmIBChequeServiceViewReturnedCheque",
    "platformKey": "spa",
    "spa": {
        "@class": "com.kony.gen.viz.model.psp.WidgetProperty"
    },
    "vexpand": false,
    "wType": "TPW",
    "widgetalignment": 5
}