{
    "@class": "com.kony.gen.viz.model.container.KVizHBox",
    "DNDConfig": null,
    "_margin_": [
        0,
        0,
        0,
        10
    ],
    "_orientation_": 1,
    "_padding_": [
        0,
        0,
        0,
        0
    ],
    "_percent_": true,
    "_position_": 3,
    "_skin_": "s3240d32b9a74cc78d1e0768cd2cdf1b",
    "allboxes": [],
    "canUpdateUI": true,
    "children": [
        "btnRadioYes",
        "lblRadioYes"
    ],
    "containerId": true,
    "containerweight": 100,
    "contextmenu": null,
    "id": "HBox0e35981f95c4248",
    "info": null,
    "isSegmentChild": true,
    "iscustomlayout": false,
    "isvisible": true,
    "kuid": "i986c856189a4ccfa2189e67707cb0d1",
    "layouttype": 0,
    "margininpixel": false,
    "name": "kony.ui.Box",
    "parent": "VBox0c66a53cc99e74f",
    "pf": "vbox201224764603",
    "retaincontentalignment": false,
    "retainflexpositionproperties": false,
    "wType": "HBox",
    "widgetalignment": 1
}