{
    "applicableblockedUIWidget": "Button",
    "background_color": "ffffff00",
    "background_style": "vg",
    "bg_type": "one",
    "blockedimgURL": "",
    "border_color": "000000ff",
    "border_radius": 0,
    "border_style": "plain",
    "border_type": 0,
    "border_width": 0,
    "bottom_left_border_color": "000000ff",
    "bottom_left_border_radius": 10,
    "bottom_left_border_width": 0,
    "bottom_right_border_color": "000000ff",
    "bottom_right_border_radius": 10,
    "bottom_right_border_width": 0,
    "desktopweb": {
        "applicableblockedUIWidget": "Button",
        "backgroundSize": false,
        "background_color": "ffffff00",
        "background_style": "vg",
        "bg_type": "one",
        "blockedimgURL": "",
        "border_color": "000000ff",
        "border_radius": 0,
        "border_style": "plain",
        "border_type": 0,
        "border_width": 0,
        "bottom_left_border_color": "000000ff",
        "bottom_left_border_radius": 10,
        "bottom_left_border_style": "plain",
        "bottom_left_border_width": 0,
        "bottom_right_border_color": "000000ff",
        "bottom_right_border_radius": 10,
        "bottom_right_border_style": "plain",
        "bottom_right_border_width": 0,
        "customCSS": "width:38px!important; height:24px!important; background:url(./images/icon_del_notification_foc.png) center center no-repeat; outline:0 none; border:0 none; cursor:pointer; ",
        "font_color": "000000ff",
        "font_size": 100,
        "font_weight": "normal",
        "gridLineColor": "0000000",
        "id": "btnIBNotHomeDelFocus",
        "isCustomCSSEnabled": true,
        "isForked": true,
        "psp": {},
        "repeatImageHorizontally": false,
        "repeatImageVertically": false,
        "shadow": {
            "br": 0,
            "color": "000000",
            "inner": false,
            "x": 0,
            "y": 0
        },
        "text_shadow": {
            "br": 0,
            "color": "000000",
            "x": 0,
            "y": 0
        },
        "top_left_border_color": "000000ff",
        "top_left_border_radius": 10,
        "top_left_border_style": "plain",
        "top_left_border_width": 0,
        "top_right_border_color": "000000ff",
        "top_right_border_radius": 10,
        "top_right_border_style": "plain",
        "top_right_border_width": 0,
        "use_native": "false",
        "vizChannel": "desktopweb",
        "wType": "Button"
    },
    "font_color": "000000ff",
    "font_size": 100,
    "font_weight": "normal",
    "gridLineColor": "0000000",
    "id": "btnIBNotHomeDelFocus",
    "isForked": false,
    "kuid": "s56a1a57e8d84112b67876c6ed8ff836",
    "shadow": {
        "br": 0,
        "color": "000000",
        "inner": false,
        "x": 0,
        "y": 0
    },
    "spaan": {
        "customCSS": "width:38px!important; height:24px!important; background:url(./images/icon_del_notification_foc.png) center center no-repeat; outline:0 none; border:0 none; cursor:pointer; ",
        "isCustomCSSEnabled": true,
        "isForked": true
    },
    "spaandroidtablet": {
        "customCSS": "width:38px!important; height:24px!important; background:url(./images/icon_del_notification_foc.png) center center no-repeat; outline:0 none; border:0 none; cursor:pointer; ",
        "isCustomCSSEnabled": true,
        "isForked": true
    },
    "spabb": {
        "customCSS": "width:38px!important; height:24px!important; background:url(./images/icon_del_notification_foc.png) center center no-repeat; outline:0 none; border:0 none; cursor:pointer; ",
        "isCustomCSSEnabled": true,
        "isForked": true
    },
    "spaip": {
        "customCSS": "width:38px!important; height:24px!important; background:url(./images/icon_del_notification_foc.png) center center no-repeat; outline:0 none; border:0 none; cursor:pointer; ",
        "isCustomCSSEnabled": true,
        "isForked": true
    },
    "spaipad": {
        "customCSS": "width:38px!important; height:24px!important; background:url(./images/icon_del_notification_foc.png) center center no-repeat; outline:0 none; border:0 none; cursor:pointer; ",
        "isCustomCSSEnabled": true,
        "isForked": true
    },
    "spawindowstablet": {
        "customCSS": "width:38px!important; height:24px!important; background:url(./images/icon_del_notification_foc.png) center center no-repeat; outline:0 none; border:0 none; cursor:pointer; ",
        "isCustomCSSEnabled": true,
        "isForked": true
    },
    "spawinphone8": {
        "customCSS": "width:38px!important; height:24px!important; background:url(./images/icon_del_notification_foc.png) center center no-repeat; outline:0 none; border:0 none; cursor:pointer; ",
        "isCustomCSSEnabled": true,
        "isForked": true
    },
    "text_shadow": {
        "br": 0,
        "color": "000000",
        "x": 0,
        "y": 0
    },
    "top_left_border_color": "000000ff",
    "top_left_border_radius": 10,
    "top_left_border_width": 0,
    "top_right_border_color": "000000ff",
    "top_right_border_radius": 10,
    "top_right_border_width": 0,
    "use_native": "false",
    "vizChannel": "default",
    "wType": "Button"
}