{
    "applicableblockedUIWidget": "Button",
    "background_color": "ffffff00",
    "background_style": "vg",
    "bg_type": "one",
    "blockedimgURL": "",
    "border_color": "000000ff",
    "border_radius": 0,
    "border_style": "plain",
    "border_type": 0,
    "border_width": 0,
    "bottom_left_border_color": "000000ff",
    "bottom_left_border_radius": 10,
    "bottom_left_border_width": 0,
    "bottom_right_border_color": "000000ff",
    "bottom_right_border_radius": 10,
    "bottom_right_border_width": 0,
    "desktopweb": {
        "customCSS": "font:normal 20px/25px 'DB Ozone X Med'; color:#333;  text-align:center; padding:0 10px!important;background:#fff; border:solid 1px #bebebe; border-bottom:solid 1px #fff; -webkit-border-radius:5px 5px 0 0; -moz-border-radius:5px 5px 0 0; -o-border-radius:5px 5px 0 0; border-radius:5px 5px 0 0; position:relative; bottom:-1px; cursor:pointer;",
        "isCustomCSSEnabled": true,
        "isForked": true
    },
    "font_color": "000000ff",
    "font_size": 100,
    "font_weight": "normal",
    "gridLineColor": "0000000",
    "id": "btnIBTabType2Focus",
    "isForked": false,
    "kuid": "sa3e60c5e4734bebbfbac381f3759a04",
    "shadow": {
        "br": 0,
        "color": "000000",
        "inner": false,
        "x": 0,
        "y": 0
    },
    "spaan": {
        "customCSS": "font:normal 20px/25px 'DB Ozone X Med'; color:#333;  text-align:center; padding:0 10px!important;background:#fff; border:solid 1px #bebebe; border-bottom:solid 1px #fff; -webkit-border-radius:5px 5px 0 0; -moz-border-radius:5px 5px 0 0; -o-border-radius:5px 5px 0 0; border-radius:5px 5px 0 0; position:relative; bottom:-1px; cursor:pointer;",
        "isCustomCSSEnabled": true,
        "isForked": true
    },
    "spaandroidtablet": {
        "customCSS": "font:normal 20px/25px 'DB Ozone X Med'; color:#333;  text-align:center; padding:0 10px!important;background:#fff; border:solid 1px #bebebe; border-bottom:solid 1px #fff; -webkit-border-radius:5px 5px 0 0; -moz-border-radius:5px 5px 0 0; -o-border-radius:5px 5px 0 0; border-radius:5px 5px 0 0; position:relative; bottom:-1px; cursor:pointer;",
        "isCustomCSSEnabled": true,
        "isForked": true
    },
    "spabb": {
        "customCSS": "font:normal 20px/25px 'DB Ozone X Med'; color:#333;  text-align:center; padding:0 10px!important;background:#fff; border:solid 1px #bebebe; border-bottom:solid 1px #fff; -webkit-border-radius:5px 5px 0 0; -moz-border-radius:5px 5px 0 0; -o-border-radius:5px 5px 0 0; border-radius:5px 5px 0 0; position:relative; bottom:-1px; cursor:pointer;",
        "isCustomCSSEnabled": true,
        "isForked": true
    },
    "spaip": {
        "customCSS": "font:normal 20px/25px 'DB Ozone X Med'; color:#333;  text-align:center; padding:0 10px!important;background:#fff; border:solid 1px #bebebe; border-bottom:solid 1px #fff; -webkit-border-radius:5px 5px 0 0; -moz-border-radius:5px 5px 0 0; -o-border-radius:5px 5px 0 0; border-radius:5px 5px 0 0; position:relative; bottom:-1px; cursor:pointer;",
        "isCustomCSSEnabled": true,
        "isForked": true
    },
    "spaipad": {
        "customCSS": "font:normal 20px/25px 'DB Ozone X Med'; color:#333;  text-align:center; padding:0 10px!important;background:#fff; border:solid 1px #bebebe; border-bottom:solid 1px #fff; -webkit-border-radius:5px 5px 0 0; -moz-border-radius:5px 5px 0 0; -o-border-radius:5px 5px 0 0; border-radius:5px 5px 0 0; position:relative; bottom:-1px; cursor:pointer;",
        "isCustomCSSEnabled": true,
        "isForked": true
    },
    "spawindowstablet": {
        "customCSS": "font:normal 20px/25px 'DB Ozone X Med'; color:#333;  text-align:center; padding:0 10px!important;background:#fff; border:solid 1px #bebebe; border-bottom:solid 1px #fff; -webkit-border-radius:5px 5px 0 0; -moz-border-radius:5px 5px 0 0; -o-border-radius:5px 5px 0 0; border-radius:5px 5px 0 0; position:relative; bottom:-1px; cursor:pointer;",
        "isCustomCSSEnabled": true,
        "isForked": true
    },
    "spawinphone8": {
        "customCSS": "font:normal 20px/25px 'DB Ozone X Med'; color:#333;  text-align:center; padding:0 10px!important;background:#fff; border:solid 1px #bebebe; border-bottom:solid 1px #fff; -webkit-border-radius:5px 5px 0 0; -moz-border-radius:5px 5px 0 0; -o-border-radius:5px 5px 0 0; border-radius:5px 5px 0 0; position:relative; bottom:-1px; cursor:pointer;",
        "isCustomCSSEnabled": true,
        "isForked": true
    },
    "text_shadow": {
        "br": 0,
        "color": "000000",
        "x": 0,
        "y": 0
    },
    "top_left_border_color": "000000ff",
    "top_left_border_radius": 10,
    "top_left_border_width": 0,
    "top_right_border_color": "000000ff",
    "top_right_border_radius": 10,
    "top_right_border_width": 0,
    "use_native": "false",
    "vizChannel": "default",
    "wType": "Button"
}