{
  "android": {
    "applicableblockedUIWidget": "Button",
    "background_image": "pencel_edit.png",
    "bg_type": "image",
    "blockedimgURL": "",
    "border_color": "000000ff",
    "border_style": "plain",
    "border_type": 0,
    "border_width": 0,
    "bottom_left_border_color": "000000ff",
    "bottom_left_border_radius": 10,
    "bottom_left_border_width": 0,
    "bottom_right_border_color": "000000ff",
    "bottom_right_border_radius": 10,
    "bottom_right_border_width": 0,
    "font_color": "000000ff",
    "font_name": "DBOzoneX",
    "font_size": 100,
    "font_weight": "normal",
    "gridLineColor": "0000000",
    "isCustomCSSEnabled": false,
    "isForked": true,
    "psp": {},
    "shadow": {
      "br": 0,
      "color": "000000",
      "inner": false,
      "x": 0,
      "y": 0
    },
    "text_shadow": {
      "br": 0,
      "color": "000000",
      "x": 0,
      "y": 0
    },
    "top_left_border_color": "000000ff",
    "top_left_border_radius": 10,
    "top_left_border_width": 0,
    "top_right_border_color": "000000ff",
    "top_right_border_radius": 10,
    "top_right_border_width": 0,
    "vizChannel": "android",
    "wType": "Button"
  },
  "applicableblockedUIWidget": "Button",
  "background_image": "edit2.png",
  "background_left_image": "edit2.png",
  "background_style": "vg",
  "bg_type": "image",
  "blockedimgURL": "",
  "border_color": "000000ff",
  "border_radius": 0,
  "border_style": "plain",
  "border_type": 0,
  "border_width": 0,
  "bottom_left_border_color": "000000ff",
  "bottom_left_border_radius": 10,
  "bottom_left_border_width": 0,
  "bottom_right_border_color": "000000ff",
  "bottom_right_border_radius": 10,
  "bottom_right_border_width": 0,
  "desktopweb": {
    "applicableblockedUIWidget": "Button",
    "background_image": "pencel_edit.png",
    "background_left_image": "edit2.png",
    "bg_type": "image",
    "blockedimgURL": "",
    "border_color": "000000ff",
    "border_style": "plain",
    "border_type": 0,
    "border_width": 0,
    "bottom_left_border_color": "000000ff",
    "bottom_left_border_radius": 10,
    "bottom_left_border_width": 0,
    "bottom_right_border_color": "000000ff",
    "bottom_right_border_radius": 10,
    "bottom_right_border_width": 0,
    "font_color": "000000ff",
    "font_name": "DB Ozone X",
    "font_size": 100,
    "font_weight": "normal",
    "isForked": true,
    "top_left_border_color": "000000ff",
    "top_left_border_radius": 10,
    "top_left_border_width": 0,
    "top_right_border_color": "000000ff",
    "top_right_border_radius": 10,
    "top_right_border_width": 0,
    "vizChannel": "desktopweb",
    "wType": "Button"
  },
  "font_color": "000000ff",
  "font_size": 100,
  "font_weight": "normal",
  "gridLineColor": "0000000",
  "ipad": {
    "background_image": "pencel_edit.png",
    "bg_type": "image",
    "isForked": true
  },
  "iphone": {
    "applicableblockedUIWidget": "Button",
    "background_image": "pencel_edit.png",
    "bg_type": "image",
    "blockedimgURL": "",
    "border_color": "000000ff",
    "border_style": "plain",
    "border_type": 0,
    "border_width": 0,
    "bottom_left_border_color": "000000ff",
    "bottom_left_border_radius": 10,
    "bottom_left_border_width": 0,
    "bottom_right_border_color": "000000ff",
    "bottom_right_border_radius": 10,
    "bottom_right_border_width": 0,
    "font_color": "000000ff",
    "font_name": "DBOzoneX",
    "font_size": 100,
    "font_weight": "normal",
    "gridLineColor": "0000000",
    "isCustomCSSEnabled": false,
    "isForked": true,
    "psp": {},
    "shadow": {
      "br": 0,
      "color": "000000",
      "inner": false,
      "x": 0,
      "y": 0
    },
    "text_shadow": {
      "br": 0,
      "color": "000000",
      "x": 0,
      "y": 0
    },
    "top_left_border_color": "000000ff",
    "top_left_border_radius": 10,
    "top_left_border_width": 0,
    "top_right_border_color": "000000ff",
    "top_right_border_radius": 10,
    "top_right_border_width": 0,
    "vizChannel": "iphone",
    "wType": "Button"
  },
  "isDefaultSkin": false,
  "isForked": false,
  "kiosk": {
    "background_image": "pencel_edit.png",
    "bg_type": "image",
    "isForked": true
  },
  "kuid": "s56d4f49edd143b3b4ff372ba1bfcf75",
  "shadow": {
    "br": 0,
    "color": "000000",
    "inner": false,
    "x": 0,
    "y": 0
  },
  "spaan": {
    "applicableblockedUIWidget": "Button",
    "backgroundSize": false,
    "background_image": "pencel_edit.png",
    "bg_type": "image",
    "blockedimgURL": "",
    "border_color": "000000ff",
    "border_style": "plain",
    "border_type": 0,
    "border_width": 0,
    "bottom_left_border_color": "000000ff",
    "bottom_left_border_radius": 10,
    "bottom_left_border_width": 0,
    "bottom_right_border_color": "000000ff",
    "bottom_right_border_radius": 10,
    "bottom_right_border_width": 0,
    "enableRetinaImage": false,
    "font_color": "000000ff",
    "font_name": "DBOzoneX",
    "font_size": 100,
    "font_weight": "normal",
    "gridLineColor": "0000000",
    "isCustomCSSEnabled": false,
    "isForked": true,
    "psp": {},
    "repeatImageHorizontally": false,
    "repeatImageVertically": false,
    "shadow": {
      "br": 0,
      "color": "000000",
      "inner": false,
      "x": 0,
      "y": 0
    },
    "text_shadow": {
      "br": 0,
      "color": "000000",
      "x": 0,
      "y": 0
    },
    "top_left_border_color": "000000ff",
    "top_left_border_radius": 10,
    "top_left_border_width": 0,
    "top_right_border_color": "000000ff",
    "top_right_border_radius": 10,
    "top_right_border_width": 0,
    "vizChannel": "spaan",
    "wType": "Button"
  },
  "spaandroidtablet": {
    "background_image": "pencel_edit.png",
    "bg_type": "image",
    "bottom_left_border_color": "000000ff",
    "bottom_left_border_style": "plain",
    "bottom_left_border_width": 0,
    "bottom_right_border_color": "000000ff",
    "bottom_right_border_style": "plain",
    "bottom_right_border_width": 0,
    "isForked": true,
    "top_left_border_color": "000000ff",
    "top_left_border_style": "plain",
    "top_left_border_width": 0,
    "top_right_border_color": "000000ff",
    "top_right_border_style": "plain",
    "top_right_border_width": 0
  },
  "spabb": {
    "applicableblockedUIWidget": "Button",
    "background_image": "pencel_edit.png",
    "background_left_image": "edit2.png",
    "bg_type": "image",
    "blockedimgURL": "",
    "border_color": "000000ff",
    "border_style": "plain",
    "border_type": 0,
    "border_width": 0,
    "bottom_left_border_color": "000000ff",
    "bottom_left_border_radius": 10,
    "bottom_left_border_width": 0,
    "bottom_right_border_color": "000000ff",
    "bottom_right_border_radius": 10,
    "bottom_right_border_width": 0,
    "font_color": "000000ff",
    "font_name": "DBOzoneX",
    "font_size": 100,
    "font_weight": "normal",
    "isForked": true,
    "top_left_border_color": "000000ff",
    "top_left_border_radius": 10,
    "top_left_border_width": 0,
    "top_right_border_color": "000000ff",
    "top_right_border_radius": 10,
    "top_right_border_width": 0,
    "vizChannel": "spabb",
    "wType": "Button"
  },
  "spaip": {
    "applicableblockedUIWidget": "Button",
    "backgroundSize": false,
    "background_image": "pencel_edit.png",
    "background_left_image": "edit2.png",
    "bg_type": "image",
    "blockedimgURL": "",
    "border_color": "000000ff",
    "border_style": "plain",
    "border_type": 0,
    "border_width": 0,
    "bottom_left_border_color": "000000ff",
    "bottom_left_border_style": "plain",
    "bottom_left_border_width": 0,
    "bottom_right_border_color": "000000ff",
    "bottom_right_border_style": "plain",
    "bottom_right_border_width": 0,
    "enableRetinaImage": true,
    "font_color": "000000ff",
    "font_name": "DBOzoneX",
    "font_size": 100,
    "font_weight": "normal",
    "gridLineColor": "0000000",
    "isCustomCSSEnabled": false,
    "isForked": true,
    "psp": {},
    "repeatImageHorizontally": false,
    "repeatImageVertically": false,
    "repeatRetinaImage": false,
    "retina_image": "edit2_retina.png",
    "shadow": {
      "br": 0,
      "color": "000000",
      "inner": false,
      "x": 0,
      "y": 0
    },
    "text_shadow": {
      "br": 0,
      "color": "000000",
      "x": 0,
      "y": 0
    },
    "top_left_border_color": "000000ff",
    "top_left_border_style": "plain",
    "top_left_border_width": 0,
    "top_right_border_color": "000000ff",
    "top_right_border_style": "plain",
    "top_right_border_width": 0,
    "vizChannel": "spaip",
    "wType": "Button"
  },
  "spaipad": {
    "background_image": "pencel_edit.png",
    "bg_type": "image",
    "bottom_left_border_color": "000000ff",
    "bottom_left_border_style": "plain",
    "bottom_left_border_width": 0,
    "bottom_right_border_color": "000000ff",
    "bottom_right_border_style": "plain",
    "bottom_right_border_width": 0,
    "isForked": true,
    "top_left_border_color": "000000ff",
    "top_left_border_style": "plain",
    "top_left_border_width": 0,
    "top_right_border_color": "000000ff",
    "top_right_border_style": "plain",
    "top_right_border_width": 0
  },
  "spawindowstablet": {
    "background_image": "pencel_edit.png",
    "bg_type": "image",
    "bottom_left_border_color": "000000ff",
    "bottom_left_border_style": "plain",
    "bottom_left_border_width": 0,
    "bottom_right_border_color": "000000ff",
    "bottom_right_border_style": "plain",
    "bottom_right_border_width": 0,
    "isForked": true,
    "top_left_border_color": "000000ff",
    "top_left_border_style": "plain",
    "top_left_border_width": 0,
    "top_right_border_color": "000000ff",
    "top_right_border_style": "plain",
    "top_right_border_width": 0
  },
  "spawinphone8": {
    "background_image": "pencel_edit.png",
    "bg_type": "image",
    "bottom_left_border_color": "000000ff",
    "bottom_left_border_style": "plain",
    "bottom_left_border_width": 0,
    "bottom_right_border_color": "000000ff",
    "bottom_right_border_style": "plain",
    "bottom_right_border_width": 0,
    "isForked": true,
    "top_left_border_color": "000000ff",
    "top_left_border_style": "plain",
    "top_left_border_width": 0,
    "top_right_border_color": "000000ff",
    "top_right_border_style": "plain",
    "top_right_border_width": 0
  },
  "tabrcandroid": {
    "background_image": "pencel_edit.png",
    "bg_type": "image",
    "isForked": true
  },
  "text_shadow": {
    "br": 0,
    "color": "000000",
    "x": 0,
    "y": 0
  },
  "top_left_border_color": "000000ff",
  "top_left_border_radius": 10,
  "top_left_border_width": 0,
  "top_right_border_color": "000000ff",
  "top_right_border_radius": 10,
  "top_right_border_width": 0,
  "use_native": "false",
  "vizChannel": "default",
  "wType": "Button",
  "watchos": {
    "background_image": "pencel_edit.png",
    "bg_type": "image",
    "isForked": true
  },
  "windows8": {
    "background_image": "pencel_edit.png",
    "bg_type": "image",
    "isForked": true
  },
  "winphone8": {
    "background_image": "pencel_edit.png",
    "bg_type": "image",
    "isForked": true
  }
}