{
    "android": {
        "applicableblockedUIWidget": "Button",
        "background_left_image": "icon_help_foc.png",
        "background_style": "vg",
        "bg_type": "image",
        "blockedimgURL": "",
        "border_color": "000000ff",
        "border_radius": 0,
        "border_style": "plain",
        "border_type": 0,
        "border_width": 0,
        "bottom_left_border_color": "000000ff",
        "bottom_left_border_radius": 10,
        "bottom_left_border_width": 0,
        "bottom_right_border_color": "000000ff",
        "bottom_right_border_radius": 10,
        "bottom_right_border_width": 0,
        "font_color": "000000ff",
        "font_name": "DBOzoneX",
        "font_size": 100,
        "font_weight": "normal",
        "isForked": false,
        "top_left_border_color": "000000ff",
        "top_left_border_radius": 10,
        "top_left_border_width": 0,
        "top_right_border_color": "000000ff",
        "top_right_border_radius": 10,
        "top_right_border_width": 0,
        "vizChannel": "android",
        "wType": "Button"
    },
    "applicableblockedUIWidget": "Button",
    "background_image": "icon_help_foc.png",
    "background_left_image": "icon_help_foc.png",
    "background_style": "vg",
    "bg_type": "image",
    "blockedimgURL": "",
    "border_color": "000000ff",
    "border_radius": 0,
    "border_style": "plain",
    "border_type": 0,
    "border_width": 0,
    "bottom_left_border_color": "000000ff",
    "bottom_left_border_radius": 10,
    "bottom_left_border_width": 0,
    "bottom_right_border_color": "000000ff",
    "bottom_right_border_radius": 10,
    "bottom_right_border_width": 0,
    "desktopweb": {
        "customCSS": "background: url(./images/icon_help_foc.png) no-repeat;                                                width: 24px !important;                                                         height: 24px !important;                                     background-color:transparent;cursor:pointer!important;",
        "isCustomCSSEnabled": true,
        "isForked": true
    },
    "font_color": "000000ff",
    "font_size": 100,
    "font_weight": "normal",
    "gridLineColor": "0000000",
    "id": "btnQuestionMarkHover",
    "iphone": {
        "applicableblockedUIWidget": "Button",
        "background_left_image": "icon_help_foc.png",
        "background_style": "vg",
        "bg_type": "image",
        "blockedimgURL": "",
        "border_color": "000000ff",
        "border_radius": 0,
        "border_style": "plain",
        "border_type": 0,
        "border_width": 0,
        "bottom_left_border_color": "000000ff",
        "bottom_left_border_radius": 10,
        "bottom_left_border_width": 0,
        "bottom_right_border_color": "000000ff",
        "bottom_right_border_radius": 10,
        "bottom_right_border_width": 0,
        "font_color": "000000ff",
        "font_name": "DBOzoneX",
        "font_size": 100,
        "font_weight": "normal",
        "isForked": false,
        "top_left_border_color": "000000ff",
        "top_left_border_radius": 10,
        "top_left_border_width": 0,
        "top_right_border_color": "000000ff",
        "top_right_border_radius": 10,
        "top_right_border_width": 0,
        "vizChannel": "iphone",
        "wType": "Button"
    },
    "isForked": false,
    "kuid": "sc41a51068f045e0bbb3cb0edefcf458",
    "shadow": {
        "br": 0,
        "color": "000000",
        "inner": false,
        "x": 0,
        "y": 0
    },
    "spaan": {
        "applicableblockedUIWidget": "Button",
        "background_left_image": "icon_help_foc.png",
        "background_style": "vg",
        "bg_type": "image",
        "blockedimgURL": "",
        "border_color": "000000ff",
        "border_radius": 0,
        "border_style": "plain",
        "border_type": 0,
        "border_width": 0,
        "bottom_left_border_color": "000000ff",
        "bottom_left_border_radius": 10,
        "bottom_left_border_width": 0,
        "bottom_right_border_color": "000000ff",
        "bottom_right_border_radius": 10,
        "bottom_right_border_width": 0,
        "customCSS": "background: url(./images/icon_help_foc.png) no-repeat;                                                width: 24px !important;                                                         height: 24px !important;                                     background-color:transparent;cursor:pointer!important;",
        "font_color": "000000ff",
        "font_name": "DBOzoneX",
        "font_size": 100,
        "font_weight": "normal",
        "isCustomCSSEnabled": true,
        "isForked": true,
        "top_left_border_color": "000000ff",
        "top_left_border_radius": 10,
        "top_left_border_width": 0,
        "top_right_border_color": "000000ff",
        "top_right_border_radius": 10,
        "top_right_border_width": 0,
        "vizChannel": "spaan",
        "wType": "Button"
    },
    "spaandroidtablet": {
        "customCSS": "background: url(./images/icon_help_foc.png) no-repeat;                                                width: 24px !important;                                                         height: 24px !important;                                     background-color:transparent;cursor:pointer!important;",
        "isCustomCSSEnabled": true,
        "isForked": true
    },
    "spabb": {
        "customCSS": "background: url(./images/icon_help_foc.png) no-repeat;                                                width: 24px !important;                                                         height: 24px !important;                                     background-color:transparent;cursor:pointer!important;",
        "isCustomCSSEnabled": true,
        "isForked": true
    },
    "spaip": {
        "applicableblockedUIWidget": "Button",
        "background_left_image": "icon_help_foc.png",
        "background_style": "vg",
        "bg_type": "image",
        "blockedimgURL": "",
        "border_color": "000000ff",
        "border_radius": 0,
        "border_style": "plain",
        "border_type": 0,
        "border_width": 0,
        "bottom_left_border_color": "000000ff",
        "bottom_left_border_radius": 10,
        "bottom_left_border_width": 0,
        "bottom_right_border_color": "000000ff",
        "bottom_right_border_radius": 10,
        "bottom_right_border_width": 0,
        "customCSS": "background: url(./images/icon_help_foc.png) no-repeat;                                                width: 24px !important;                                                         height: 24px !important;                                     background-color:transparent;cursor:pointer!important;",
        "font_color": "000000ff",
        "font_name": "DBOzoneX",
        "font_size": 100,
        "font_weight": "normal",
        "isCustomCSSEnabled": true,
        "isForked": true,
        "top_left_border_color": "000000ff",
        "top_left_border_radius": 10,
        "top_left_border_width": 0,
        "top_right_border_color": "000000ff",
        "top_right_border_radius": 10,
        "top_right_border_width": 0,
        "vizChannel": "spaip",
        "wType": "Button"
    },
    "spaipad": {
        "customCSS": "background: url(./images/icon_help_foc.png) no-repeat;                                                width: 24px !important;                                                         height: 24px !important;                                     background-color:transparent;cursor:pointer!important;",
        "isCustomCSSEnabled": true,
        "isForked": true
    },
    "spawindowstablet": {
        "customCSS": "background: url(./images/icon_help_foc.png) no-repeat;                                                width: 24px !important;                                                         height: 24px !important;                                     background-color:transparent;cursor:pointer!important;",
        "isCustomCSSEnabled": true,
        "isForked": true
    },
    "spawinphone8": {
        "customCSS": "background: url(./images/icon_help_foc.png) no-repeat;                                                width: 24px !important;                                                         height: 24px !important;                                     background-color:transparent;cursor:pointer!important;",
        "isCustomCSSEnabled": true,
        "isForked": true
    },
    "text_shadow": {
        "br": 0,
        "color": "000000",
        "x": 0,
        "y": 0
    },
    "top_left_border_color": "000000ff",
    "top_left_border_radius": 10,
    "top_left_border_width": 0,
    "top_right_border_color": "000000ff",
    "top_right_border_radius": 10,
    "top_right_border_width": 0,
    "use_native": "false",
    "vizChannel": "default",
    "wType": "Button"
}