{
  "android": {
    "font_name": "DBOzoneX",
    "isForked": true,
    "text_shadow": {
      "br": 0,
      "color": "000000",
      "x": 0,
      "y": 0
    }
  },
  "applicableblockedUIWidget": "Button",
  "background_color": "ffffffff",
  "bg_type": "one",
  "blockedimgURL": "",
  "border_color": "03a552ff",
  "border_style": "plain",
  "border_type": 0,
  "border_width": 2,
  "bottom_left_border_color": "000000ff",
  "bottom_left_border_radius": 10,
  "bottom_left_border_width": 0,
  "bottom_right_border_color": "000000ff",
  "bottom_right_border_radius": 10,
  "bottom_right_border_width": 0,
  "desktopweb": {
    "font_name": "Andale Mono"
  },
  "fontSizeInPx": false,
  "font_color": "03a552ff",
  "font_size": 128,
  "font_style": "normal",
  "font_weight": "normal",
  "gridLineColor": "0000000",
  "ipad": {
    "font_name": "AmericanTypewriter"
  },
  "iphone": {
    "font_name": "DBOzoneX",
    "isForked": true,
    "text_shadow": {
      "br": 0,
      "color": "000000",
      "x": 0,
      "y": 0
    }
  },
  "isDefaultSkin": false,
  "isForked": false,
  "kiosk": {
    "font_name": "GenericMonospace",
    "font_size": 128,
    "isForked": false
  },
  "kuid": "s1cb498f56ff4090add3087ff84efc96",
  "spaan": {
    "font_name": "Andale Mono"
  },
  "spaandroidtablet": {
    "font_name": "Andale Mono"
  },
  "spabb": {
    "font_name": "Andale Mono"
  },
  "spaip": {
    "font_name": "Andale Mono"
  },
  "spaipad": {
    "font_name": "Andale Mono"
  },
  "spawindowstablet": {
    "font_name": "Andale Mono"
  },
  "spawinphone8": {
    "font_name": "Andale Mono"
  },
  "tabrcandroid": {
    "font_name": "default"
  },
  "top_left_border_color": "000000ff",
  "top_left_border_radius": 10,
  "top_left_border_width": 0,
  "top_right_border_color": "000000ff",
  "top_right_border_radius": 10,
  "top_right_border_width": 0,
  "vizChannel": "default",
  "wType": "Button",
  "watchos": {
    "font_name": "Arial",
    "font_size": 128,
    "isForked": false
  },
  "windows8": {
    "font_name": "GenericMonospace",
    "font_size": 128,
    "isForked": false
  },
  "winphone8": {
    "font_name": "GenericMonospace",
    "font_size": 128,
    "isForked": false
  }
}