{
    "applicableblockedUIWidget": "Button",
    "background_color": "ffffff00",
    "background_style": "vg",
    "bg_type": "one",
    "blockedimgURL": "",
    "border_color": "000000ff",
    "border_radius": 0,
    "border_style": "plain",
    "border_type": 0,
    "border_width": 0,
    "bottom_left_border_color": "000000ff",
    "bottom_left_border_radius": 10,
    "bottom_left_border_width": 0,
    "bottom_right_border_color": "000000ff",
    "bottom_right_border_radius": 10,
    "bottom_right_border_width": 0,
    "desktopweb": {
        "applicableblockedUIWidget": "Button",
        "backgroundSize": false,
        "background_color": "ffffffff",
        "background_style": "vg",
        "bg_type": "one",
        "blockedimgURL": "",
        "border_color": "000000ff",
        "border_radius": 0,
        "border_style": "plain",
        "border_type": 0,
        "border_width": 0,
        "bottom_left_border_color": "000000ff",
        "bottom_left_border_radius": 10,
        "bottom_left_border_style": "plain",
        "bottom_left_border_width": 0,
        "bottom_right_border_color": "000000ff",
        "bottom_right_border_radius": 10,
        "bottom_right_border_style": "plain",
        "bottom_right_border_width": 0,
        "customCSS": "border: 0;-webkit-appearance: none; -moz-appearance: none; background: #ddedf9 url(./images/combo_dropdown.png) right center no-repeat; width: 100%; height:auto; padding:10px 40px 10px 5px!important; text-indent: 0.01px; text-overflow: \"\"; font:normal 20px 'DB Ozone X Med'; color: #979797; -webkit-border-radius: 0; -moz-border-radius: 0; border-radius: 0; outline:0 none; background-position: -999em\\9; ",
        "font_color": "000000ff",
        "font_size": 100,
        "font_weight": "normal",
        "gridLineColor": "0000000",
        "id": "cbxIBDownArrowBlue",
        "isCustomCSSEnabled": true,
        "isForked": true,
        "psp": {},
        "repeatImageHorizontally": false,
        "repeatImageVertically": false,
        "shadow": {
            "br": 0,
            "color": "000000",
            "inner": false,
            "x": 0,
            "y": 0
        },
        "text_shadow": {
            "br": 0,
            "color": "000000",
            "x": 0,
            "y": 0
        },
        "top_left_border_color": "000000ff",
        "top_left_border_radius": 10,
        "top_left_border_style": "plain",
        "top_left_border_width": 0,
        "top_right_border_color": "000000ff",
        "top_right_border_radius": 10,
        "top_right_border_style": "plain",
        "top_right_border_width": 0,
        "use_native": "false",
        "vizChannel": "desktopweb",
        "wType": "ComboBox"
    },
    "font_color": "000000ff",
    "font_size": 100,
    "font_weight": "normal",
    "gridLineColor": "0000000",
    "id": "cbxIBDownArrowBlue",
    "isForked": false,
    "kuid": "scb740d2b6564643b8db174da0d6efd7",
    "shadow": {
        "br": 0,
        "color": "000000",
        "inner": false,
        "x": 0,
        "y": 0
    },
    "spaan": {
        "customCSS": "border: 0; border-bottom:solid 1px #bebebe; -webkit-appearance: none; -moz-appearance: none; background: #ddedf9 url(./images/combo_dropdown.png) right center no-repeat; width: 100%; height:auto; padding:10px 40px 10px 5px!important; text-indent: 0.01px; text-overflow: \"\"; font:normal 20px 'DB Ozone X'; color: #979797; -webkit-border-radius: 0; -moz-border-radius: 0; border-radius: 0; outline:0 none; background-position: 999em\\9; padding:10px\\9;",
        "isCustomCSSEnabled": true,
        "isForked": true
    },
    "spaandroidtablet": {
        "customCSS": "border: 0; border-bottom:solid 1px #bebebe; -webkit-appearance: none; -moz-appearance: none; background: #ddedf9 url(./images/combo_dropdown.png) right center no-repeat; width: 100%; height:auto; padding:10px 40px 10px 5px!important; text-indent: 0.01px; text-overflow: \"\"; font:normal 20px 'DB Ozone X'; color: #979797; -webkit-border-radius: 0; -moz-border-radius: 0; border-radius: 0; outline:0 none; background-position: 999em\\9; padding:10px\\9;",
        "isCustomCSSEnabled": true,
        "isForked": true
    },
    "spabb": {
        "customCSS": "border: 0; border-bottom:solid 1px #bebebe; -webkit-appearance: none; -moz-appearance: none; background: #ddedf9 url(./images/combo_dropdown.png) right center no-repeat; width: 100%; height:auto; padding:10px 40px 10px 5px!important; text-indent: 0.01px; text-overflow: \"\"; font:normal 20px 'DB Ozone X'; color: #979797; -webkit-border-radius: 0; -moz-border-radius: 0; border-radius: 0; outline:0 none; background-position: 999em\\9; padding:10px\\9;",
        "isCustomCSSEnabled": true,
        "isForked": true
    },
    "spaip": {
        "customCSS": "border: 0; border-bottom:solid 1px #bebebe; -webkit-appearance: none; -moz-appearance: none; background: #ddedf9 url(./images/combo_dropdown.png) right center no-repeat; width: 100%; height:auto; padding:10px 40px 10px 5px!important; text-indent: 0.01px; text-overflow: \"\"; font:normal 20px 'DB Ozone X'; color: #979797; -webkit-border-radius: 0; -moz-border-radius: 0; border-radius: 0; outline:0 none; background-position: 999em\\9; padding:10px\\9;",
        "isCustomCSSEnabled": true,
        "isForked": true
    },
    "spaipad": {
        "customCSS": "border: 0; border-bottom:solid 1px #bebebe; -webkit-appearance: none; -moz-appearance: none; background: #ddedf9 url(./images/combo_dropdown.png) right center no-repeat; width: 100%; height:auto; padding:10px 40px 10px 5px!important; text-indent: 0.01px; text-overflow: \"\"; font:normal 20px 'DB Ozone X'; color: #979797; -webkit-border-radius: 0; -moz-border-radius: 0; border-radius: 0; outline:0 none; background-position: 999em\\9; padding:10px\\9;",
        "isCustomCSSEnabled": true,
        "isForked": true
    },
    "spawindowstablet": {
        "customCSS": "border: 0; border-bottom:solid 1px #bebebe; -webkit-appearance: none; -moz-appearance: none; background: #ddedf9 url(./images/combo_dropdown.png) right center no-repeat; width: 100%; height:auto; padding:10px 40px 10px 5px!important; text-indent: 0.01px; text-overflow: \"\"; font:normal 20px 'DB Ozone X'; color: #979797; -webkit-border-radius: 0; -moz-border-radius: 0; border-radius: 0; outline:0 none; background-position: 999em\\9; padding:10px\\9;",
        "isCustomCSSEnabled": true,
        "isForked": true
    },
    "spawinphone8": {
        "customCSS": "border: 0; border-bottom:solid 1px #bebebe; -webkit-appearance: none; -moz-appearance: none; background: #ddedf9 url(./images/combo_dropdown.png) right center no-repeat; width: 100%; height:auto; padding:10px 40px 10px 5px!important; text-indent: 0.01px; text-overflow: \"\"; font:normal 20px 'DB Ozone X'; color: #979797; -webkit-border-radius: 0; -moz-border-radius: 0; border-radius: 0; outline:0 none; background-position: 999em\\9; padding:10px\\9;",
        "isCustomCSSEnabled": true,
        "isForked": true
    },
    "text_shadow": {
        "br": 0,
        "color": "000000",
        "x": 0,
        "y": 0
    },
    "top_left_border_color": "000000ff",
    "top_left_border_radius": 10,
    "top_left_border_width": 0,
    "top_right_border_color": "000000ff",
    "top_right_border_radius": 10,
    "top_right_border_width": 0,
    "use_native": "false",
    "vizChannel": "default",
    "wType": "ComboBox"
}