{
  "applicableblockedUIWidget": "Button",
  "background_color": "00000000",
  "bg_type": "one",
  "border_color": "0000001e",
  "border_style": "plain",
  "border_type": 0,
  "border_width": 0,
  "isDefaultSkin": false,
  "isForked": false,
  "kuid": "s8422df6d7e3447282f2016e0a51975b",
  "wType": "FlexContainer"
}