{
  "background_color": "00ff8400",
  "bg_type": "one",
  "border_color": "00ff84ff",
  "border_style": "rc",
  "border_type": 0,
  "border_width": 8,
  "font_color": "424242ff",
  "font_name": "Helvetica",
  "font_size": 215,
  "font_style": "normal",
  "font_weight": "normal",
  "isDefaultSkin": false,
  "kuid": "s23169cb12904d2f82720358a915f901",
  "wType": "Label"
}