{
  "background_color": "f5970aff",
  "bg_type": "one",
  "border_color": "f5970aff",
  "border_style": "rc",
  "border_type": 0,
  "border_width": 5,
  "font_color": "424242ff",
  "font_name": "Helvetica",
  "font_size": 215,
  "font_style": "normal",
  "font_weight": "normal",
  "isDefaultSkin": false,
  "kuid": "s16d125e5f5a451d80b5da5ea8303723",
  "wType": "Label"
}