{
  "android": {
    "applicableblockedUIWidget": "Button",
    "background_color": "ffffffff",
    "bg_type": "one",
    "border_color": "ffffffff",
    "border_style": "plain",
    "border_type": 0,
    "border_width": 1,
    "font_color": "333333ff",
    "font_name": "DBOzoneX",
    "font_size": 142,
    "font_weight": "normal",
    "isForked": true,
    "text_shadow": {
      "br": 0,
      "color": "000000",
      "x": 0,
      "y": 0
    },
    "wType": "TextField"
  },
  "applicableblockedUIWidget": "Button",
  "background_color": "ffffffff",
  "background_style": "vg",
  "bg_type": "one",
  "border_color": "ffffffff",
  "border_radius": 0,
  "border_style": "plain",
  "border_type": 0,
  "border_width": 1,
  "desktopweb": {
    "bottom_left_border_color": "ffffffff",
    "bottom_left_border_style": "plain",
    "bottom_left_border_width": 1,
    "bottom_right_border_color": "ffffffff",
    "bottom_right_border_style": "plain",
    "bottom_right_border_width": 1,
    "font_color": "333333ff",
    "font_size": 142,
    "isForked": true,
    "top_left_border_color": "ffffffff",
    "top_left_border_style": "plain",
    "top_left_border_width": 1,
    "top_right_border_color": "ffffffff",
    "top_right_border_style": "plain",
    "top_right_border_width": 1
  },
  "font_color": "007abcff",
  "font_size": 171,
  "font_weight": "normal",
  "ipad": {
    "font_color": "333333ff",
    "font_size": 142,
    "isForked": true
  },
  "iphone": {
    "applicableblockedUIWidget": "Button",
    "background_color": "ffffffff",
    "bg_type": "one",
    "border_color": "ffffffff",
    "border_style": "plain",
    "border_type": 0,
    "border_width": 1,
    "font_color": "333333ff",
    "font_name": "DBOzoneX",
    "font_size": 142,
    "isForked": true,
    "wType": "TextField"
  },
  "isDefaultSkin": false,
  "isForked": false,
  "kiosk": {
    "font_color": "333333ff",
    "font_size": 142,
    "isForked": true
  },
  "kuid": "s30334e9d27d4cc4983426d9c2377dad",
  "spaan": {
    "applicableblockedUIWidget": "Button",
    "background_color": "ffffffff",
    "bg_type": "one",
    "bottom_left_border_color": "000000ff",
    "bottom_left_border_radius": 10,
    "bottom_left_border_width": 0,
    "bottom_right_border_color": "000000ff",
    "bottom_right_border_radius": 10,
    "bottom_right_border_width": 0,
    "font_color": "333333ff",
    "font_name": "DBOzoneX",
    "font_size": 142,
    "font_weight": "normal",
    "isForked": true,
    "top_left_border_color": "000000ff",
    "top_left_border_radius": 10,
    "top_left_border_width": 0,
    "top_right_border_color": "000000ff",
    "top_right_border_radius": 10,
    "top_right_border_width": 0,
    "wType": "TextField"
  },
  "spaandroidtablet": {
    "bottom_left_border_color": "ffffffff",
    "bottom_left_border_style": "plain",
    "bottom_left_border_width": 1,
    "bottom_right_border_color": "ffffffff",
    "bottom_right_border_style": "plain",
    "bottom_right_border_width": 1,
    "font_color": "333333ff",
    "font_size": 142,
    "isForked": true,
    "top_left_border_color": "ffffffff",
    "top_left_border_style": "plain",
    "top_left_border_width": 1,
    "top_right_border_color": "ffffffff",
    "top_right_border_style": "plain",
    "top_right_border_width": 1
  },
  "spabb": {
    "applicableblockedUIWidget": "Button",
    "background_color": "ffffffff",
    "bg_type": "one",
    "bottom_left_border_color": "000000ff",
    "bottom_left_border_radius": 10,
    "bottom_left_border_width": 0,
    "bottom_right_border_color": "000000ff",
    "bottom_right_border_radius": 10,
    "bottom_right_border_width": 0,
    "font_color": "333333ff",
    "font_name": "DBOzoneX",
    "font_size": 142,
    "font_weight": "normal",
    "isForked": true,
    "top_left_border_color": "000000ff",
    "top_left_border_radius": 10,
    "top_left_border_width": 0,
    "top_right_border_color": "000000ff",
    "top_right_border_radius": 10,
    "top_right_border_width": 0,
    "wType": "TextField"
  },
  "spaip": {
    "applicableblockedUIWidget": "Button",
    "background_color": "ffffffff",
    "bg_type": "one",
    "bottom_left_border_color": "000000ff",
    "bottom_left_border_radius": 10,
    "bottom_left_border_width": 0,
    "bottom_right_border_color": "000000ff",
    "bottom_right_border_radius": 10,
    "bottom_right_border_width": 0,
    "font_color": "333333ff",
    "font_name": "DBOzoneX",
    "font_size": 142,
    "font_weight": "normal",
    "isForked": true,
    "top_left_border_color": "000000ff",
    "top_left_border_radius": 10,
    "top_left_border_width": 0,
    "top_right_border_color": "000000ff",
    "top_right_border_radius": 10,
    "top_right_border_width": 0,
    "wType": "TextField"
  },
  "spaipad": {
    "bottom_left_border_color": "ffffffff",
    "bottom_left_border_style": "plain",
    "bottom_left_border_width": 1,
    "bottom_right_border_color": "ffffffff",
    "bottom_right_border_style": "plain",
    "bottom_right_border_width": 1,
    "font_color": "333333ff",
    "font_size": 142,
    "isForked": true,
    "top_left_border_color": "ffffffff",
    "top_left_border_style": "plain",
    "top_left_border_width": 1,
    "top_right_border_color": "ffffffff",
    "top_right_border_style": "plain",
    "top_right_border_width": 1
  },
  "spawindowstablet": {
    "bottom_left_border_color": "ffffffff",
    "bottom_left_border_style": "plain",
    "bottom_left_border_width": 1,
    "bottom_right_border_color": "ffffffff",
    "bottom_right_border_style": "plain",
    "bottom_right_border_width": 1,
    "font_color": "333333ff",
    "font_size": 142,
    "isForked": true,
    "top_left_border_color": "ffffffff",
    "top_left_border_style": "plain",
    "top_left_border_width": 1,
    "top_right_border_color": "ffffffff",
    "top_right_border_style": "plain",
    "top_right_border_width": 1
  },
  "spawinphone8": {
    "bottom_left_border_color": "ffffffff",
    "bottom_left_border_style": "plain",
    "bottom_left_border_width": 1,
    "bottom_right_border_color": "ffffffff",
    "bottom_right_border_style": "plain",
    "bottom_right_border_width": 1,
    "font_color": "333333ff",
    "font_size": 142,
    "isForked": true,
    "top_left_border_color": "ffffffff",
    "top_left_border_style": "plain",
    "top_left_border_width": 1,
    "top_right_border_color": "ffffffff",
    "top_right_border_style": "plain",
    "top_right_border_width": 1
  },
  "tabrcandroid": {
    "font_color": "333333ff",
    "font_size": 142,
    "isForked": true
  },
  "text_shadow": {
    "br": 0,
    "color": "000000",
    "x": 0,
    "y": 0
  },
  "wType": "TextField",
  "windows8": {
    "font_color": "333333ff",
    "font_size": 142,
    "isForked": true
  },
  "winphone8": {
    "font_color": "333333ff",
    "font_size": 142,
    "isForked": true
  }
}