{
  "background_gradient_bottom_color": "dcdce0ff",
  "background_gradient_top_color": "e4e4f2ff",
  "background_style": "vg",
  "bg_type": "two",
  "border_color": "000000ff",
  "border_style": "plain",
  "border_type": 0,
  "border_width": 0,
  "isDefaultSkin": false,
  "kuid": "s2ea6a6381b246768e1da24c0bea01c4",
  "wType": "HBox"
}