{
  "background_color": "00000000",
  "bg_type": "one",
  "border_color": "dbdbdbff",
  "border_style": "plain",
  "border_type": 0,
  "border_width": 1,
  "isDefaultSkin": false,
  "kuid": "s8deb07104c94eba80ea34c825d17d2b",
  "wType": "HBox"
}