{
    "applicableblockedUIWidget": "Button",
    "background_color": "ffffff00",
    "background_style": "vg",
    "bg_type": "one",
    "blockedimgURL": "",
    "border_color": "000000ff",
    "border_radius": 0,
    "border_style": "plain",
    "border_type": 0,
    "border_width": 0,
    "bottom_left_border_color": "000000ff",
    "bottom_left_border_radius": 10,
    "bottom_left_border_width": 0,
    "bottom_right_border_color": "000000ff",
    "bottom_right_border_radius": 10,
    "bottom_right_border_width": 0,
    "desktopweb": {
        "applicableblockedUIWidget": "Button",
        "backgroundSize": false,
        "background_color": "ffffff00",
        "background_style": "vg",
        "bg_type": "one",
        "blockedimgURL": "",
        "border_color": "000000ff",
        "border_radius": 0,
        "border_style": "plain",
        "border_type": 0,
        "border_width": 0,
        "bottom_left_border_color": "000000ff",
        "bottom_left_border_radius": 10,
        "bottom_left_border_style": "plain",
        "bottom_left_border_width": 0,
        "bottom_right_border_color": "000000ff",
        "bottom_right_border_radius": 10,
        "bottom_right_border_style": "plain",
        "bottom_right_border_width": 0,
        "customCSS": "background:#f4f4f4 url(./images/bg_arrow_right.png)287px center no-repeat; border-bottom: solid 1px #BEBEBE; padding: 10px 30px 10px 10px!important;  margin:0!important; cursor:pointer;color:#333333;width:100%!important;",
        "font_color": "000000ff",
        "font_size": 100,
        "font_weight": "normal",
        "gridLineColor": "0000000",
        "id": "hbxSkinSegGrey280",
        "isCustomCSSEnabled": true,
        "isForked": true,
        "psp": {},
        "repeatImageHorizontally": false,
        "repeatImageVertically": false,
        "shadow": {
            "br": 0,
            "color": "000000",
            "inner": false,
            "x": 0,
            "y": 0
        },
        "text_shadow": {
            "br": 0,
            "color": "000000",
            "x": 0,
            "y": 0
        },
        "top_left_border_color": "000000ff",
        "top_left_border_radius": 10,
        "top_left_border_style": "plain",
        "top_left_border_width": 0,
        "top_right_border_color": "000000ff",
        "top_right_border_radius": 10,
        "top_right_border_style": "plain",
        "top_right_border_width": 0,
        "use_native": "false",
        "vizChannel": "desktopweb",
        "wType": "HBox"
    },
    "font_color": "000000ff",
    "font_size": 100,
    "font_weight": "normal",
    "gridLineColor": "0000000",
    "id": "hbxSkinSegGrey280",
    "isForked": false,
    "kuid": "s82cb0f3c0224ee193208d8bf9217f41",
    "shadow": {
        "br": 0,
        "color": "000000",
        "inner": false,
        "x": 0,
        "y": 0
    },
    "spaan": {
        "customCSS": "background:#F4F4F4; padding:10px!important; margin:0!important; border-bottom:solid 1px #BEBEBE!important; color:#333333;  width:320px;",
        "isCustomCSSEnabled": true,
        "isForked": true
    },
    "spaandroidtablet": {
        "customCSS": "background:#F4F4F4; padding:10px!important; margin:0!important; border-bottom:solid 1px #BEBEBE!important; color:#333333;  width:320px;",
        "isCustomCSSEnabled": true,
        "isForked": true
    },
    "spabb": {
        "customCSS": "background:#F4F4F4; padding:10px!important; margin:0!important; border-bottom:solid 1px #BEBEBE!important; color:#333333;  width:320px;",
        "isCustomCSSEnabled": true,
        "isForked": true
    },
    "spaip": {
        "customCSS": "background:#F4F4F4; padding:10px!important; margin:0!important; border-bottom:solid 1px #BEBEBE!important; color:#333333;  width:320px;",
        "isCustomCSSEnabled": true,
        "isForked": true
    },
    "spaipad": {
        "customCSS": "background:#F4F4F4; padding:10px!important; margin:0!important; border-bottom:solid 1px #BEBEBE!important; color:#333333;  width:320px;",
        "isCustomCSSEnabled": true,
        "isForked": true
    },
    "spawindowstablet": {
        "customCSS": "background:#F4F4F4; padding:10px!important; margin:0!important; border-bottom:solid 1px #BEBEBE!important; color:#333333;  width:320px;",
        "isCustomCSSEnabled": true,
        "isForked": true
    },
    "spawinphone8": {
        "customCSS": "background:#F4F4F4; padding:10px!important; margin:0!important; border-bottom:solid 1px #BEBEBE!important; color:#333333;  width:320px;",
        "isCustomCSSEnabled": true,
        "isForked": true
    },
    "text_shadow": {
        "br": 0,
        "color": "000000",
        "x": 0,
        "y": 0
    },
    "top_left_border_color": "000000ff",
    "top_left_border_radius": 10,
    "top_left_border_width": 0,
    "top_right_border_color": "000000ff",
    "top_right_border_radius": 10,
    "top_right_border_width": 0,
    "use_native": "false",
    "vizChannel": "default",
    "wType": "HBox"
}