{
  "background_color": "ffffff00",
  "bg_type": "one",
  "border_color": "ffffff00",
  "border_style": "plain",
  "border_type": 0,
  "border_width": 1,
  "font_color": "000000ff",
  "font_size": 100,
  "font_style": "normal",
  "font_weight": "normal",
  "isDefaultSkin": false,
  "kuid": "sf12571dfb374b0f91ca3500b4271729",
  "wType": "Segment"
}