{
  "background_color": "ffffffff",
  "bg_type": "one",
  "border_color": "ffffff47",
  "border_style": "plain",
  "border_type": 0,
  "border_width": 1,
  "isDefaultSkin": false,
  "kuid": "s10f09e753ee4cbf97781178b3e7573d",
  "wType": "Segment"
}