{
  "background_color": "00c71eff",
  "bg_type": "one",
  "border_color": "00000000",
  "border_radius": 100,
  "border_style": "custom",
  "border_type": 0,
  "border_width": 1,
  "isDefaultSkin": false,
  "kuid": "s686620c5ad646bc9b0025d851c70613",
  "wType": "FlexContainer"
}