{
  "android": {
    "font_name": "DBOzoneX",
    "isForked": true
  },
  "applicableblockedUIWidget": "Button",
  "background_color": "ffffff00",
  "bg_type": "one",
  "blockedimgURL": "",
  "border_color": "d0e4f1ff",
  "border_style": "plain",
  "border_type": 0,
  "border_width": 1,
  "bottom_left_border_color": "000000ff",
  "bottom_left_border_radius": 10,
  "bottom_left_border_width": 0,
  "bottom_right_border_color": "000000ff",
  "bottom_right_border_radius": 10,
  "bottom_right_border_width": 0,
  "delinkedPltfrms": {
    "desktop": [],
    "mobile": [
      "android"
    ],
    "tablet": [],
    "watch": []
  },
  "desktopweb": {
    "font_color": "007abcff",
    "font_size": 171,
    "isForked": true
  },
  "fontSizeInPx": false,
  "font_color": "007abcff",
  "font_size": 133,
  "font_weight": "normal",
  "gridLineColor": "0000000",
  "ipad": {
    "border_color": "d0e4f1ff",
    "border_style": "plain",
    "border_type": 0,
    "border_width": 1,
    "font_color": "007abcff",
    "font_size": 171,
    "isForked": true
  },
  "iphone": {
    "isForked": true
  },
  "isDefaultSkin": false,
  "isForked": false,
  "kiosk": {
    "border_color": "d0e4f1ff",
    "border_style": "plain",
    "border_type": 0,
    "border_width": 1,
    "font_color": "007abcff",
    "font_size": 171,
    "isForked": true
  },
  "kuid": "s46a5cae16a443109f4dd3eacaf0e93c",
  "shadow": {
    "br": 0,
    "color": "000000",
    "inner": false,
    "x": 0,
    "y": 0
  },
  "spaan": {
    "font_color": "007abcff",
    "font_size": 171,
    "isForked": true
  },
  "spaandroidtablet": {
    "font_color": "007abcff",
    "font_size": 171,
    "isForked": true
  },
  "spabb": {
    "font_color": "007abcff",
    "font_size": 171,
    "isForked": true
  },
  "spaip": {
    "font_color": "007abcff",
    "font_size": 171,
    "isForked": true
  },
  "spaipad": {
    "font_color": "007abcff",
    "font_size": 171,
    "isForked": true
  },
  "spawindowstablet": {
    "font_color": "007abcff",
    "font_size": 171,
    "isForked": true
  },
  "spawinphone8": {
    "font_color": "007abcff",
    "font_size": 171,
    "isForked": true
  },
  "tabrcandroid": {
    "border_color": "d0e4f1ff",
    "border_style": "plain",
    "border_type": 0,
    "border_width": 1,
    "font_color": "007abcff",
    "font_size": 171,
    "isForked": true
  },
  "text_shadow": {
    "br": 0,
    "color": "000000",
    "x": 0,
    "y": 0
  },
  "top_left_border_color": "000000ff",
  "top_left_border_radius": 10,
  "top_left_border_width": 0,
  "top_right_border_color": "000000ff",
  "top_right_border_radius": 10,
  "top_right_border_width": 0,
  "vizChannel": "default",
  "wType": "TextField",
  "watchos": {
    "font_size": 133,
    "isForked": false
  },
  "windows8": {
    "border_color": "d0e4f1ff",
    "border_style": "plain",
    "border_type": 0,
    "border_width": 1,
    "font_color": "007abcff",
    "font_size": 171,
    "isForked": true
  },
  "winphone8": {
    "border_color": "d0e4f1ff",
    "border_style": "plain",
    "border_type": 0,
    "border_width": 1,
    "font_color": "007abcff",
    "font_size": 171,
    "isForked": true
  }
}