{
  "background_color": "b3b3b3ff",
  "bg_type": "one",
  "border_color": "b3b3b3ff",
  "border_style": "plain",
  "border_type": 0,
  "border_width": 0,
  "font_color": "b3b3b3ff",
  "font_name": "Helvetica",
  "font_size": 156,
  "font_style": "normal",
  "font_weight": "normal",
  "isDefaultSkin": true,
  "kuid": "s39db7d025404e4b94521036cef4b99f",
  "wType": "Line"
}