{
  "android": {
    "font_size": 170,
    "isForked": false
  },
  "androidwearos": {
    "font_size": 170,
    "isForked": false
  },
  "background_color": "ffffffff",
  "bg_type": "one",
  "border_color": "d0e4f1ff",
  "border_style": "plain",
  "border_type": 0,
  "border_width": 1,
  "desktopweb": {
    "font_size": 170,
    "isForked": false
  },
  "fontSizeInPx": false,
  "font_color": "0085bcff",
  "font_name": "Helvetica",
  "font_size": 170,
  "font_style": "normal",
  "font_weight": "normal",
  "ipad": {
    "font_size": 170,
    "isForked": false
  },
  "iphone": {
    "font_name": "DBOzoneX",
    "font_size": 170,
    "isForked": false
  },
  "isDefaultSkin": false,
  "kiosk": {
    "font_size": 170,
    "isForked": false
  },
  "kuid": "s38d10f0f48d45be8ff1ee9835189e41",
  "spaan": {
    "font_size": 170,
    "isForked": false
  },
  "spaandroidtablet": {
    "font_size": 170,
    "isForked": false
  },
  "spabb": {
    "font_size": 170,
    "isForked": false
  },
  "spaip": {
    "font_size": 170,
    "isForked": false
  },
  "spaipad": {
    "font_size": 170,
    "isForked": false
  },
  "spawindowstablet": {
    "font_size": 170,
    "isForked": false
  },
  "spawinphone8": {
    "font_size": 170,
    "isForked": false
  },
  "tabrcandroid": {
    "font_size": 170,
    "isForked": false
  },
  "wType": "TextField",
  "watchos": {
    "font_size": 170,
    "isForked": false
  },
  "windows8": {
    "font_size": 170,
    "isForked": false
  },
  "winphone8": {
    "font_size": 170,
    "isForked": false
  }
}