{
  "background_color": "007abcff",
  "bg_type": "one",
  "border_color": "007abcff",
  "border_style": "rc",
  "border_type": 0,
  "border_width": 1,
  "isDefaultSkin": false,
  "kuid": "s9a4b8867ed04a34b374fecf58724e6e",
  "wType": "VBox"
}