{
    "DNDConfig": null,
    "_enabled_": false,
    "_margin_": [
        0,
        2,
        0,
        0
    ],
    "_orientation_": 1,
    "_padding_": [
        0,
        2,
        0,
        2
    ],
    "_percent_": true,
    "_position_": 3,
    "_resize_": true,
    "_skin_": "sc7d4a69fa8c4edfb92ab6fd4ffbf89d",
    "allboxes": [],
    "borderCollapse": false,
    "canUpdateUI": true,
    "children": [
        "btnAtm",
        "btnBrch",
        "btnExgBooth",
        "btnSearchIcon"
    ],
    "containerweight": 100,
    "desktopweb": {
        "@class": "com.kony.gen.viz.model.container.property.hbox.DesktopWebHBoxProperty",
        "_margin_": [
            0,
            3,
            0,
            0
        ],
        "_padding_": [
            3,
            4,
            1,
            4
        ],
        "_position_": 3,
        "margin": [
            0,
            3,
            0,
            0
        ],
        "marginInPixel": false,
        "padding": [
            3,
            4,
            1,
            4
        ],
        "paddingInPixel": false,
        "position": 3,
        "render": true
    },
    "focusskin": "sc7d4a69fa8c4edfb92ab6fd4ffbf89d",
    "id": "hbxMenu",
    "info": null,
    "isvisible": true,
    "kiosk": {
        "@class": "com.kony.gen.viz.model.container.property.hbox.KioskHBoxProperty",
        "_margin_": [
            0,
            0,
            0,
            0
        ],
        "_padding_": [
            0,
            2,
            0,
            2
        ],
        "_position_": 3,
        "margin": [
            0,
            0,
            0,
            0
        ],
        "marginInPixel": false,
        "padding": [
            0,
            2,
            0,
            2
        ],
        "paddingInPixel": false,
        "position": 3,
        "render": true
    },
    "kuid": "p2kwiet2012247639109",
    "layoutalignment": 3,
    "layouttype": 0,
    "margininpixel": false,
    "name": "kony.ui.Box",
    "paddinginpixel": false,
    "parent": "vbox476047582115626",
    "pf": "frmIBATMBranch",
    "spa": {
        "@class": "com.kony.gen.viz.model.container.property.hbox.SPAHBoxProperty"
    },
    "templateType": "forms",
    "wType": "HBox",
    "widgetalignment": 1
}