{
    "@class": "com.kony.gen.viz.model.container.KVizHBox",
    "DNDConfig": null,
    "_margin_": [
        0,
        0,
        0,
        0
    ],
    "_orientation_": 1,
    "_padding_": [
        0,
        0,
        0,
        0
    ],
    "_percent_": true,
    "_position_": 3,
    "_skin_": "s3240d32b9a74cc78d1e0768cd2cdf1b",
    "allboxes": [],
    "canUpdateUI": true,
    "children": [
        "Label0ed908cd259ce40"
    ],
    "containerId": true,
    "containerweight": 100,
    "contextmenu": null,
    "id": "HBox0gb6f96b2c4db42",
    "info": null,
    "iscustomlayout": false,
    "isvisible": true,
    "kuid": "bdb72d806d934e48a2b8544a1255c281",
    "layouttype": 0,
    "name": "kony.ui.Box",
    "parent": "VBox0ea4815cfca5b42",
    "pf": "segSliderSoSmart",
    "retaincontentalignment": false,
    "retainflexpositionproperties": false,
    "templateType": "forms",
    "wType": "HBox",
    "widgetalignment": 1
}