{
    "@class": "com.kony.gen.viz.model.container.KVizVBox",
    "DNDConfig": null,
    "_margin_": [
        0,
        0,
        0,
        0
    ],
    "_orientation_": 2,
    "_padding_": [
        0,
        0,
        0,
        0
    ],
    "_percent_": true,
    "_position_": 3,
    "_skin_": "s0e13ed4077f481ab090dae6b2e595ed",
    "allboxes": [],
    "canUpdateUI": true,
    "children": [
        "btnpayNow",
        "Line0f1899b63d61d49",
        "btnreject"
    ],
    "containerweight": 100,
    "contextmenu": null,
    "id": "VBox0a1cc6355d00343",
    "info": null,
    "isvisible": true,
    "kuid": "fd94dd3ceac546838b863df6cbc74611",
    "layouttype": 0,
    "name": "kony.ui.Box",
    "parent": "HBox0d2db58d07a1641",
    "pf": "popUpPushNotification",
    "wType": "VBox",
    "widgetalignment": 1
}