{
    "DNDConfig": null,
    "_enabled_": false,
    "_margin_": [
        0,
        0,
        0,
        0
    ],
    "_padding_": [
        0,
        3,
        0,
        3
    ],
    "_skin_": "seeb2c4ecd234ccab47be91d4f2c2882",
    "_text_": "",
    "android": {
        "@class": "com.kony.gen.viz.model.component.property.button.AndroidButtonProperty",
        "_margin_": [
            0,
            3,
            0,
            0
        ],
        "_padding_": [
            2,
            0,
            0,
            0
        ],
        "displayText": true,
        "margin": [
            0,
            3,
            0,
            0
        ],
        "marginInPixel": false,
        "padding": [
            2,
            0,
            0,
            0
        ],
        "paddingInPixel": false,
        "render": true
    },
    "canUpdateUI": true,
    "containerweight": 100,
    "contentalignment": 4,
    "displaytext": true,
    "focusskin": "seeb2c4ecd234ccab47be91d4f2c2882",
    "hexpand": true,
    "id": "btnCombDistrict",
    "ide_onClick": "p2kwiet2012247627099_btnCombDistrict_onClick_seq0",
    "info": null,
    "iphone": {
        "@class": "com.kony.gen.viz.model.component.property.button.IPhoneButtonProperty",
        "_margin_": [
            12,
            2,
            12,
            2
        ],
        "_padding_": [
            2,
            0,
            0,
            0
        ],
        "displayText": true,
        "margin": [
            12,
            2,
            12,
            2
        ],
        "marginInPixel": true,
        "padding": [
            2,
            0,
            0,
            0
        ],
        "paddingInPixel": false,
        "psp": {
            "glowEffect": false,
            "showProgressIndicator": false
        },
        "render": true
    },
    "isvisible": true,
    "kuid": "p2kwiet2012247627089",
    "margininpixel": false,
    "name": "kony.ui.Button",
    "paddinginpixel": false,
    "parent": "vbox8675986833475",
    "pf": "frmATMBranch",
    "showprogressindicator": false,
    "spa": {
        "@class": "com.kony.gen.viz.model.component.property.button.SPAButtonProperty",
        "displayText": true
    },
    "spaan": {
        "@class": "com.kony.gen.viz.model.component.property.button.SPAAndroidButtonProperty",
        "_margin_": [
            0,
            0,
            0,
            3
        ],
        "_padding_": [
            2,
            0,
            0,
            0
        ],
        "margin": [
            0,
            0,
            0,
            3
        ],
        "marginInPixel": false,
        "padding": [
            2,
            0,
            0,
            0
        ],
        "paddingInPixel": false,
        "render": true
    },
    "spabb": {
        "@class": "com.kony.gen.viz.model.component.property.button.SPABBButtonProperty",
        "_margin_": [
            5,
            1,
            5,
            1
        ],
        "_padding_": [
            2,
            0,
            0,
            0
        ],
        "margin": [
            5,
            1,
            5,
            1
        ],
        "marginInPixel": false,
        "padding": [
            2,
            0,
            0,
            0
        ],
        "paddingInPixel": false,
        "render": true
    },
    "spaip": {
        "@class": "com.kony.gen.viz.model.component.property.button.SPAIPhoneButtonProperty",
        "_margin_": [
            0,
            0,
            0,
            3
        ],
        "_padding_": [
            2,
            0,
            0,
            0
        ],
        "margin": [
            0,
            0,
            0,
            3
        ],
        "marginInPixel": false,
        "padding": [
            2,
            0,
            0,
            0
        ],
        "paddingInPixel": false,
        "render": true
    },
    "spawinphone8": {
        "@class": "com.kony.gen.viz.model.component.property.button.SPAWinPhone8ButtonProperty",
        "_margin_": [
            5,
            1,
            5,
            1
        ],
        "_padding_": [
            2,
            0,
            0,
            0
        ],
        "margin": [
            5,
            1,
            5,
            1
        ],
        "marginInPixel": false,
        "padding": [
            2,
            0,
            0,
            0
        ],
        "paddingInPixel": false,
        "render": true
    },
    "texti18n": "FindTMB_District",
    "vexpand": false,
    "wType": "Button",
    "widgetalignment": 5,
    "winphone8": {
        "@class": "com.kony.gen.viz.model.component.property.button.WinPhone8ButtonProperty",
        "_margin_": [
            15,
            2,
            15,
            2
        ],
        "_padding_": [
            2,
            0,
            0,
            0
        ],
        "displayText": true,
        "margin": [
            15,
            2,
            15,
            2
        ],
        "marginInPixel": true,
        "padding": [
            2,
            0,
            0,
            0
        ],
        "paddingInPixel": false,
        "psp": {
            "enableCache": false
        },
        "render": true
    }
}