{
    "@class": "com.kony.gen.viz.model.component.KVizImage2",
    "DNDConfig": null,
    "__parentReadjusting__": false,
    "_base64_": null,
    "_height_": {
        "type": "string",
        "value": "95%"
    },
    "_left_": {
        "type": "string",
        "value": "5.56%"
    },
    "_margin_": [
        0,
        0,
        0,
        0
    ],
    "_padding_": [
        0,
        0,
        0,
        0
    ],
    "_skin_": "s55d8a5125e74bb0b2eaca75c423dae1",
    "_src_": "card_sosmart_1242.png",
    "_top_": {
        "type": "string",
        "value": "51%"
    },
    "_width_": {
        "type": "string",
        "value": "50%"
    },
    "canUpdateUI": true,
    "containerweight": 100,
    "context": {
        "channel": "mobile",
        "formID": "frmLoanApplicationForm",
        "platform": "android",
        "templateType": "forms",
        "topLevelBox": null
    },
    "id": "Image0h3636ea173d74e",
    "imagescalemode": 1,
    "info": null,
    "invokedProperty": "src",
    "isvisible": true,
    "kuid": "b53472d7b3624dbe89ff5e557bd2bd18",
    "name": "kony.ui.Image2",
    "parent": "FlexContainer0a00ba3825f1c49",
    "pf": "frmLoanApplicationForm",
    "srcType": 1,
    "wType": "Image",
    "widgetalignment": 5,
    "zindex": 1
}