{
    "DNDConfig": null,
    "_enabled_": false,
    "_margin_": [
        0,
        0,
        0,
        0
    ],
    "_padding_": [
        0,
        1,
        0,
        1
    ],
    "_skin_": "scc7d83dfb9b473dbf31b7bd0e536259",
    "_text_": "",
    "canUpdateUI": true,
    "containerweight": 87,
    "contentalignment": 4,
    "desktopweb": {
        "@class": "com.kony.gen.viz.model.component.property.combobox.DesktopWebComboBoxProperty",
        "psp": {
            "autoSuggest": false,
            "hoverSkin": "sdf9f9ba08a144cf981fafe6fce955a8",
            "viewType": 0
        },
        "render": true
    },
    "focusskin": "sdf9f9ba08a144cf981fafe6fce955a8",
    "hexpand": true,
    "id": "cmbSort",
    "ide_onSelection": "p2kwiet2012247640786_cmbSort_onSelection_seq0",
    "info": null,
    "isvisible": true,
    "kiosk": {
        "@class": "com.kony.gen.viz.model.component.property.combobox.KioskComboBoxProperty",
        "render": true
    },
    "kuid": "p2kwiet2012247640709",
    "margininpixel": false,
    "masterdata": [
        [
            "1",
            "Sort By Ascending",
            "keySortAsc"
        ],
        [
            "2",
            "Sort By Descending",
            "keySortDesc"
        ]
    ],
    "name": "kony.ui.ComboBox",
    "paddinginpixel": false,
    "parent": "hbxListBox",
    "pf": "frmIBCMChgMobNoTxnLimit",
    "selectedkey": "2",
    "selectedkeyvalue": [
        "2",
        "Sort By Descending"
    ],
    "spa": {
        "@class": "com.kony.gen.viz.model.component.property.combobox.SPAComboBoxProperty"
    },
    "vexpand": false,
    "wType": "ComboBox",
    "widgetalignment": 5
}