{
    "@class": "com.kony.gen.viz.model.component.KVizButton",
    "DNDConfig": null,
    "__markedForDelete__": true,
    "_margin_": [
        0,
        0,
        0,
        0
    ],
    "_padding_": [
        0,
        0,
        0,
        0
    ],
    "_skin_": "s4d84752554541a4824d16c7b8e7a1fb",
    "_text_": "Button",
    "canUpdateUI": true,
    "containerId": true,
    "containerweight": 8,
    "contentalignment": 5,
    "displaytext": true,
    "focusskin": "sb03125d6967435d9bab3829bc2d31d6",
    "id": "btndelete",
    "info": null,
    "isvisible": true,
    "kuid": "aaf8de925df34c0787f81b67b0822bbc",
    "margininpixel": false,
    "name": "kony.ui.Button",
    "paddInPixel": [
        0,
        0,
        0,
        0
    ],
    "paddinginpixel": false,
    "parent": "CopyHBxorderList0db352010bcba49",
    "pf": "segHeaderOrderToProcess",
    "wType": "Button"
}