{
    "@class": "com.kony.gen.viz.model.component.KVizImage2",
    "DNDConfig": null,
    "__parentReadjusting__": false,
    "_base64_": null,
    "_height_": {
        "type": "string",
        "value": "54.67%"
    },
    "_left_": {
        "type": "string",
        "value": "75%"
    },
    "_margin_": [
        0,
        0,
        0,
        0
    ],
    "_padding_": [
        0,
        0,
        0,
        0
    ],
    "_skin_": "s55d8a5125e74bb0b2eaca75c423dae1",
    "_src_": "imagedrag.png",
    "_top_": {
        "type": "string",
        "value": "-0.06%"
    },
    "_width_": {
        "type": "string",
        "value": "21.88%"
    },
    "canUpdateUI": true,
    "containerId": true,
    "containerweight": 100,
    "context": {
        "channel": "mobile",
        "platform": "iphone",
        "templateType": "segments",
        "topLevelBox": null
    },
    "id": "imgCheckStatus",
    "ide_onTouchStart": "AS_Image_jec9cfbb86c5409a8b2f0eacaa6e2b1c",
    "imagescalemode": 1,
    "info": null,
    "isvisible": true,
    "kuid": "f688d10374b5412b93597e622adf6a9d",
    "name": "kony.ui.Image2",
    "parent": "FlexContainer0bf08262d62464a",
    "pf": "tmpCreditRow",
    "srcType": 1,
    "wType": "Image",
    "widgetalignment": 5,
    "zindex": 1
}