{
    "DNDConfig": null,
    "_enabled_": false,
    "_margin_": [
        0,
        0,
        0,
        0
    ],
    "_padding_": [
        0,
        0,
        0,
        0
    ],
    "_skin_": "s2d24fa33d8c41928e10a4e086a4c46a",
    "_text_": "",
    "canUpdateUI": true,
    "containerweight": 100,
    "contentalignment": 4,
    "desktopweb": {
        "@class": "com.kony.gen.viz.model.component.property.combobox.DesktopWebComboBoxProperty",
        "_padding_": [
            0,
            0,
            0,
            0
        ],
        "padding": [
            0,
            0,
            0,
            0
        ],
        "paddingInPixel": false,
        "psp": {
            "autoSuggest": false,
            "hoverSkin": "s1f8b40f07fd4b8a956ed9f5be784840",
            "viewType": 0
        },
        "render": true
    },
    "focusskin": "s1f8b40f07fd4b8a956ed9f5be784840",
    "hexpand": true,
    "id": "comboBankName",
    "ide_onSelection": "p2kwiet2012247644952_comboBankName_onSelection_seq0",
    "info": null,
    "isvisible": true,
    "kiosk": {
        "@class": "com.kony.gen.viz.model.component.property.combobox.KioskComboBoxProperty",
        "render": true
    },
    "kuid": "p2kwiet2012247644885",
    "margininpixel": false,
    "masterdata": [],
    "name": "kony.ui.ComboBox",
    "paddinginpixel": false,
    "parent": "vboxTMBSelectAccnt",
    "pf": "frmIBMyReceipentsAddBankAccnt",
    "selectedkey": "",
    "selectedkeyvalue": [],
    "spa": {
        "@class": "com.kony.gen.viz.model.component.property.combobox.SPAComboBoxProperty"
    },
    "vexpand": false,
    "wType": "ComboBox",
    "widgetalignment": 4
}