{
    "@class": "com.kony.gen.viz.model.container.KVizSegment2",
    "DNDConfig": null,
    "_data_": [
        {
            "LabelUnitHolderNo": {
                "@class": "com.viz.ide.model.segment.SimpleTextSegmentData",
                "text": "111-1111-1111-0"
            }
        },
        {
            "LabelUnitHolderNo": {
                "@class": "com.viz.ide.model.segment.SimpleTextSegmentData",
                "text": "111-1111-1111-0"
            }
        },
        {
            "LabelUnitHolderNo": {
                "@class": "com.viz.ide.model.segment.SimpleTextSegmentData",
                "text": "111-1111-1111-0"
            }
        }
    ],
    "_indicator_": "none",
    "_margin_": [
        0,
        0,
        0,
        0
    ],
    "_orientation_": 2,
    "_padding_": [
        0,
        0,
        0,
        0
    ],
    "canUpdateUI": true,
    "containerweight": 100,
    "counter": "02",
    "focusedindex": null,
    "focuseditem": null,
    "groupcells": false,
    "hasSections": false,
    "id": "SegmentList",
    "ide_onRowClick": "AS_Segment_e94fdf20bc2d45b2ab53f852b498c6d7",
    "info": null,
    "ipad": {
        "psp": {
            "indicator": "rowselect"
        }
    },
    "iphone": {
        "psp": {
            "indicator": "rowselect"
        }
    },
    "isvisible": true,
    "kuid": "ib6ee9af823b428e92f6d2edb108499a",
    "masterdata": {},
    "name": "kony.ui.SegmentedUI2",
    "needpageindicator": true,
    "pageoffdotimage": "pageoffdot.png",
    "pageondotimage": "pageondot.png",
    "paginationconfig": {
        "position": "bottom"
    },
    "parent": "ScrollBox0ief709c969394a",
    "pf": "popupIBSelectUnitHolderNoMF",
    "retainselection": false,
    "rowTemplateId": "h7eef97557ae4c60ba6e30b56c735e6d",
    "rowcounter": 2,
    "rowfocusskin": "sbbc7f0678bf4c678c40fe82030b9661",
    "rowskin": "s01e0182a4d14a4da5e4e707eafeea1b",
    "rowtemplate": "HBox0e3dfb8bf121147",
    "screenlevelwidget": false,
    "seccounter": 0,
    "sectionheaderskin": "s8bfadf7251c4abfa23d31af10ef7493",
    "selectedRows": null,
    "selectedState": false,
    "selectedindex": null,
    "selectedindices": null,
    "selecteditems": null,
    "selectedsectionindex": 0,
    "selectionbehavior": "singleselect",
    "selectionbehaviorconfig": {},
    "separatorcolor": "cce2f100",
    "separatorrequired": true,
    "separatorthickness": 1,
    "showscrollbars": false,
    "viewtype": "tableview",
    "wType": "Segment",
    "widgetalignment": 5,
    "widgetdatamap": {
        "HBox0e3dfb8bf121147": "HBox0e3dfb8bf121147",
        "LabelUnitHolderNo": "LabelUnitHolderNo"
    }
}