{
    "@class": "com.kony.gen.viz.model.container.KVizVBox",
    "DNDConfig": null,
    "_margin_": [
        0,
        0,
        0,
        0
    ],
    "_orientation_": 2,
    "_padding_": [
        0,
        0,
        0,
        0
    ],
    "_percent_": true,
    "_position_": 3,
    "_skin_": "s0e13ed4077f481ab090dae6b2e595ed",
    "allboxes": [],
    "canUpdateUI": true,
    "children": [],
    "containerweight": 20,
    "contextmenu": null,
    "donotUpdateContainerWeight": false,
    "id": "CopyVBox0e5ff44bc8e2b45",
    "info": null,
    "iscustomlayout": false,
    "isvisible": true,
    "kuid": "ca88a49c8f8643f59dfae100e552e136",
    "layouttype": 0,
    "name": "kony.ui.Box",
    "paddInPixel": [
        0,
        0,
        0,
        0
    ],
    "parent": "hboxAccessPinCircles",
    "pf": "popupEnterAccessPin",
    "retaincontentalignment": false,
    "retainflexpositionproperties": false,
    "wType": "VBox",
    "widgetalignment": 1
}