{
    "@class": "com.kony.gen.viz.model.container.KVizHBox",
    "DNDConfig": null,
    "_margin_": [
        0,
        0,
        0,
        3
    ],
    "_orientation_": 1,
    "_padding_": [
        0,
        0,
        0,
        0
    ],
    "_percent_": true,
    "_position_": 3,
    "_skin_": "s3240d32b9a74cc78d1e0768cd2cdf1b",
    "allboxes": [],
    "canUpdateUI": true,
    "children": [
        "VBox0cef52b76154446",
        "imgOne",
        "imgTwo",
        "imgThree",
        "imgFour",
        "imgFive",
        "imgSix",
        "CopyVBox0e5ff44bc8e2b45"
    ],
    "containerweight": 100,
    "contextmenu": null,
    "id": "hboxAccessPinCircles",
    "info": null,
    "iscustomlayout": false,
    "isvisible": true,
    "kuid": "fac4ec94ef2943dd916b435448f26a12",
    "layouttype": 0,
    "margininpixel": false,
    "name": "kony.ui.Box",
    "paddinginpixel": false,
    "parent": "VBox0i1accc0936a54f",
    "pf": "popupEnterAccessPin",
    "retaincontentalignment": false,
    "retainflexpositionproperties": false,
    "vexpand": false,
    "wType": "HBox",
    "widgetalignment": 5
}