{
    "DNDConfig": null,
    "_enabled_": false,
    "_margin_": [
        2,
        0,
        0,
        0
    ],
    "_skin_": "s5acbd7611124b5db2432a29feceb493",
    "_text_": "",
    "canUpdateUI": true,
    "containerweight": 40,
    "contentalignment": 5,
    "desktopweb": {
        "@class": "com.kony.gen.viz.model.component.property.button.DesktopWebButtonProperty",
        "_margin_": [
            12,
            0,
            0,
            0
        ],
        "_padding_": [
            0,
            0,
            0,
            0
        ],
        "displayText": true,
        "margin": [
            12,
            0,
            0,
            0
        ],
        "marginInPixel": false,
        "padding": [
            0,
            0,
            0,
            0
        ],
        "paddingInPixel": false,
        "render": true
    },
    "displaytext": true,
    "focusskin": "sfa8adc8f9d844e4ba21b93d33bed075",
    "hexpand": true,
    "id": "button1014589649373",
    "ide_onClick": "p2kwiet2012247639803_button1014589649373_onClick_seq0",
    "info": null,
    "isvisible": true,
    "kiosk": {
        "@class": "com.kony.gen.viz.model.component.property.button.KioskButtonProperty",
        "render": true
    },
    "kuid": "p2kwiet2012247639733",
    "margininpixel": false,
    "name": "kony.ui.Button",
    "parent": "hbxBtn",
    "pf": "frmIBBillPaymentCompletenow",
    "spa": {
        "@class": "com.kony.gen.viz.model.component.property.button.SPAButtonProperty",
        "displayText": true
    },
    "texti18n": "keyIBMakeBill",
    "vexpand": false,
    "wType": "Button",
    "widgetalignment": 6
}