{
    "DNDConfig": null,
    "_enabled_": false,
    "_margin_": [
        0,
        0,
        0,
        0
    ],
    "_padding_": [
        0,
        0,
        0,
        0
    ],
    "_skin_": "sfcc80d0c4c84ec88c40b536edd562e5",
    "_text_": "",
    "canUpdateUI": true,
    "containerweight": 100,
    "contentalignment": 5,
    "desktopweb": {
        "@class": "com.kony.gen.viz.model.component.property.link.DesktopWebLinkProperty",
        "render": true
    },
    "focusskin": "sfcc80d0c4c84ec88c40b536edd562e5",
    "hexpand": true,
    "id": "lnkHide",
    "ide_onClick": "p2kwiet2012247639803_lnkHide_onClick_seq0",
    "info": null,
    "isvisible": true,
    "kiosk": {
        "@class": "com.kony.gen.viz.model.component.property.link.KioskLinkProperty",
        "render": true
    },
    "kuid": "p2kwiet2012247639783",
    "margininpixel": false,
    "name": "kony.ui.Link",
    "paddinginpixel": false,
    "parent": "hbox47514880277279",
    "pf": "frmIBBillPaymentCompletenow",
    "spa": {
        "@class": "com.kony.gen.viz.model.component.property.link.SPALinkProperty"
    },
    "vexpand": false,
    "wType": "Link",
    "widgetalignment": 5
}