{
    "DNDConfig": null,
    "_enabled_": false,
    "_orientation_": 1,
    "_padding_": [
        3,
        3,
        3,
        3
    ],
    "_percent_": true,
    "_position_": 3,
    "_resize_": true,
    "_skin_": "s3c4f8eaf279417ba2ba7e916a5628af",
    "allboxes": [],
    "borderCollapse": false,
    "canUpdateUI": true,
    "children": [
        "vbox476047582115273"
    ],
    "containerweight": 100,
    "desktopweb": {
        "@class": "com.kony.gen.viz.model.container.property.hbox.DesktopWebHBoxProperty",
        "_margin_": [
            0,
            0,
            0,
            6
        ],
        "_position_": 3,
        "margin": [
            0,
            0,
            0,
            6
        ],
        "marginInPixel": false,
        "position": 3,
        "render": true
    },
    "focusskin": "s3c4f8eaf279417ba2ba7e916a5628af",
    "id": "hbxOtpBox",
    "info": null,
    "isvisible": true,
    "kiosk": {
        "@class": "com.kony.gen.viz.model.container.property.hbox.KioskHBoxProperty",
        "_position_": 3,
        "position": 3,
        "render": true
    },
    "kuid": "p2kwiet2012247645008",
    "layoutalignment": 3,
    "layouttype": 0,
    "name": "kony.ui.Box",
    "paddinginpixel": false,
    "parent": "vboxSelectRcConf",
    "pf": "frmIBMyReceipentsAddContactFB",
    "spa": {
        "@class": "com.kony.gen.viz.model.container.property.hbox.SPAHBoxProperty"
    },
    "templateType": "forms",
    "wType": "HBox",
    "widgetalignment": 1
}