{
    "DNDConfig": null,
    "_enabled_": false,
    "_margin_": [
        2,
        2,
        2,
        2
    ],
    "_padding_": [
        0,
        3,
        0,
        3
    ],
    "_skin_": "sd37fc540f9f470689549bf0b797a3c6",
    "_text_": "4",
    "canUpdateUI": true,
    "containerweight": 23,
    "contentalignment": 5,
    "desktopweb": {
        "@class": "com.kony.gen.viz.model.component.property.button.DesktopWebButtonProperty",
        "_margin_": [
            2,
            2,
            2,
            2
        ],
        "displayText": true,
        "margin": [
            2,
            2,
            2,
            2
        ],
        "marginInPixel": false,
        "render": true
    },
    "displaytext": true,
    "focusskin": "s9e5503755c24debb2eb1cfbc481f44f",
    "hexpand": true,
    "id": "button1495287783233614",
    "ide_onClick": "p2kwiet2012247642323_button1495287783233614_onClick_seq0",
    "info": null,
    "isvisible": true,
    "kiosk": {
        "@class": "com.kony.gen.viz.model.component.property.button.KioskButtonProperty",
        "_margin_": [
            2,
            2,
            2,
            2
        ],
        "margin": [
            2,
            2,
            2,
            2
        ],
        "marginInPixel": false,
        "render": true
    },
    "kuid": "p2kwiet2012247642293",
    "margininpixel": false,
    "name": "kony.ui.Button",
    "paddinginpixel": false,
    "parent": "hbox1495287783233608",
    "pf": "frmIBDebitCardActivateAssignPIN",
    "spa": {
        "@class": "com.kony.gen.viz.model.component.property.button.SPAButtonProperty",
        "displayText": true
    },
    "vexpand": false,
    "wType": "Button",
    "widgetalignment": 5
}