{
    "@class": "com.kony.gen.viz.model.component.KVizLabel",
    "DNDConfig": null,
    "__parentReadjusting__": false,
    "_height_": {
        "type": "ref",
        "value": "preferred"
    },
    "_left_": {
        "type": "string",
        "value": "0dp"
    },
    "_margin_": [
        1,
        1,
        1,
        1
    ],
    "_padding_": [
        5,
        0,
        0,
        0
    ],
    "_skin_": "s0b8674efcfe4a7291d0d8f920ae63dc",
    "_text_": "การให้ความยินยอมจากเจ้าของข้อมูล เพื่อใช้จัดทำแบบจำลองด้านเครดิต",
    "_width_": {
        "type": "string",
        "value": "75%"
    },
    "_wrapping_": 2,
    "android": {
        "textStyle": {
            "letterSpacing": 0,
            "strikeThrough": false
        }
    },
    "canUpdateUI": true,
    "centery": {
        "type": "string",
        "value": "50%"
    },
    "containerweight": 100,
    "contentalignment": 4,
    "id": "lblOwnerLetterofConcent",
    "info": null,
    "ipad": {
        "psp": {
            "wrapping": 2
        }
    },
    "iphone": {
        "psp": {
            "wrapping": 2
        }
    },
    "isvisible": true,
    "kuid": "j51709f1ad2041949bb37603e18c4695",
    "name": "kony.ui.Label",
    "paddinginpixel": false,
    "parent": "flxOwnerLetterofConsent",
    "pf": "frmApplicationCfrm",
    "textstyle": {},
    "tooltip": "",
    "wType": "Label",
    "zindex": 1
}