{
    "AS_Button_aff2be0e7b474ca0a6dae166dd1982c6": {
        "id": "AS_Button_aff2be0e7b474ca0a6dae166dd1982c6",
        "type": "ACTION_SEQUENCE",
        "params": [{
            "datatype": "collection",
            "name": "eventobject"
        }],
        "contextObj": {
            "name": "frmIBPreLogin",
            "type": "forms",
            "platform": "",
            "KUID": "p2kwiet2012247647397"
        },
        "language": "js",
        "actions": [{
            "id": "INVOKE_FUNCTION___ffaddc894179490abe142cf6cfc95115",
            "type": "INVOKE_FUNCTION",
            "sequenceKUID": "QRCodeGeneratorIB",
            "display": "QRCodeGeneratorIB",
            "inputparams": [],
            "parentId": null,
            "callbackType": null,
            "disabled": null,
            "source": "module"
        }]
    }
}