{
    "AS_Form_b153afbb00044d779c1f7856bbeec326": {
        "id": "AS_Form_b153afbb00044d779c1f7856bbeec326",
        "type": "ACTION_SEQUENCE",
        "params": [{
            "datatype": "collection",
            "name": "eventobject"
        }],
        "contextObj": {
            "name": "frmIBPreLogin",
            "type": "forms",
            "platform": "",
            "KUID": "p2kwiet2012247647397"
        },
        "language": "js",
        "actions": []
    }
}