{
    "AS_HBox_d3c4c0c8c6644b739d583713d9170d04": {
        "id": "AS_HBox_d3c4c0c8c6644b739d583713d9170d04",
        "type": "ACTION_SEQUENCE",
        "params": [{
            "datatype": "collection",
            "name": "eventobject"
        }, {
            "datatype": "collection",
            "name": "context"
        }],
        "contextObj": {
            "name": "popIBTransferOptions",
            "type": "popups",
            "platform": null,
            "KUID": "h9e45eab184e4346b23b342763834e22"
        },
        "language": "js",
        "actions": []
    }
}