{
    "AS_VBox_icce62840d9b4a63a7e9ef3099762f0d": {
        "id": "AS_VBox_icce62840d9b4a63a7e9ef3099762f0d",
        "type": "ACTION_SEQUENCE",
        "params": [{
            "datatype": "collection",
            "name": "eventobject"
        }],
        "contextObj": {
            "name": "QRCodeDisplay",
            "type": "popups",
            "platform": "",
            "KUID": "cc2a9386c99c44e89614dc859eff6bb5"
        },
        "language": "js",
        "actions": []
    }
}