{
    "AS_VBox_c2f23c55a97640089e1b41f9ea791691": {
        "id": "AS_VBox_c2f23c55a97640089e1b41f9ea791691",
        "type": "ACTION_SEQUENCE",
        "name": "frmEDonation_showHide_click",
        "params": [{
            "datatype": "collection",
            "name": "eventobject"
        }],
        "contextObj": {
            "name": "frmIBEDonationExecutedTxn",
            "type": "forms",
            "platform": null,
            "KUID": "fdcbdcf46d2445cdb637e74f860b5f94"
        },
        "language": "js",
        "actions": [{
            "id": "ADD_SNIPPET__h1fd178941034443954c3d44dc30a428",
            "type": "ADD_SNIPPET",
            "codeSnippet": "if (frmIBEDonationExecutedTxn.lblBBPaymentValue.isVisible)\n{\n\tfrmIBEDonationExecutedTxn.lblBBPaymentValue.setVisibility(false);\n\tfrmIBEDonationExecutedTxn.lblHide.text= kony.i18n.getLocalizedString(\"keyUnhide\");\n}\nelse\n{\n\tfrmIBEDonationExecutedTxn.lblBBPaymentValue.setVisibility(true);\n\tfrmIBEDonationExecutedTxn.lblHide.text=kony.i18n.getLocalizedString(\"Hide\");\n}",
            "parentId": null,
            "callbackType": null
        }]
    }
}