{
    "AS_Button_d083f9931b414bce8120d090473112c1": {
        "id": "AS_Button_d083f9931b414bce8120d090473112c1",
        "type": "ACTION_SEQUENCE",
        "name": "frmEDonation_btnBack_click",
        "params": [{
            "datatype": "collection",
            "name": "eventobject"
        }],
        "contextObj": {
            "name": "frmIBEDonationExecutedTxn",
            "type": "forms",
            "platform": null,
            "KUID": "fdcbdcf46d2445cdb637e74f860b5f94"
        },
        "language": "js",
        "actions": [{
            "id": "INVOKE_FUNCTION___dabd337c0e0949f5b38579889de7a524",
            "type": "INVOKE_FUNCTION",
            "sequenceKUID": "onReturnBtnClick",
            "display": "onReturnBtnClick",
            "inputparams": [],
            "parentId": null,
            "source": "module"
        }]
    }
}