{
    "AS_Button_ca08dd16160a4a988e3c85829f3c616a": {
        "id": "AS_Button_ca08dd16160a4a988e3c85829f3c616a",
        "type": "ACTION_SEQUENCE",
        "name": "frmIBDebitCardActivateAssignPIN_btnFifthPin",
        "params": [{
            "datatype": "collection",
            "name": "eventobject"
        }],
        "contextObj": {
            "name": "frmIBDebitCardActivateAssignPIN",
            "type": "forms",
            "platform": "",
            "KUID": "p2kwiet2012247642323"
        },
        "language": "js",
        "actions": [{
            "id": "INVOKE_FUNCTION___cbc1df97c30846a782ec078142c0f849",
            "type": "INVOKE_FUNCTION",
            "sequenceKUID": "toggleKeyPad",
            "display": "toggleKeyPad",
            "inputparams": [{
                "name": "command",
                "value": "false"
            }],
            "parentId": null,
            "source": "module"
        }]
    }
}