{
    "AS_Button_eeb3c1c3d83440fa8eac2ab783f8e23d": {
        "id": "AS_Button_eeb3c1c3d83440fa8eac2ab783f8e23d",
        "type": "ACTION_SEQUENCE",
        "name": "frmIBTransferNowConfirmation_btnXferCancel",
        "params": [{
            "name": "eventobject",
            "value": "eventobject"
        }],
        "language": "js",
        "actions": [{
            "id": "INVOKE_FUNCTION___b81146e374f04eef8f13f88fe8c24b61",
            "type": "INVOKE_FUNCTION",
            "sequenceKUID": "transferMenuClick",
            "display": "transferMenuClick",
            "inputparams": [],
            "parentId": null,
            "callbackType": null,
            "disabled": null,
            "source": "module"
        }]
    }
}