{
    "AS_Form_i36cb3d1e1b04d53b0f14b191fdf8ba7": {
        "id": "AS_Form_i36cb3d1e1b04d53b0f14b191fdf8ba7",
        "type": "ACTION_SEQUENCE",
        "name": "frmIBMutualFundsPortfolio_preshowevent",
        "params": [{
            "datatype": "collection",
            "name": "eventobject"
        }],
        "contextObj": {
            "name": "frmIBMutualFundsPortfolio",
            "type": "forms",
            "platform": "",
            "KUID": "d733009c36ac4080a69ccffa2dad638b"
        },
        "language": "js",
        "actions": [{
            "id": "INVOKE_FUNCTION___fa793199d8be4bf8ac1b33a372646340",
            "type": "INVOKE_FUNCTION",
            "sequenceKUID": "frmIBMutualFundsPortfolioPreShow",
            "display": "frmIBMutualFundsPortfolioPreShow",
            "inputparams": [],
            "parentId": null,
            "callbackType": null,
            "disabled": null,
            "source": "module"
        }]
    }
}