{
    "AS_TextField_h00cc7fad7164d5dae5cabd22991b04d": {
        "id": "AS_TextField_h00cc7fad7164d5dae5cabd22991b04d",
        "type": "ACTION_SEQUENCE",
        "name": "frmIBMFSelPurchaseFunds_onSearchFund",
        "params": [{
            "datatype": "collection",
            "name": "eventobject"
        }],
        "contextObj": {
            "name": "frmIBMFSelPurchaseFundsEntry",
            "type": "forms",
            "platform": "",
            "KUID": "a4c9156f38ff4a00aa6c215dd09045fe"
        },
        "language": "js",
        "actions": [{
            "id": "ADD_SNIPPET__b441f7b03e5f49129b0ad03ae58d0da7",
            "type": "ADD_SNIPPET",
            "codeSnippet": "frmIBMFSelPurchaseFundsOnSearchFund();",
            "parentId": null,
            "callbackType": null
        }]
    }
}