{
    "AS_Form_e1a0c7f612264775bc1fc2622a4fa97c": {
        "id": "AS_Form_e1a0c7f612264775bc1fc2622a4fa97c",
        "type": "ACTION_SEQUENCE",
        "name": "frmIBMFSelPurchaseFundsEntry_preShow",
        "params": [{
            "datatype": "collection",
            "name": "eventobject"
        }],
        "contextObj": {
            "name": "frmIBMFSelPurchaseFundsEntry",
            "type": "forms",
            "platform": "",
            "KUID": "a4c9156f38ff4a00aa6c215dd09045fe"
        },
        "language": "js",
        "actions": [{
            "id": "ADD_SNIPPET__i3776da65c3b474f82d02b4f485c0838",
            "type": "ADD_SNIPPET",
            "codeSnippet": "preShowFrmIBMFSelPurchaseFundsEntry();",
            "parentId": null,
            "callbackType": null
        }]
    }
}