{
    "AS_Segment_c001078aec7f4ccaafcf38e949cb71e9": {
        "id": "AS_Segment_c001078aec7f4ccaafcf38e949cb71e9",
        "type": "ACTION_SEQUENCE",
        "name": "frmIBMFSelPurchaseFundsEntry_onRowClick",
        "params": [{
            "datatype": "collection",
            "name": "eventobject"
        }, {
            "datatype": "number",
            "name": "sectionNumber"
        }, {
            "datatype": "number",
            "name": "rowNumber"
        }],
        "contextObj": {
            "name": "frmIBMFSelPurchaseFundsEntry",
            "type": "forms",
            "platform": "",
            "KUID": "a4c9156f38ff4a00aa6c215dd09045fe"
        },
        "language": "js",
        "actions": [{
            "id": "ADD_SNIPPET__gadcd85c7be94a79b04b4c80f5881783",
            "type": "ADD_SNIPPET",
            "codeSnippet": "frmIBMFSelPurchaseFundsEntryOnClickOnSegment();",
            "parentId": null,
            "callbackType": null
        }]
    }
}