{
    "AS_Button_a22e14061ff1422fa2c28aa5d546d5c1": {
        "id": "AS_Button_a22e14061ff1422fa2c28aa5d546d5c1",
        "type": "ACTION_SEQUENCE",
        "name": "frmIBMFSelRedeemFund_btnCancel_onClickBack",
        "params": [{
            "datatype": "collection",
            "name": "eventobject"
        }],
        "contextObj": {
            "name": "frmIBMFSelRedeemFund",
            "type": "forms",
            "platform": "",
            "KUID": "ica24d4c3b9c43be8936f80f9c4bb780"
        },
        "language": "js",
        "actions": [{
            "id": "ADD_SNIPPET__de0861fcfae540caa89f077206ca8006",
            "type": "ADD_SNIPPET",
            "codeSnippet": "frmIBMFSelRedeemFund_onClickBack();",
            "parentId": null,
            "callbackType": null
        }]
    }
}