{
    "AS_Button_d3f7a38fe09e409b89d4a324988e9e36": {
        "id": "AS_Button_d3f7a38fe09e409b89d4a324988e9e36",
        "type": "ACTION_SEQUENCE",
        "name": "frmIBMFTnC_AcceptTerm3",
        "params": [{
            "datatype": "collection",
            "name": "eventobject"
        }],
        "language": "js",
        "actions": [{
            "id": "ADD_SNIPPET_ide_onClick_ad74c86a1d654181839cea88e36d3e9e",
            "type": "ADD_SNIPPET",
            "codeSnippet": "frmIBMFTnC_onClickAcceptWarning3();",
            "callbackType": null
        }]
    }
}