{
    "AS_Form_d4aecbcd9ebf4196864e2074289dfef5": {
        "id": "AS_Form_d4aecbcd9ebf4196864e2074289dfef5",
        "type": "ACTION_SEQUENCE",
        "name": "frmIBMFSuitTnC_preShow",
        "params": [{
            "datatype": "collection",
            "name": "eventobject"
        }],
        "contextObj": {
            "name": "frmIBMFSuitTnC",
            "type": "forms",
            "platform": "",
            "KUID": "g4a14cb4a7a94aa099403af3e619b088"
        },
        "language": "js",
        "actions": [{
            "id": "INVOKE_FUNCTION___heedfc70dd5d4afd9c61f6ad901a25b9",
            "type": "INVOKE_FUNCTION",
            "sequenceKUID": "preShowfrmIBMFSuitTnC",
            "display": "preShowfrmIBMFSuitTnC",
            "inputparams": [],
            "parentId": null,
            "callbackType": null,
            "disabled": null,
            "source": "module"
        }]
    }
}