{
    "AS_Button_e0b7a0769d694cda9afe689e23c28764": {
        "id": "AS_Button_e0b7a0769d694cda9afe689e23c28764",
        "type": "ACTION_SEQUENCE",
        "name": "frmIBMFSelPurchaseFundsEntry_cancel",
        "params": [{
            "datatype": "collection",
            "name": "eventobject"
        }],
        "contextObj": {
            "name": "frmIBMFSelPurchaseFundsEntry",
            "type": "forms",
            "platform": "",
            "KUID": "a4c9156f38ff4a00aa6c215dd09045fe"
        },
        "language": "js",
        "actions": [{
            "id": "INVOKE_FUNCTION___j44991f348c740e1a8425dac6f400eef",
            "type": "INVOKE_FUNCTION",
            "sequenceKUID": "onClickViewPortfolio",
            "display": "onClickViewPortfolio",
            "inputparams": [],
            "parentId": null,
            "callbackType": null,
            "disabled": null,
            "source": "module"
        }]
    }
}