{
    "p2kwiet2012247644245_button588684466105109_onClick_seq0": {
        "id": "p2kwiet2012247644245_button588684466105109_onClick_seq0",
        "type": "ACTION_SEQUENCE",
        "params": [{
            "name": "eventobject",
            "value": "eventobject"
        }],
        "language": "js",
        "actions": [{
            "id": "customcode_onClick_13035201224769622",
            "type": "INVOKE_FUNCTION",
            "sequenceKUID": "sortSegData",
            "display": "sortSegData",
            "inputparams": [],
            "source": "module"
        }]
    }
}