{
    "p2kwiet2012247644730_frmIBMyBillersHome_preshow_seq0": {
        "id": "p2kwiet2012247644730_frmIBMyBillersHome_preshow_seq0",
        "type": "ACTION_SEQUENCE",
        "params": [{
            "name": "eventobject",
            "value": "eventobject"
        }, {
            "name": "neworientation",
            "value": "neworientation"
        }],
        "language": "js",
        "actions": [{
            "id": "expression_preshow_51970201224768505",
            "type": "ADD_SNIPPET",
            "codeSnippet": "frmIBMyBillersHome.segBillersList.setVisibility(true);\n frmIBMyBillersHome.lblMyBills.setVisibility(true);\n frmIBMyBillersHome.hbxMore.setVisibility(true);\n frmIBMyBillersHome.hbxSugBillersContainer.setVisibility(false);\n isSelectBillerEnabled= false;\n frmIBMyBillersHome.tbxSearch.text=\"\";\n frmIBMyBillersHome.lblOTPinCurr.text = \"\";\n frmIBMyBillersHome.lblPlsReEnter.text = \"\";\n var isIE8 = window.navigator.appVersion.match(/MSIE (\\d+)/) != null && RegExp.$1 == \"8\";\n if(!isIE8){\n frmIBMyBillersHome.tbxSearch.placeholder = kony.i18n.getLocalizedString(\"Receipent_Search\");\n }\n gblTopUpMore = 0;\n gblCustTopUpMore= 0;\n search=\"\";\n frmIBMyBillersHome.lblNoBills.setVisibility(false);\n frmIBMyBillersHome.lblErrorMsg.setVisibility(false);\n frmIBMyBillersHome.hbxTokenEntry.setVisibility(false);\n gblRetryCountRequestOTP=0;"
        }, {
            "id": "expression_preshow_5288920122476145",
            "type": "ADD_SNIPPET",
            "codeSnippet": "frmIBMyBillersHome.imgTMBLogo.setVisibility(true);\n //frmIBMyBillersHome.hbxTMBLogo.setVisibility(true);\n frmIBMyBillersHome.hbxBillersAddContainer.setVisibility(false);\n frmIBMyBillersHome.hbxBillersConfirmContainer.setVisibility(false);\n frmIBMyBillersHome.hbxBillersEditContainer.setVisibility(false);\n frmIBMyBillersHome.hbxBillersViewContainer.setVisibility(false);\n frmIBMyBillersHome.hbxSugBillersContainer.setVisibility(false);\n frmIBMyBillersHome.lblMyBills.setVisibility(false);\n frmIBMyBillersHome.hbxBillersCompleteContainer.setVisibility(false);\n frmIBMyBillersHome.imgArrowAddBiller.setVisibility(false);\n frmIBMyBillersHome.imgArrowSegBiller.setVisibility(false);\n frmIBMyBillersHome.txtotp.maxTextLength=6;\n frmIBMyBillersHome.tbxSearch.text=\"\";\n \n \n \n "
        }, {
            "id": "customcode_preshow_8764201224763819",
            "type": "INVOKE_FUNCTION",
            "sequenceKUID": "getLocaleBillerIB",
            "display": "getLocaleBillerIB",
            "inputparams": [],
            "source": "module"
        }]
    }
}