{
    "p2kwiet2012247644098_txtbxSuffix_DESKTOPWEB_onBeginEditing_seq0": {
        "id": "p2kwiet2012247644098_txtbxSuffix_DESKTOPWEB_onBeginEditing_seq0",
        "type": "ACTION_SEQUENCE",
        "params": [{
            "name": "eventobject",
            "value": "eventobject"
        }, {
            "name": "changedtext",
            "value": "changedtext"
        }],
        "language": "js",
        "actions": [{
            "id": "expression_onBeginEditing_70466201224769092",
            "type": "ADD_SNIPPET",
            "codeSnippet": "frmIBMyAccnts.txtbxSuffix.skin=\"txtBottomBorderFocus\";"
        }]
    }
}