{
    "p2kwiet2012247649303_txtTransLndSmsNEmail_DESKTOPWEB_onEndEditing_seq0": {
        "id": "p2kwiet2012247649303_txtTransLndSmsNEmail_DESKTOPWEB_onEndEditing_seq0",
        "type": "ACTION_SEQUENCE",
        "params": [{
            "name": "eventobject",
            "value": "eventobject"
        }, {
            "name": "changedtext",
            "value": "changedtext"
        }],
        "language": "js",
        "actions": [{
            "id": "expression_onEndEditing_65219201224765167",
            "type": "ADD_SNIPPET",
            "codeSnippet": "if(kony.appinit.isIE8)\n {\n onTextChangeToSMSMobileNoP2PIB(frmIBTranferLP.txtTransLndSmsNEmail.text);\n } "
        }]
    }
}