{
    "p2kwiet2012247646632_frmIBOpenNewTermDepositAccConfirmation_preshow_seq0": {
        "id": "p2kwiet2012247646632_frmIBOpenNewTermDepositAccConfirmation_preshow_seq0",
        "type": "ACTION_SEQUENCE",
        "params": [{
            "name": "eventobject",
            "value": "eventobject"
        }, {
            "name": "neworientation",
            "value": "neworientation"
        }],
        "language": "js",
        "actions": [{
            "id": "expression_preshow_69820201224761058",
            "type": "ADD_SNIPPET",
            "codeSnippet": "//frmIBOpenNewTermDepositAccConfirmation.btnRequest.skin = btnIBREQotpFocus;\n //frmIBOpenNewTermDepositAccConfirmation.btnRequest.onClick = IBreqOTPMYNewAccnts;\n frmIBOpenNewTermDepositAccConfirmation.lblOTPinCurr.text = \"\";\n frmIBOpenNewTermDepositAccConfirmation.lblPlsReEnter.text = \"\";\n if(gblisDisToActTD==\"N\")\n {\n frmIBOpenNewTermDepositAccConfirmation.hbox867569043311370.setVisibility(false);\n }else{\n frmIBOpenNewTermDepositAccConfirmation.hbox867569043311370.setVisibility(true);\n }\n frmIBOpenNewTermDepositAccConfirmation.txtOTP.text = \"\";\n \n \n frmIBOpenNewTermDepositAccConfirmation.hbox866854059250344.setVisibility(false);\n frmIBOpenNewTermDepositAccConfirmation.hbxcnfrm.setVisibility(true);\n "
        }]
    }
}