{
    "p2kwiet2012247646924_btnOTPReq_onClick_seq0": {
        "id": "p2kwiet2012247646924_btnOTPReq_onClick_seq0",
        "type": "ACTION_SEQUENCE",
        "params": [{
            "name": "eventobject",
            "value": "eventobject"
        }],
        "language": "js",
        "actions": [{
            "id": "customcode_onClick_9105201224765731",
            "type": "INVOKE_FUNCTION",
            "sequenceKUID": "IBPntRedimptionGenereteOTP",
            "display": "IBPntRedimptionGenereteOTP",
            "inputparams": [],
            "source": "module"
        }]
    }
}