{
    "p2kwiet2012247642497_lblmnthTodr_DESKTOPWEB_onEndEditing_seq0": {
        "id": "p2kwiet2012247642497_lblmnthTodr_DESKTOPWEB_onEndEditing_seq0",
        "type": "ACTION_SEQUENCE",
        "params": [{
            "name": "eventobject",
            "value": "eventobject"
        }, {
            "name": "changedtext",
            "value": "changedtext"
        }],
        "language": "js",
        "actions": [{
            "id": "expression_onEndEditing_50365201224763972",
            "type": "ADD_SNIPPET",
            "codeSnippet": "frmIBDreamSAvingEdit.lblmnthTodr.skin = \"txtIB20pxBlack\"\n \n gblSpecial=\"0\"\n frmIBDreamSAvingEdit.hbox866825109107063.skin=\"hbxProper\""
        }, {
            "id": "customcode_onEndEditing_15073201224762609",
            "type": "INVOKE_FUNCTION",
            "sequenceKUID": "calMonthlySavingCalculatorIB",
            "display": "calMonthlySavingCalculatorIB",
            "inputparams": [],
            "source": "module"
        }]
    }
}