{
    "p2kwiet2012247650913_btncancel_onClick_seq0": {
        "id": "p2kwiet2012247650913_btncancel_onClick_seq0",
        "type": "ACTION_SEQUENCE",
        "params": [{
            "name": "eventobject",
            "value": "eventobject"
        }],
        "language": "js",
        "actions": [{
            "id": "expression_onClick_83935201224766804",
            "type": "ADD_SNIPPET",
            "codeSnippet": "popupIBMyReceipentsFBLogin.dismiss();"
        }]
    }
}