{
    "p2kwiet2012247638105_button450184093424130_onClick_seq0": {
        "id": "p2kwiet2012247638105_button450184093424130_onClick_seq0",
        "type": "ACTION_SEQUENCE",
        "params": [{
            "name": "eventobject",
            "value": "eventobject"
        }],
        "language": "js",
        "actions": [{
            "id": "navigation_onClick_59138201224763837",
            "type": "NAVIGATE_TO_FORM",
            "formId": "frmIBMyProfile",
            "formKUID": "p2kwiet2012247644791",
            "mappings": {},
            "mappingsOrder": [],
            "parentId": "",
            "enableMappingEditor": true,
            "package": ""
        }]
    }
}