{
    "p2kwiet2012247650601_btnClose_onClick_seq0": {
        "id": "p2kwiet2012247650601_btnClose_onClick_seq0",
        "type": "ACTION_SEQUENCE",
        "params": [{
            "name": "eventobject",
            "value": "eventobject"
        }],
        "language": "js",
        "actions": [{
            "id": "customcode_onClick_8199201224764948",
            "type": "INVOKE_FUNCTION",
            "sequenceKUID": "handleOTPLockedIBNew",
            "display": "handleOTPLockedIBNew",
            "inputparams": [],
            "source": "module"
        }]
    }
}