{
    "p2kwiet2012247645956_frmIBOpenNewSavingsAcc_preshow_seq0": {
        "id": "p2kwiet2012247645956_frmIBOpenNewSavingsAcc_preshow_seq0",
        "type": "ACTION_SEQUENCE",
        "params": [{
            "name": "eventobject",
            "value": "eventobject"
        }, {
            "name": "neworientation",
            "value": "neworientation"
        }],
        "language": "js",
        "actions": [{
            "id": "expression_preshow_95789201224762649",
            "type": "ADD_SNIPPET",
            "codeSnippet": "\n frmIBOpenNewSavingsAcc.coverFlowTP.onSelect=IBonclickSavingsAccountCoverFlow;\n //frmIBOpenNewSavingsAcc.txtOpenActSelAmt.placeholder=gblMinOpenAmt;\n if(gblSelProduct==\"ForUse\")\n {\n frmIBOpenNewSavingsAcc.btnDreamSavecombo.isVisible=false;\n }\n \n //frmIBOpenNewSavingsAcc.lblOpengAccFrom.text = frmIBOpenNewSavingsAcc.lblOpengAccFrom.text + \":\"\n //IBonclickSavingsAccountCoverFlow\n "
        }]
    }
}