{
    "p2kwiet2012247643144_btnEStmtC2GRegisterAddr_onClick_seq0": {
        "id": "p2kwiet2012247643144_btnEStmtC2GRegisterAddr_onClick_seq0",
        "type": "ACTION_SEQUENCE",
        "params": [{
            "name": "eventobject",
            "value": "eventobject"
        }],
        "language": "js",
        "actions": [{
            "id": "customcode_onClick_35565201224769710",
            "type": "INVOKE_FUNCTION",
            "sequenceKUID": "onClickEStmtChooseAddressButtonIB",
            "display": "onClickEStmtChooseAddressButtonIB",
            "inputparams": [{
                "name": "widgetName",
                "value": "\"btnRegisterAddr\""
            }, {
                "name": "productName",
                "value": "\"EStmtC2G\""
            }],
            "source": "module"
        }]
    }
}