{
    "p2kwiet2012247645018_segmentReceipentListing_onRowClick_seq0": {
        "id": "p2kwiet2012247645018_segmentReceipentListing_onRowClick_seq0",
        "type": "ACTION_SEQUENCE",
        "params": [{
            "name": "eventobject",
            "value": "eventobject"
        }, {
            "name": "sectionNumber",
            "value": "sectionNumber"
        }, {
            "name": "rowNumber",
            "value": "rowNumber"
        }],
        "language": "js",
        "actions": [{
            "id": "expression_onRowClick_90709201224767882",
            "type": "ADD_SNIPPET",
            "codeSnippet": "//Store the selected Rc id\n gblselectedRcId = frmIBMyReceipentsAddContactFB.segmentReceipentListing.selectedItems[0][\"receipentID\"];\n if(checkActualRcSegItemIndex()){\n //Index done in method\n }else{\n globalSeletedRcIndex = frmIBMyReceipentsAddContactFB.segmentReceipentListing.selectedIndex[1];\n }\n showLoadingScreenPopup();"
        }, {
            "id": "navigation_onRowClick_28793201224768990",
            "type": "NAVIGATE_TO_FORM",
            "formId": "frmIBMyReceipentsAccounts",
            "formKUID": "p2kwiet2012247644864",
            "mappings": {},
            "mappingsOrder": [],
            "parentId": "",
            "enableMappingEditor": true,
            "package": ""
        }, {
            "id": "expression_onRowClick_62970201224762689",
            "type": "ADD_SNIPPET",
            "codeSnippet": "frmIBMyReceipentsAccounts.hboxMyReceipents.setVisibility(true);\n frmIBMyReceipentsAccounts.hboxReceipentAccount.setVisibility(false);\n //frmIBMyReceipentsAccounts.hboxTMBWelcome.setVisibility(false);\n \n //Code to set selected item name\n if(globalRcData[0][globalSeletedRcIndex].lblReceipentName == null){\n frmIBMyReceipentsAccounts.lblRcName.text = \"\";\n }else{\n frmIBMyReceipentsAccounts.lblRcName.text = globalRcData[0][globalSeletedRcIndex].lblReceipentName;\n }\n if(frmIBMyReceipentsAddContactFB.segmentReceipentListing.selectedItems[0][\"mobileNumber\"] == null || frmIBMyReceipentsAddContactFB.segmentReceipentListing.selectedItems[0][\"mobileNumber\"] == \"No Number\"){\n frmIBMyReceipentsAccounts.lblRcMobileNo.text = \"\";\n }else{\n frmIBMyReceipentsAccounts.lblRcMobileNo.text = frmIBMyReceipentsAddContactFB.segmentReceipentListing.selectedItems[0][\"mobileNumber\"];\n }\n if(frmIBMyReceipentsAddContactFB.segmentReceipentListing.selectedItems[0][\"emailId\"] == null || frmIBMyReceipentsAddContactFB.segmentReceipentListing.selectedItems[0][\"emailId\"] == \"No Mail\"){\n frmIBMyReceipentsAccounts.lblRcEmail.text = \"\";\n }else{\n frmIBMyReceipentsAccounts.lblRcEmail.text = frmIBMyReceipentsAddContactFB.segmentReceipentListing.selectedItems[0][\"emailId\"];\n }\n if(frmIBMyReceipentsAddContactFB.segmentReceipentListing.selectedItems[0][\"facebookId\"] == null){\n frmIBMyReceipentsAccounts.lblRcFbId.text = \"\";\n }else{\n frmIBMyReceipentsAccounts.lblRcFbId.text = frmIBMyReceipentsAddContactFB.segmentReceipentListing.selectedItems[0][\"facebookId\"];\n }\n if(frmIBMyReceipentsAddContactFB.segmentReceipentListing.selectedItems[0][\"imgReceipentPic\"] == null){\n frmIBMyReceipentsAccounts.imgReceipentProfile.src = \"nouserimg.jpg\";\n }else{\n frmIBMyReceipentsAccounts.imgReceipentProfile.src = frmIBMyReceipentsAddContactFB.segmentReceipentListing.selectedItems[0][\"imgReceipentPic\"];\n }"
        }]
    }
}