{
    "p2kwiet2012247646154_btnCancel_onClick_seq0": {
        "id": "p2kwiet2012247646154_btnCancel_onClick_seq0",
        "type": "ACTION_SEQUENCE",
        "params": [{
            "name": "eventobject",
            "value": "eventobject"
        }],
        "language": "js",
        "actions": [{
            "id": "expression_onClick_53690201224769047",
            "type": "ADD_SNIPPET",
            "codeSnippet": "//frmIBOpenProdDetnTnC.destroy()\n //frmIBOpenNewSavingsAcc.destroy();\n //frmIBOpenNewSavingsAccConfirmation.destroy();\n gblRetryCountRequestOTP = \"0\";"
        }, {
            "id": "customcode_onClick_80508201224765287",
            "type": "INVOKE_FUNCTION",
            "sequenceKUID": "onOpenActCancel",
            "display": "onOpenActCancel",
            "inputparams": [],
            "source": "module"
        }]
    }
}