{
    "p2kwiet2012247646206_txtAmount_DESKTOPWEB_onEndEditing_seq0": {
        "id": "p2kwiet2012247646206_txtAmount_DESKTOPWEB_onEndEditing_seq0",
        "type": "ACTION_SEQUENCE",
        "params": [{
            "name": "eventobject",
            "value": "eventobject"
        }, {
            "name": "changedtext",
            "value": "changedtext"
        }],
        "language": "js",
        "actions": [{
            "id": "expression_onEndEditing_94080201224764339",
            "type": "ADD_SNIPPET",
            "codeSnippet": "var AddOpenBaht = frmIBOpenNewSavingsCareAcc.txtAmount.text;\n frmIBOpenNewSavingsCareAcc.txtAmount.text = autoFormatAmount(AddOpenBaht)\n frmIBOpenNewSavingsCareAcc.hbox867539252327803.skin=\"hbxProper\";"
        }]
    }
}