{
    "p2kwiet2012247639415_button1014589649275_onClick_seq0": {
        "id": "p2kwiet2012247639415_button1014589649275_onClick_seq0",
        "type": "ACTION_SEQUENCE",
        "params": [{
            "name": "eventobject",
            "value": "eventobject"
        }],
        "language": "js",
        "actions": [{
            "id": "customcode_onClick_63550201224767243",
            "type": "INVOKE_FUNCTION",
            "sequenceKUID": "onClickGeneratePDFImageForBB",
            "display": "onClickGeneratePDFImageForBB",
            "inputparams": [],
            "source": "module"
        }]
    }
}