{
    "p2kwiet2012247641418_button476047582115265_onClick_seq0": {
        "id": "p2kwiet2012247641418_button476047582115265_onClick_seq0",
        "type": "ACTION_SEQUENCE",
        "params": [{
            "name": "eventobject",
            "value": "eventobject"
        }],
        "language": "js",
        "actions": [{
            "id": "navigation_onClick_96369201224763181",
            "type": "NAVIGATE_TO_FORM",
            "formId": "frmIBCMMyProfile",
            "formKUID": "p2kwiet2012247641731",
            "mappings": {},
            "mappingsOrder": [],
            "parentId": "",
            "enableMappingEditor": true,
            "package": ""
        }]
    }
}