{
    "p2kwiet2012247650812_popupFirstTimeActivation_init_seq0": {
        "id": "p2kwiet2012247650812_popupFirstTimeActivation_init_seq0",
        "type": "ACTION_SEQUENCE",
        "params": [{
            "name": "eventobject",
            "value": "eventobject"
        }, {
            "name": "neworientation",
            "value": "neworientation"
        }],
        "language": "js",
        "actions": [{
            "id": "expression_init_1391201224764399",
            "type": "ADD_SNIPPET",
            "codeSnippet": "popupIBLogout.enabledForIdleTimeout = true"
        }]
    }
}