{
    "p2kwiet2012247645667_vbxOpenActUse_onClick_seq0": {
        "id": "p2kwiet2012247645667_vbxOpenActUse_onClick_seq0",
        "type": "ACTION_SEQUENCE",
        "params": [{
            "name": "eventobject",
            "value": "eventobject"
        }],
        "language": "js",
        "actions": [{
            "id": "customcode_onClick_40118201224765473",
            "type": "INVOKE_FUNCTION",
            "sequenceKUID": "IBsetDataForUse",
            "display": "IBsetDataForUse",
            "inputparams": [],
            "source": "module"
        }]
    }
}