{
    "p2kwiet2012247639670_btnSugBillerAdd_onClick_seq0": {
        "id": "p2kwiet2012247639670_btnSugBillerAdd_onClick_seq0",
        "type": "ACTION_SEQUENCE",
        "params": [{
            "name": "eventobject",
            "value": "eventobject"
        }, {
            "name": "context",
            "value": "context"
        }],
        "language": "js",
        "actions": [{
            "id": "customcode_onClick_30816201224766116",
            "type": "INVOKE_FUNCTION",
            "sequenceKUID": "onSelectSugBillToAddBBForIB",
            "display": "onSelectSugBillToAddBBForIB",
            "inputparams": [],
            "source": "module"
        }, {
            "id": "customcode_onClick_8845201224763914",
            "type": "INVOKE_FUNCTION",
            "sequenceKUID": "showAccountListBB",
            "display": "showAccountListBB",
            "inputparams": [],
            "source": "module"
        }]
    }
}