{
    "p2kwiet2012247650732_button5028545853968_onClick_seq0": {
        "id": "p2kwiet2012247650732_button5028545853968_onClick_seq0",
        "type": "ACTION_SEQUENCE",
        "params": [{
            "name": "eventobject",
            "value": "eventobject"
        }],
        "language": "js",
        "actions": [{
            "id": "expression_onClick_6687201224763808",
            "type": "ADD_SNIPPET",
            "codeSnippet": "frmBillPayment.hbox5028545853970.setVisibility(true);\n frmBillPayment.hbox5028545853967.setVisibility(false);\n frmBillPayment.label5028545854020.setVisibility(true);\n frmBillPayment.label5028545854019.setVisibility(true);"
        }]
    }
}