{
    "p2kwiet2012247650977_button474139778233674_onClick_seq0": {
        "id": "p2kwiet2012247650977_button474139778233674_onClick_seq0",
        "type": "ACTION_SEQUENCE",
        "params": [{
            "name": "eventobject",
            "value": "eventobject"
        }],
        "language": "js",
        "actions": [{
            "id": "expression_onClick_16564201224763082",
            "type": "ADD_SNIPPET",
            "codeSnippet": "popupRcDisplayPicOptions.dismiss();\n popupIBUploadPicture.show();"
        }]
    }
}