{
    "p2kwiet2012247645018_linkMore_onClick_seq0": {
        "id": "p2kwiet2012247645018_linkMore_onClick_seq0",
        "type": "ACTION_SEQUENCE",
        "params": [{
            "name": "eventobject",
            "value": "eventobject"
        }],
        "language": "js",
        "actions": [{
            "id": "expression_onClick_17236201224763897",
            "type": "ADD_SNIPPET",
            "codeSnippet": "var tempOffset = parseInt(gblOffsetMB) + 100;\n var tempLimit = parseInt(gblLimitMB) + 100;\n gblOffsetMB = tempOffset.toString();\n gblLimitMB = tempLimit.toString();\n gblSearch = \"0\";\n gblStart = \"1\";\n gblMORE = true;"
        }, {
            "id": "customcode_onClick_4077620122476729",
            "type": "INVOKE_FUNCTION",
            "sequenceKUID": "listFacebookFriends",
            "display": "listFacebookFriends",
            "inputparams": [],
            "source": "module"
        }]
    }
}