{
    "p2kwiet2012247645432_btnConfirmBillerDelete_onClick_seq0": {
        "id": "p2kwiet2012247645432_btnConfirmBillerDelete_onClick_seq0",
        "type": "ACTION_SEQUENCE",
        "params": [{
            "name": "eventobject",
            "value": "eventobject"
        }, {
            "name": "context",
            "value": "context"
        }],
        "language": "js",
        "actions": [{
            "id": "customcode_onClick_55798201224769473",
            "type": "INVOKE_FUNCTION",
            "sequenceKUID": "deleteConfirmSegDataBillerTopupIB",
            "display": "deleteConfirmSegDataBillerTopupIB",
            "inputparams": [],
            "source": "module"
        }]
    }
}