{
    "p2kwiet2012247641860_link506459299513289_onClick_seq0": {
        "id": "p2kwiet2012247641860_link506459299513289_onClick_seq0",
        "type": "ACTION_SEQUENCE",
        "params": [{
            "name": "eventobject",
            "value": "eventobject"
        }],
        "language": "js",
        "actions": [{
            "id": "customcode_onClick_16780201224762943",
            "type": "INVOKE_FUNCTION",
            "sequenceKUID": "contactFAQUrlIB",
            "display": "contactFAQUrlIB",
            "inputparams": [],
            "source": "module"
        }]
    }
}