{
    "p2kwiet2012247648010_button1014589649274_onClick_seq0": {
        "id": "p2kwiet2012247648010_button1014589649274_onClick_seq0",
        "type": "ACTION_SEQUENCE",
        "params": [{
            "name": "eventobject",
            "value": "eventobject"
        }],
        "language": "js",
        "actions": [{
            "id": "customcode_onClick_76944201224769285",
            "type": "INVOKE_FUNCTION",
            "sequenceKUID": "savePDFExecSTSIB",
            "display": "savePDFExecSTSIB",
            "inputparams": [{
                "name": "filetype",
                "value": "\"pdf\""
            }],
            "source": "module"
        }]
    }
}