{
    "p2kwiet2012247639288_segBillersList_onRowClick_seq0": {
        "id": "p2kwiet2012247639288_segBillersList_onRowClick_seq0",
        "type": "ACTION_SEQUENCE",
        "params": [{
            "name": "eventobject",
            "value": "eventobject"
        }, {
            "name": "sectionNumber",
            "value": "sectionNumber"
        }, {
            "name": "rowNumber",
            "value": "rowNumber"
        }],
        "language": "js",
        "actions": [{
            "id": "customcode_onRowClick_62520201224769629",
            "type": "INVOKE_FUNCTION",
            "sequenceKUID": "onSelectSegBillListIBBB",
            "display": "onSelectSegBillListIBBB",
            "inputparams": [],
            "source": "module"
        }, {
            "id": "customcode_onRowClick_2517820122476675",
            "type": "INVOKE_FUNCTION",
            "sequenceKUID": "showAccountListBB",
            "display": "showAccountListBB",
            "inputparams": [],
            "source": "module"
        }]
    }
}