{
    "p2kwiet2012247647851_switch2OTP_onClick_seq0": {
        "id": "p2kwiet2012247647851_switch2OTP_onClick_seq0",
        "type": "ACTION_SEQUENCE",
        "params": [{
            "name": "eventobject",
            "value": "eventobject"
        }],
        "language": "js",
        "actions": [{
            "id": "expression_onClick_78061201224765605",
            "type": "ADD_SNIPPET",
            "codeSnippet": "frmIBSSSExcuteTrnsfr.hbxTokenEntry.setVisibility(false);\n frmIBSSSExcuteTrnsfr.hbxSSSTrnsfrOTP.setVisibility(true);\n startReqOTPApplyServicesS2SIB();\n gblTokenSwitchFlag = false;\n gblSwitchToken = true;\n frmIBSSSExcuteTrnsfr.txtBxOTP.setFocus(true);\n \n \n "
        }]
    }
}