{
    "p2kwiet2012247642265_combotrans_onSelection_seq0": {
        "id": "p2kwiet2012247642265_combotrans_onSelection_seq0",
        "type": "ACTION_SEQUENCE",
        "params": [{
            "name": "eventobject",
            "value": "eventobject"
        }],
        "language": "js",
        "actions": [{
            "id": "customcode_onSelection_3220820122476741",
            "type": "INVOKE_FUNCTION",
            "sequenceKUID": "getTransactionType",
            "display": "getTransactionType",
            "inputparams": [],
            "source": "module"
        }]
    }
}