{
    "p2kwiet2012247645740_txtODMyDreamSave_DESKTOPWEB_onEndEditing_seq0": {
        "id": "p2kwiet2012247645740_txtODMyDreamSave_DESKTOPWEB_onEndEditing_seq0",
        "type": "ACTION_SEQUENCE",
        "params": [{
            "name": "eventobject",
            "value": "eventobject"
        }, {
            "name": "changedtext",
            "value": "changedtext"
        }],
        "language": "js",
        "actions": [{
            "id": "expression_onEndEditing_19998201224768978",
            "type": "ADD_SNIPPET",
            "codeSnippet": "gblSpecial=\"0\"\n frmIBOpenNewDreamAcc.txtODMyDreamSave.skin=\"txtBoxTransParentGrey\"\n "
        }, {
            "id": "customcode_onEndEditing_75536201224766743",
            "type": "INVOKE_FUNCTION",
            "sequenceKUID": "CalOnMnth",
            "display": "CalOnMnth",
            "inputparams": [],
            "source": "module"
        }]
    }
}