{
    "p2kwiet2012247644952_tbxAddAccntNumber_DESKTOPWEB_onBeginEditing_seq0": {
        "id": "p2kwiet2012247644952_tbxAddAccntNumber_DESKTOPWEB_onBeginEditing_seq0",
        "type": "ACTION_SEQUENCE",
        "params": [{
            "name": "eventobject",
            "value": "eventobject"
        }, {
            "name": "changedtext",
            "value": "changedtext"
        }],
        "language": "js",
        "actions": [{
            "id": "expression_onBeginEditing_36692201224765370",
            "type": "ADD_SNIPPET",
            "codeSnippet": "frmIBMyReceipentsAddBankAccnt.tbxAddAccntNumber.text = decodeAccountNumbers(frmIBMyReceipentsAddBankAccnt.tbxAddAccntNumber.text)\n frmIBMyReceipentsAddBankAccnt.hboxAddAccntNumber.skin=\"hbxlightblue\";"
        }]
    }
}