{
    "p2kwiet2012247647650_frmIBSSApplyCmplete_postshow_seq0": {
        "id": "p2kwiet2012247647650_frmIBSSApplyCmplete_postshow_seq0",
        "type": "ACTION_SEQUENCE",
        "params": [{
            "name": "eventobject",
            "value": "eventobject"
        }, {
            "name": "neworientation",
            "value": "neworientation"
        }],
        "language": "js",
        "actions": [{
            "id": "customcode_postshow_98009201224765918",
            "type": "INVOKE_FUNCTION",
            "sequenceKUID": "addIBMenu",
            "display": "addIBMenu",
            "inputparams": [],
            "source": "module"
        }, {
            "id": "customcode_postshow_11440201224763429",
            "type": "INVOKE_FUNCTION",
            "sequenceKUID": "segConvenientServicesLoad",
            "display": "segConvenientServicesLoad",
            "inputparams": [],
            "source": "module"
        }, {
            "id": "customcode_postshow_74879201224763284",
            "type": "INVOKE_FUNCTION",
            "sequenceKUID": "pagespecificSubMenu",
            "display": "pagespecificSubMenu",
            "inputparams": [],
            "source": "module"
        }, {
            "id": "customcode_postshow_12944201224765241",
            "type": "INVOKE_FUNCTION",
            "sequenceKUID": "campaginService",
            "display": "campaginService",
            "inputparams": [{
                "name": "widgetName",
                "value": "\"imgSSAdv\""
            }, {
                "name": "formName",
                "value": "\"frmIBSSApplyCmplete\""
            }, {
                "name": "appChannel",
                "value": "\"I\""
            }],
            "source": "module"
        }]
    }
}