{
    "p2kwiet2012247645129_btnOTPReq_onClick_seq0": {
        "id": "p2kwiet2012247645129_btnOTPReq_onClick_seq0",
        "type": "ACTION_SEQUENCE",
        "params": [{
            "name": "eventobject",
            "value": "eventobject"
        }],
        "language": "js",
        "actions": [{
            "id": "expression_onClick_29483201224769581",
            "type": "ADD_SNIPPET",
            "codeSnippet": "if(gblTokenSwitchFlag == true && gblSwitchToken == false){\n frmIBMyReceipentsAddContactManually.label476047582115288.text = kony.i18n.getLocalizedString(\"keyotpmsgreq\");\n frmIBMyReceipentsAddContactManually.label476047582115284.text = \"OTP:\";\n frmIBMyReceipentsAddContactManually.btnOTPReq.text = kony.i18n.getLocalizedString(\"keyRequest\");\n frmIBMyReceipentsAddContactManually.textbox247428873338513.text=\"\";\n gblTokenSwitchFlag == false \n gblSwitchToken == true\n startBackGroundOTPRequestService();\n }else{\n startOTPRequestService()\n }\n \n \n \n "
        }]
    }
}