{
    "p2kwiet2012247645428_btnOTPReq_onClick_seq0": {
        "id": "p2kwiet2012247645428_btnOTPReq_onClick_seq0",
        "type": "ACTION_SEQUENCE",
        "params": [{
            "name": "eventobject",
            "value": "eventobject"
        }],
        "language": "js",
        "actions": [{
            "id": "expression_onClick_27217201224763639",
            "type": "ADD_SNIPPET",
            "codeSnippet": " \n startBillTopUpOTPRequestService();\n \n \n \n \n "
        }]
    }
}