{
    "p2kwiet2012247638599_txtOTP_DESKTOPWEB_onBeginEditing_seq0": {
        "id": "p2kwiet2012247638599_txtOTP_DESKTOPWEB_onBeginEditing_seq0",
        "type": "ACTION_SEQUENCE",
        "params": [{
            "name": "eventobject",
            "value": "eventobject"
        }, {
            "name": "changedtext",
            "value": "changedtext"
        }],
        "language": "js",
        "actions": [{
            "id": "expression_onBeginEditing_61773201224763240",
            "type": "ADD_SNIPPET",
            "codeSnippet": "frmIBActivateIBankingStep2Confirm.hboxOTPtext.skin=\"hbxOtpTextField\""
        }]
    }
}