{
    "p2kwiet2012247647397_hbxActivateImage_onClick_seq0": {
        "id": "p2kwiet2012247647397_hbxActivateImage_onClick_seq0",
        "type": "ACTION_SEQUENCE",
        "params": [{
            "name": "eventobject",
            "value": "eventobject"
        }],
        "language": "js",
        "actions": [{
            "id": "expression_onClick_61486201224763508",
            "type": "ADD_SNIPPET",
            "codeSnippet": "gblSetPwd = false;\n "
        }, {
            "id": "decision_onClick_60726201224767133",
            "type": "IF_CONDITION",
            "conditions": [{
                "leftValueType": "expression",
                "leftValue": "firstTimeActivationPopUp"
            }],
            "criteria": "all"
        }, {
            "id": "decision_onClick_94675201224761215",
            "type": "ELSE_CONDITION",
            "conditions": [],
            "criteria": "all"
        }, {
            "id": "navigation_onClick_14802201224761897",
            "type": "DISPLAY_POPUP",
            "popupId": "popupFirstTimeActivation",
            "popupKUID": "p2kwiet2012247650812",
            "mappings": {},
            "mappingsOrder": [],
            "parentId": "decision_onClick_60726201224767133",
            "enableMappingEditor": true
        }, {
            "id": "navigation_onClick_73108201224761773",
            "type": "NAVIGATE_TO_FORM",
            "formId": "frmIBFirstTimeUserSelection",
            "formKUID": "p2kwiet2012247643459",
            "mappings": {},
            "mappingsOrder": [],
            "parentId": "decision_onClick_94675201224761215",
            "enableMappingEditor": true,
            "package": ""
        }]
    }
}