{
    "p2kwiet2012247641098_button47428873330715_onClick_seq0": {
        "id": "p2kwiet2012247641098_button47428873330715_onClick_seq0",
        "type": "ACTION_SEQUENCE",
        "params": [{
            "name": "eventobject",
            "value": "eventobject"
        }],
        "language": "js",
        "actions": [{
            "id": "expression_onClick_8997920122476946",
            "type": "ADD_SNIPPET",
            "codeSnippet": "if (gblCMUserIDRule == 0){\n frmIBCMChngUserID.hbxPopUP.setVisibility(true);\n frmIBCMChngUserID.hbxCancelSave.setVisibility(true);\n gblCMUserIDRule = gblCMUserIDRule+1\n }else if(gblCMUserIDRule == 1){\n frmIBCMChngUserID.hbxPopUP.setVisibility(false);\n frmIBCMChngUserID.hbxCancelSave.setVisibility(true);\n gblCMUserIDRule = 0\n }"
        }]
    }
}