{
    "p2kwiet2012247640786_button474288733664_onClick_seq0": {
        "id": "p2kwiet2012247640786_button474288733664_onClick_seq0",
        "type": "ACTION_SEQUENCE",
        "params": [{
            "name": "eventobject",
            "value": "eventobject"
        }],
        "language": "js",
        "actions": [{
            "id": "expression_onClick_29232201224767610",
            "type": "ADD_SNIPPET",
            "codeSnippet": "editbuttonflag = \"limit\"\n flagMobNum=\"new\";\n gblMobNoTransLimitFlag=false;\n frmIBCMChgMobNoTxnLimit.hbxRequest.setVisibility(false);\n frmIBCMChgMobNoTxnLimit.lblHead.setVisibility(true);\n frmIBCMChgMobNoTxnLimit.hbxChangeTransactionLimit.setVisibility(true); \n frmIBCMChgMobNoTxnLimit.hbox47505957819121.setVisibility(true);\n frmIBCMChgMobNoTxnLimit.arrowlimit.setVisibility(true);\n frmIBCMChgMobNoTxnLimit.arrowrequest.setVisibility(false);"
        }, {
            "id": "customcode_onClick_61064201224765257",
            "type": "INVOKE_FUNCTION",
            "sequenceKUID": "getIBEditProfileStatus",
            "display": "getIBEditProfileStatus",
            "inputparams": [],
            "source": "module"
        }]
    }
}