{
    "p2kwiet2012247644730_txtAddBillerRef2_DESKTOPWEB_onEndEditing_seq0": {
        "id": "p2kwiet2012247644730_txtAddBillerRef2_DESKTOPWEB_onEndEditing_seq0",
        "type": "ACTION_SEQUENCE",
        "params": [{
            "name": "eventobject",
            "value": "eventobject"
        }, {
            "name": "changedtext",
            "value": "changedtext"
        }],
        "language": "js",
        "actions": [{
            "id": "expression_onEndEditing_56401201224761984",
            "type": "ADD_SNIPPET",
            "codeSnippet": "frmIBMyBillersHome.hbxBillerRef2.skin = \"hbxIBbottomborder\";"
        }]
    }
}