{
    "p2kwiet2012247645129_frmIBMyReceipentsAddContactManually_preshow_seq0": {
        "id": "p2kwiet2012247645129_frmIBMyReceipentsAddContactManually_preshow_seq0",
        "type": "ACTION_SEQUENCE",
        "params": [{
            "name": "eventobject",
            "value": "eventobject"
        }, {
            "name": "neworientation",
            "value": "neworientation"
        }],
        "language": "js",
        "actions": [{
            "id": "expression_preshow_8292820122476529",
            "type": "ADD_SNIPPET",
            "codeSnippet": "frmIBMyReceipentsAddContactManually.lblOTPinCurr.text=\"\";\n frmIBMyReceipentsAddContactManually.lblPlsReEnter.text=\"\";"
        }, {
            "id": "expression_preshow_3292120122476752",
            "type": "ADD_SNIPPET",
            "codeSnippet": "validateSecurityForTransactionServiceRc();\n frmIBMyReceipentsAddContactManually.hboxMyRecipient.setVisibility(true);\n frmIBMyReceipentsAddContactManually.hboxMyRecipientDetail.setVisibility(false);\n \n if(gblAdd_Receipent_State == gblEXISTING_RC_EDITION){\n frmIBMyReceipentsAddContactManually.link50273743118078.setVisibility(false);\n frmIBMyReceipentsAddContactManually.link50273743118087.setVisibility(false);\n frmIBMyReceipentsAddContactManually.label10107168132952.setVisibility(false);\n frmIBMyReceipentsAddContactManually.segmentRcAccounts.setVisibility(false);\n frmIBMyReceipentsAddContactManually.lblPlusSign.setVisibility(false);\n frmIBMyReceipentsAddContactManually.lblPlus.setVisibility(false);\n \n frmIBMyReceipentsAddContactManually.hbxOtpBox.setVisibility(false);\n frmIBMyReceipentsAddContactManually.textbox247428873338513.text=\"\";\n frmIBMyReceipentsAddContactManually.lblref.setVisibility(false);\n frmIBMyReceipentsAddContactManually.lblrefvalue.setVisibility(false);\n frmIBMyReceipentsAddContactManually.lblotpsent.setVisibility(false);\n frmIBMyReceipentsAddContactManually.lblotpmob.setVisibility(false);\n frmIBMyReceipentsAddContactManually.hbox45737278075167.setVisibility(false);\n frmIBMyReceipentsAddContactManually.button1010716813157.setVisibility(true);\n \n }else{\n frmIBMyReceipentsAddContactManually.link50273743118078.setVisibility(true);\n frmIBMyReceipentsAddContactManually.link50273743118087.setVisibility(true);\n frmIBMyReceipentsAddContactManually.hbxOtpBox.setVisibility(false);\n frmIBMyReceipentsAddContactManually.label10107168132952.setVisibility(true);\n frmIBMyReceipentsAddContactManually.segmentRcAccounts.setVisibility(true);\n frmIBMyReceipentsAddContactManually.lblPlusSign.setVisibility(true);\n frmIBMyReceipentsAddContactManually.lblPlus.setVisibility(true);\n frmIBMyReceipentsAddContactManually.lblBankRef.setVisibility(false);\n frmIBMyReceipentsAddContactManually.label476047582127701.setVisibility(false);\n frmIBMyReceipentsAddContactManually.label476047582115277.setVisibility(false);\n frmIBMyReceipentsAddContactManually.label476047582115279.setVisibility(false);\n frmIBMyReceipentsAddContactManually.hbox45737278075167.setVisibility(false);\n frmIBMyReceipentsAddContactManually.button1010716813157.setVisibility(true);\n }\n \n \n \n "
        }]
    }
}