{
    "p2kwiet2012247640409_btnOnlineMin_onClick_seq0": {
        "id": "p2kwiet2012247640409_btnOnlineMin_onClick_seq0",
        "type": "ACTION_SEQUENCE",
        "params": [{
            "name": "eventobject",
            "value": "eventobject"
        }],
        "language": "js",
        "actions": [{
            "id": "expression_onClick_62316201224762126",
            "type": "ADD_SNIPPET",
            "codeSnippet": "frmIBBillPaymentView.btnOnlineSpecified.skin = btnIBgreyInactive;\n frmIBBillPaymentView.btnOnlineFull.skin = btnIBgreyInactive;\n frmIBBillPaymentView.btnOnlineMin.skin = btnIBgreyActive;\n frmIBBillPaymentView.textboxOnlineAmtvalue.setEnabled(false);\n frmIBBillPaymentView.textboxOnlineAmtvalue.text = minAmount;"
        }]
    }
}