{
    "p2kwiet2012247643978_lblOrdToBProcess_onClick_seq0": {
        "id": "p2kwiet2012247643978_lblOrdToBProcess_onClick_seq0",
        "type": "ACTION_SEQUENCE",
        "params": [{
            "name": "eventobject",
            "value": "eventobject"
        }],
        "language": "js",
        "actions": [{
            "id": "customcode_onClick_9818820122476223",
            "type": "INVOKE_FUNCTION",
            "sequenceKUID": "initialDateSlider",
            "display": "initialDateSlider",
            "inputparams": [],
            "source": "module"
        }, {
            "id": "customcode_onClick_99691201224768758",
            "type": "INVOKE_FUNCTION",
            "sequenceKUID": "viewMFFullStatementIB",
            "display": "viewMFFullStatementIB",
            "inputparams": [{
                "name": "viewType",
                "value": "viewType=\"O\""
            }],
            "source": "module"
        }]
    }
}