{
    "p2kwiet2012247641322_cmbSort_onSelection_seq0": {
        "id": "p2kwiet2012247641322_cmbSort_onSelection_seq0",
        "type": "ACTION_SEQUENCE",
        "params": [{
            "name": "eventobject",
            "value": "eventobject"
        }],
        "language": "js",
        "actions": [{
            "id": "customcode_onSelection_8193201224762245",
            "type": "INVOKE_FUNCTION",
            "sequenceKUID": "viewRequestHistory",
            "display": "viewRequestHistory",
            "inputparams": [{
                "name": "type",
                "value": "frmIBCMConfirmationPwd.cmbSort.selectedKey"
            }],
            "source": "module"
        }]
    }
}