{
    "p2kwiet2012247645274_frmIBMyReceipentsHome_preshow_seq0": {
        "id": "p2kwiet2012247645274_frmIBMyReceipentsHome_preshow_seq0",
        "type": "ACTION_SEQUENCE",
        "params": [{
            "name": "eventobject",
            "value": "eventobject"
        }, {
            "name": "neworientation",
            "value": "neworientation"
        }],
        "language": "js",
        "actions": [{
            "id": "expression_preshow_43775201224767939",
            "type": "ADD_SNIPPET",
            "codeSnippet": "frmIBMyReceipentsHome.tbxSearch.text=\"\";"
        }]
    }
}