{
    "p2kwiet2012247644098_txtCCNum1_DESKTOPWEB_onKeyUp_seq0": {
        "id": "p2kwiet2012247644098_txtCCNum1_DESKTOPWEB_onKeyUp_seq0",
        "type": "ACTION_SEQUENCE",
        "params": [{
            "name": "eventobject",
            "value": "eventobject"
        }, {
            "name": "changedtext",
            "value": "changedtext"
        }],
        "language": "js",
        "actions": [{
            "id": "customcode_onKeyUp_36723201224769525",
            "type": "INVOKE_FUNCTION",
            "sequenceKUID": "foucTabCC1",
            "display": "foucTabCC1",
            "inputparams": [],
            "source": "module"
        }]
    }
}