{
    "p2kwiet2012247638618_button502735421210983_onClick_seq0": {
        "id": "p2kwiet2012247638618_button502735421210983_onClick_seq0",
        "type": "ACTION_SEQUENCE",
        "params": [{
            "name": "eventobject",
            "value": "eventobject"
        }],
        "language": "js",
        "actions": [{
            "id": "decision_onClick_28306201224767974",
            "type": "IF_CONDITION",
            "conditions": [{
                "leftValueType": "expression",
                "leftValue": "gblSetPwd == true"
            }],
            "criteria": "all"
        }, {
            "id": "decision_onClick_219220122476425",
            "type": "ELSE_CONDITION",
            "conditions": [],
            "criteria": "all"
        }, {
            "id": "navigation_onClick_97852201224765598",
            "type": "NAVIGATE_TO_FORM",
            "formId": "frmIBPreLogin",
            "formKUID": "p2kwiet2012247647397",
            "mappings": {},
            "mappingsOrder": [],
            "parentId": "decision_onClick_28306201224767974",
            "enableMappingEditor": true,
            "package": ""
        }, {
            "id": "navigation_onClick_16218201224769507",
            "type": "NAVIGATE_TO_FORM",
            "formId": "frmIBFirstTimeUserSelection",
            "formKUID": "p2kwiet2012247643459",
            "mappings": {},
            "mappingsOrder": [],
            "parentId": "decision_onClick_219220122476425",
            "enableMappingEditor": true,
            "package": ""
        }]
    }
}