{
    "p2kwiet2012247640786_button449081826392311_onClick_seq0": {
        "id": "p2kwiet2012247640786_button449081826392311_onClick_seq0",
        "type": "ACTION_SEQUENCE",
        "params": [{
            "name": "eventobject",
            "value": "eventobject"
        }],
        "language": "js",
        "actions": [{
            "id": "expression_onClick_70179201224769330",
            "type": "ADD_SNIPPET",
            "codeSnippet": "editbuttonflag=\"userid\";\n gblCMUserIDRule = 1;\n frmIBCMChngUserID.txtCurUserID.text = \"\"\n frmIBCMChngUserID.txtNewUserID.text = \"\"\n frmIBCMChngUserID.txtCurUserID.setFocus(true);\n frmIBCMChngUserID.hbxRequest.setVisibility(false);\n frmIBCMChngUserID.lblChngUID.setVisibility(true);\n frmIBCMChngUserID.hbox47428873349614.setVisibility(true);\n frmIBCMChngUserID.hbxCancelSave.setVisibility(true);\n frmIBCMChngUserID.arrowUserId.setVisibility(true);\n frmIBCMChngUserID.arrowrequest.setVisibility(false);\n "
        }, {
            "id": "customcode_onClick_2463020122476120",
            "type": "INVOKE_FUNCTION",
            "sequenceKUID": "getIBEditProfileStatus",
            "display": "getIBEditProfileStatus",
            "inputparams": [],
            "source": "module"
        }]
    }
}