{
    "p2kwiet2012247638227_btnbill_onClick_seq0": {
        "id": "p2kwiet2012247638227_btnbill_onClick_seq0",
        "type": "ACTION_SEQUENCE",
        "params": [{
            "name": "eventobject",
            "value": "eventobject"
        }],
        "language": "js",
        "actions": [{
            "id": "customcode_onClick_52167201224768336",
            "type": "INVOKE_FUNCTION",
            "sequenceKUID": "onBilledbtnClick",
            "display": "onBilledbtnClick",
            "inputparams": [],
            "source": "module"
        }]
    }
}