{
    "p2kwiet2012247647851_frmIBSSSExcuteTrnsfr_preshow_seq0": {
        "id": "p2kwiet2012247647851_frmIBSSSExcuteTrnsfr_preshow_seq0",
        "type": "ACTION_SEQUENCE",
        "params": [{
            "name": "eventobject",
            "value": "eventobject"
        }, {
            "name": "neworientation",
            "value": "neworientation"
        }],
        "language": "js",
        "actions": [{
            "id": "expression_preshow_89846201224761688",
            "type": "ADD_SNIPPET",
            "codeSnippet": "\n kony.print(\"tokenValueForS2S... \" + tokenValueForS2S);\n \n if(tokenValueForS2S != null) {\n kony.print(\"tokenValueForS2S not null...\");\n if (tokenValueForS2S == \"N\") {\n kony.print(\"tokenValueForS2S value N..\");\n gblOTPFlag = true;\n tokenFlagForS2S = false;\n kony.print(\"gblSSServieHours:\" + gblSSServieHours);\n kony.print(\"tokenFlagForS2S:\" + tokenFlagForS2S + \"gblOTPFlag:\" + gblOTPFlag);//txtBxOTP\n \n frmIBSSSExcuteTrnsfr.hboxBankRef.setVisibility(true);\n frmIBSSSExcuteTrnsfr.hbxOTPsnt.setVisibility(true);\n //frmIBSSSExcuteTrnsfr.lblkeyOTPMsg.text = kony.i18n.getLocalizedString(\"keyotpmsgreq\");\n //frmIBSSSExcuteTrnsfr.lblOTPKey.text = kony.i18n.getLocalizedString(\"keyOTP\");\n //frmIBSSSExcuteTrnsfr.btnOTPReq.text = kony.i18n.getLocalizedString(\"keyRequest\");\n dismissLoadingScreenPopup();\n } else {\n kony.print(\"else tokenValueForS2S value Y..\");\n gblOTPFlag = false;\n tokenFlagForS2S = true;\n kony.print(\"gblSSServieHours:\" + gblSSServieHours);\n \n kony.print(\"tokenFlagForS2S:\" + tokenFlagForS2S + \"gblOTPFlag:\" + gblOTPFlag);\n frmIBSSSExcuteTrnsfr.hboxBankRef.setVisibility(false);\n frmIBSSSExcuteTrnsfr.hbxOTPsnt.setVisibility(false);\n //frmIBSSSExcuteTrnsfr.lblkeyOTPMsg.text = kony.i18n.getLocalizedString(\"S2S_tokenId\");\n //frmIBSSSExcuteTrnsfr.lblOTPKey.text = kony.i18n.getLocalizedString(\"S2S_Token\");\n //frmIBSSSExcuteTrnsfr.btnOTPReq.text = kony.i18n.getLocalizedString(\"S2S_SwitchtoOTP\");\n \n dismissLoadingScreenPopup();\n }\n } else {\n kony.print(\"else tokenValueForS2S Null..\");\n gblOTPFlag = true;\n tokenFlagForS2S = false;\n kony.print(\"tokenFlagForS2S:\" + tokenFlagForS2S + \"gblOTPFlag:\" + gblOTPFlag);\n kony.print(\"gblSSServieHours:\" + gblSSServieHours);\n \n frmIBSSSExcuteTrnsfr.hboxBankRef.setVisibility(true);\n frmIBSSSExcuteTrnsfr.hbxOTPsnt.setVisibility(true);\n //frmIBSSSExcuteTrnsfr.lblkeyOTPMsg.text = kony.i18n.getLocalizedString(\"keyotpmsgreq\");\n //frmIBSSSExcuteTrnsfr.lblOTPKey.text = kony.i18n.getLocalizedString(\"keyOTP\");\n //frmIBSSSExcuteTrnsfr.btnOTPReq.text = kony.i18n.getLocalizedString(\"keyRequest\");\n dismissLoadingScreenPopup();\n }"
        }]
    }
}