{
    "p2kwiet2012247645597_btnPostalCode_onSelection_seq0": {
        "id": "p2kwiet2012247645597_btnPostalCode_onSelection_seq0",
        "type": "ACTION_SEQUENCE",
        "params": [{
            "name": "eventobject",
            "value": "eventobject"
        }],
        "language": "js",
        "actions": [{
            "id": "expression_onSelection_27988201224763657",
            "type": "ADD_SNIPPET",
            "codeSnippet": "gblAddressFlag=4;\n gblMyProfileAddressFlag = \"zipcode\";\n "
        }, {
            "id": "customcode_onSelection_82503201224768343",
            "type": "INVOKE_FUNCTION",
            "sequenceKUID": "IBonRowSelectOpenAccountAddr",
            "display": "IBonRowSelectOpenAccountAddr",
            "inputparams": [],
            "source": "module"
        }]
    }
}