{
    "p2kwiet2012247646528_button866854059436878_onClick_seq0": {
        "id": "p2kwiet2012247646528_button866854059436878_onClick_seq0",
        "type": "ACTION_SEQUENCE",
        "params": [{
            "name": "eventobject",
            "value": "eventobject"
        }],
        "language": "js",
        "actions": [{
            "id": "customcode_onClick_35898201224767580",
            "type": "INVOKE_FUNCTION",
            "sequenceKUID": "IBsaveAsPdfImageOpenActAll",
            "display": "IBsaveAsPdfImageOpenActAll",
            "inputparams": [{
                "name": "filetype",
                "value": "\"pdf\""
            }],
            "source": "module"
        }]
    }
}