{
    "p2kwiet2012247638905_button478902715243193_onClick_seq0": {
        "id": "p2kwiet2012247638905_button478902715243193_onClick_seq0",
        "type": "ACTION_SEQUENCE",
        "params": [{
            "name": "eventobject",
            "value": "eventobject"
        }],
        "language": "js",
        "actions": [{
            "id": "expression_onClick_84853201224768012",
            "type": "ADD_SNIPPET",
            "codeSnippet": "frmIBAnyIDRegistration.hbxTokenEntry.setVisibility(false);\n frmIBAnyIDRegistration.hbxOTPEntry.setVisibility(true);\n frmIBAnyIDRegistration.txtBxOTP.setFocus(true);\n frmIBAnyIDRegistration.lblkeyOTPMsg.text=kony.i18n.getLocalizedString(\"keyotpmsgreq\");\n frmIBAnyIDRegistration.txtBxOTP.setFocus(true);\n gblTokenSwitchFlag=false;\n gblSwitchToken=true;"
        }, {
            "id": "customcode_onClick_75296201224765981",
            "type": "INVOKE_FUNCTION",
            "sequenceKUID": "IBNewMobNoOTPRequestService1",
            "display": "IBNewMobNoOTPRequestService1",
            "inputparams": [],
            "source": "module"
        }]
    }
}