{
    "p2kwiet2012247645129_hboxAddLink_onClick_seq0": {
        "id": "p2kwiet2012247645129_hboxAddLink_onClick_seq0",
        "type": "ACTION_SEQUENCE",
        "params": [{
            "name": "eventobject",
            "value": "eventobject"
        }],
        "language": "js",
        "actions": [{
            "id": "customcode_onClick_10337201224766242",
            "type": "INVOKE_FUNCTION",
            "sequenceKUID": "addAccountClick",
            "display": "addAccountClick",
            "inputparams": [],
            "source": "module"
        }]
    }
}