{
    "p2kwiet2012247647721_btnS2SEdit_onClick_seq0": {
        "id": "p2kwiet2012247647721_btnS2SEdit_onClick_seq0",
        "type": "ACTION_SEQUENCE",
        "params": [{
            "name": "eventobject",
            "value": "eventobject"
        }],
        "language": "js",
        "actions": [{
            "id": "decision_onClick_458320122476153",
            "type": "IF_CONDITION",
            "conditions": [{
                "leftValueType": "expression",
                "leftValue": "gblConfOrComp"
            }],
            "criteria": "all"
        }, {
            "id": "decision_onClick_34664201224769281",
            "type": "ELSE_CONDITION",
            "conditions": [],
            "criteria": "all"
        }, {
            "id": "expression_onClick_19403201224768265",
            "type": "ADD_SNIPPET",
            "codeSnippet": "gbls2sEditFlag = \"confirmationEdit\";\n \n callApplyS2SIBActivityLogForEdit();\n frmIBSSApply.txtBalMax.text=frmIBSSApplyCnfrmtn.lblAmntLmtMax.text;\n frmIBSSApply.txtBalMin.text=frmIBSSApplyCnfrmtn.lblAmntLmtMin.text;\n frmIBSSApply.imgLinkedAcct.src=frmIBSSApplyCnfrmtn.imgFrom.src;\n frmIBSSApply.lblLinkedAcctNickName.text=frmIBSSApplyCnfrmtn.lblCustName.text;\n frmIBSSApply.lblAcctNoValue.text=frmIBSSApplyCnfrmtn.lblAccNo.text;\n frmIBSSApply.lblLinkdBal.text=frmIBSSApplyCnfrmtn.lblBalance.text;\n frmIBSSApply.hboxLinkedAcct.isVisible=true;\n \n frmIBSSApply.imgNoFixedAcct.src=frmIBSSApplyCnfrmtn.imgNoFix.src \n frmIBSSApply.lblCustName2.text=frmIBSSApplyCnfrmtn.lblCustName2.text \n frmIBSSApply.lblBal2.text=frmIBSSApplyCnfrmtn.lblBal2.text\n //frmIBSSApply.lblAcctNo.text=frmIBSSApplyCnfrmtn.lblAcc2.text \n frmIBSSApply.lblAccNo2.text=frmIBSSApplyCnfrmtn.lblAccNo2.text \n frmIBSSApply.lblAccType2.text=frmIBSSApplyCnfrmtn.lblAccType2.text \n s2sVerticalCoverFlow(); \n frmIBSSApply.show();\n //frmIBSSApplyCnfrmtn.destroy();",
            "parentId": "decision_onClick_34664201224769281"
        }]
    }
}