{
    "p2kwiet2012247646755_btnProvince_onSelection_seq0": {
        "id": "p2kwiet2012247646755_btnProvince_onSelection_seq0",
        "type": "ACTION_SEQUENCE",
        "params": [{
            "name": "eventobject",
            "value": "eventobject"
        }],
        "language": "js",
        "actions": [{
            "id": "expression_onSelection_30362201224768403",
            "type": "ADD_SNIPPET",
            "codeSnippet": "gblMyProfileAddressFlag = \"state\"\n gblAddressFlag=1;\n \n "
        }, {
            "id": "customcode_onSelection_85567201224763340",
            "type": "INVOKE_FUNCTION",
            "sequenceKUID": "IBonRowSelectOpenAccountAddr",
            "display": "IBonRowSelectOpenAccountAddr",
            "inputparams": [],
            "source": "module"
        }]
    }
}