{
    "p2kwiet2012247647022_txtMemberNumber_DESKTOPWEB_onBeginEditing_seq0": {
        "id": "p2kwiet2012247647022_txtMemberNumber_DESKTOPWEB_onBeginEditing_seq0",
        "type": "ACTION_SEQUENCE",
        "params": [{
            "name": "eventobject",
            "value": "eventobject"
        }, {
            "name": "changedtext",
            "value": "changedtext"
        }],
        "language": "js",
        "actions": [{
            "id": "customcode_onBeginEditing_90770201224768183",
            "type": "INVOKE_FUNCTION",
            "sequenceKUID": "onClickRewardsAnywhereHideRightPanel",
            "display": "onClickRewardsAnywhereHideRightPanel",
            "inputparams": [],
            "source": "module"
        }, {
            "id": "expression_onBeginEditing_10373201224761587",
            "type": "ADD_SNIPPET",
            "codeSnippet": "frmIBPointRedemptionLanding.hbxMemberNumber.skin=\"hbxProperFocus40px\";"
        }]
    }
}