{
    "p2kwiet2012247645253_btnaddother_onClick_seq0": {
        "id": "p2kwiet2012247645253_btnaddother_onClick_seq0",
        "type": "ACTION_SEQUENCE",
        "params": [{
            "name": "eventobject",
            "value": "eventobject"
        }],
        "language": "js",
        "actions": [{
            "id": "navigation_onClick_57696201224765210",
            "type": "NAVIGATE_TO_FORM",
            "formId": "frmIBMyReceipentsAddContactFB",
            "formKUID": "p2kwiet2012247645018",
            "mappings": {},
            "mappingsOrder": [],
            "parentId": "",
            "enableMappingEditor": true,
            "package": ""
        }, {
            "id": "expression_onClick_43030201224766898",
            "type": "ADD_SNIPPET",
            "codeSnippet": "frmIBMyReceipentsAddContactFB.hboxTMBSelectRcpnts.setVisibility(true);\n frmIBMyReceipentsAddContactFB.hboxSelectrcpntsConf.setVisibility(false);"
        }]
    }
}