{
    "p2kwiet2012247646667_btnOpenProdDetailsBack_onClick_seq0": {
        "id": "p2kwiet2012247646667_btnOpenProdDetailsBack_onClick_seq0",
        "type": "ACTION_SEQUENCE",
        "params": [{
            "name": "eventobject",
            "value": "eventobject"
        }],
        "language": "js",
        "actions": [{
            "id": "navigation_onClick_57414201224765456",
            "type": "NAVIGATE_TO_FORM",
            "formId": "frmIBOpenActSelProd",
            "formKUID": "p2kwiet2012247645667",
            "mappings": {},
            "mappingsOrder": [],
            "parentId": "",
            "enableMappingEditor": true,
            "package": ""
        }]
    }
}