{
    "p2kwiet2012247645740_txtODMyDreamSave_DESKTOPWEB_onBeginEditing_seq0": {
        "id": "p2kwiet2012247645740_txtODMyDreamSave_DESKTOPWEB_onBeginEditing_seq0",
        "type": "ACTION_SEQUENCE",
        "params": [{
            "name": "eventobject",
            "value": "eventobject"
        }, {
            "name": "changedtext",
            "value": "changedtext"
        }],
        "language": "js",
        "actions": [{
            "id": "expression_onBeginEditing_36269201224767083",
            "type": "ADD_SNIPPET",
            "codeSnippet": "gblSpecial=\"2\"\n frmIBOpenNewDreamAcc.hbox867539252328683.skin=\"hbxProperFocus\"\n /*\n if(isiPad)\n {\n document.getElementById(\"frmIBOpenNewDreamAcc_txtODMyDreamSave\").type = \"number\"; \n }*/"
        }, {
            "id": "customcode_onBeginEditing_16014201224769404",
            "type": "INVOKE_FUNCTION",
            "sequenceKUID": "disablealphaDream",
            "display": "disablealphaDream",
            "inputparams": [],
            "source": "module"
        }]
    }
}