{
    "p2kwiet2012247640409_btnBPAfter_onClick_seq0": {
        "id": "p2kwiet2012247640409_btnBPAfter_onClick_seq0",
        "type": "ACTION_SEQUENCE",
        "params": [{
            "name": "eventobject",
            "value": "eventobject"
        }],
        "language": "js",
        "actions": [{
            "id": "expression_onClick_1493920122476379",
            "type": "ADD_SNIPPET",
            "codeSnippet": "frmIBBillPaymentView.hbxBPexecutiontimes.setVisibility(true);\n frmIBBillPaymentView.hbxBPUntil.setVisibility(true);\n frmIBBillPaymentView.lineSchBPClose.setVisibility(false);\n frmIBBillPaymentView.hbxBPUntil.setVisibility(false);\n "
        }, {
            "id": "customcode_onClick_61300201224767117",
            "type": "INVOKE_FUNCTION",
            "sequenceKUID": "endingSchedule",
            "display": "endingSchedule",
            "inputparams": [{
                "name": "eventObject",
                "value": "eventobject"
            }],
            "source": "module"
        }]
    }
}