{
    "p2kwiet2012247641731_button474288733659_onClick_seq0": {
        "id": "p2kwiet2012247641731_button474288733659_onClick_seq0",
        "type": "ACTION_SEQUENCE",
        "params": [{
            "name": "eventobject",
            "value": "eventobject"
        }],
        "language": "js",
        "actions": [{
            "id": "expression_onClick_46451201224768917",
            "type": "ADD_SNIPPET",
            "codeSnippet": "editbuttonflag=\"password\";\n gblShowPwd = 1;\n frmIBCMChgPwd.tbxTranscCrntPwd.text = \"\"\n frmIBCMChgPwd.txtPassword.text = \"\"\n frmIBCMChgPwd.txtRetypePwd.text = \"\"\n frmIBCMChgPwd.tbxTranscCrntPwd.setFocus(true);"
        }, {
            "id": "customcode_onClick_95521201224763835",
            "type": "INVOKE_FUNCTION",
            "sequenceKUID": "getIBEditProfileStatus",
            "display": "getIBEditProfileStatus",
            "inputparams": [],
            "source": "module"
        }]
    }
}