{
    "p2kwiet2012247642915_btnEditEStatement_onClick_seq0": {
        "id": "p2kwiet2012247642915_btnEditEStatement_onClick_seq0",
        "type": "ACTION_SEQUENCE",
        "params": [{
            "name": "eventobject",
            "value": "eventobject"
        }],
        "language": "js",
        "actions": [{
            "id": "navigation_onClick_90314201224769131",
            "type": "NAVIGATE_TO_FORM",
            "formId": "frmIBEditMyAccounts",
            "formKUID": "p2kwiet2012247642852",
            "mappings": {},
            "mappingsOrder": [],
            "parentId": "",
            "enableMappingEditor": true,
            "package": ""
        }]
    }
}