{
    "p2kwiet2012247648709_frmIBTopUpConfirmation_postshow_seq0": {
        "id": "p2kwiet2012247648709_frmIBTopUpConfirmation_postshow_seq0",
        "type": "ACTION_SEQUENCE",
        "params": [{
            "name": "eventobject",
            "value": "eventobject"
        }, {
            "name": "neworientation",
            "value": "neworientation"
        }],
        "language": "js",
        "actions": [{
            "id": "customcode_postshow_85774201224762918",
            "type": "INVOKE_FUNCTION",
            "sequenceKUID": "addIBMenu",
            "display": "addIBMenu",
            "inputparams": [],
            "source": "module"
        }, {
            "id": "expression_postshow_29569201224769126",
            "type": "ADD_SNIPPET",
            "codeSnippet": "if(kony.i18n.getCurrentLocale() != \"th_TH\")\n frmIBTopUpConfirmation.btnMenuTopUp.skin = \"btnIBMenuTopUpFocus\";\n else \n frmIBTopUpConfirmation.btnMenuTopUp.skin = \"btnIBMenuTopUpFocusThai\";"
        }]
    }
}