{
    "p2kwiet2012247640090_btnPDF_onClick_seq0": {
        "id": "p2kwiet2012247640090_btnPDF_onClick_seq0",
        "type": "ACTION_SEQUENCE",
        "params": [{
            "name": "eventobject",
            "value": "eventobject"
        }],
        "language": "js",
        "actions": [{
            "id": "customcode_onClick_396201224761005",
            "type": "INVOKE_FUNCTION",
            "sequenceKUID": "savePDFExecBillPaymentIB",
            "display": "savePDFExecBillPaymentIB",
            "inputparams": [{
                "name": "filetype",
                "value": "\"pdf\""
            }],
            "source": "module"
        }]
    }
}