{
    "p2kwiet2012247644730_btnReturnBack_onClick_seq0": {
        "id": "p2kwiet2012247644730_btnReturnBack_onClick_seq0",
        "type": "ACTION_SEQUENCE",
        "params": [{
            "name": "eventobject",
            "value": "eventobject"
        }],
        "language": "js",
        "actions": [{
            "id": "decision_onClick_17775201224763555",
            "type": "IF_CONDITION",
            "conditions": [{
                "leftValueType": "expression",
                "leftValue": "gblAddToMyBill"
            }],
            "criteria": "all"
        }, {
            "id": "decision_onClick_32246201224765947",
            "type": "ELSE_CONDITION",
            "conditions": [],
            "criteria": "all"
        }, {
            "id": "expression_onClick_44290201224767291",
            "type": "ADD_SNIPPET",
            "codeSnippet": "frmIBBillPaymentLP.show()",
            "parentId": "decision_onClick_17775201224763555"
        }, {
            "id": "expression_onClick_70930201224764843",
            "type": "ADD_SNIPPET",
            "codeSnippet": "frmIBMyBillersHome.imgTMBLogo.setVisibility(true);\n //frmIBMyBillersHome.hbxTMBLogo.setVisibility(true);\n frmIBMyBillersHome.hbxBillersAddContainer.setVisibility(false);\n frmIBMyBillersHome.hbxBillersConfirmContainer.setVisibility(false);\n frmIBMyBillersHome.hbxBillersEditContainer.setVisibility(false);\n frmIBMyBillersHome.hbxBillersViewContainer.setVisibility(false);\n frmIBMyBillersHome.hbxSugBillersContainer.setVisibility(false);\n frmIBMyBillersHome.lblMyBills.setVisibility(false);\n frmIBMyBillersHome.hbxBillersCompleteContainer.setVisibility(false);\n frmIBMyBillersHome.imgArrowAddBiller.setVisibility(false);\n frmIBMyBillersHome.imgArrowSegBiller.setVisibility(false);\n //frmIBMyBillersHome.preShow();\n //frmIBMyBillersHome.postShow();\n preShowForBillers();\n postShowForBillers();",
            "parentId": "decision_onClick_32246201224765947"
        }]
    }
}