{
    "p2kwiet2012247650632_popIBFutureTPDelete_init_seq0": {
        "id": "p2kwiet2012247650632_popIBFutureTPDelete_init_seq0",
        "type": "ACTION_SEQUENCE",
        "params": [{
            "name": "eventobject",
            "value": "eventobject"
        }, {
            "name": "neworientation",
            "value": "neworientation"
        }],
        "language": "js",
        "actions": [{
            "id": "expression_init_43703201224762720",
            "type": "ADD_SNIPPET",
            "codeSnippet": "popIBFutureTPDelete.enabledForIdleTimeout = true"
        }]
    }
}