{
    "p2kwiet2012247643877_linknext_onClick_seq0": {
        "id": "p2kwiet2012247643877_linknext_onClick_seq0",
        "type": "ACTION_SEQUENCE",
        "params": [{
            "name": "eventobject",
            "value": "eventobject"
        }],
        "language": "js",
        "actions": [{
            "id": "customcode_onClick_4778201224765992",
            "type": "INVOKE_FUNCTION",
            "sequenceKUID": "nextPageloadInMFStmt",
            "display": "nextPageloadInMFStmt",
            "inputparams": [{
                "name": "nextpage",
                "value": "frmIBMFAcctFullStatement.link5.text"
            }],
            "source": "module"
        }]
    }
}