{
    "p2kwiet2012247646755_txtBxOTP_DESKTOPWEB_onBeginEditing_seq0": {
        "id": "p2kwiet2012247646755_txtBxOTP_DESKTOPWEB_onBeginEditing_seq0",
        "type": "ACTION_SEQUENCE",
        "params": [{
            "name": "eventobject",
            "value": "eventobject"
        }, {
            "name": "changedtext",
            "value": "changedtext"
        }],
        "language": "js",
        "actions": [{
            "id": "expression_onBeginEditing_81800201224769156",
            "type": "ADD_SNIPPET",
            "codeSnippet": "frmIBOpenProdMailAddressEdit.hbxOTPEntry.skin=\"hbxOtpTextField\";"
        }]
    }
}