{
    "p2kwiet2012247645597_txtChangeMobileNumber_DESKTOPWEB_onEndEditing_seq0": {
        "id": "p2kwiet2012247645597_txtChangeMobileNumber_DESKTOPWEB_onEndEditing_seq0",
        "type": "ACTION_SEQUENCE",
        "params": [{
            "name": "eventobject",
            "value": "eventobject"
        }, {
            "name": "changedtext",
            "value": "changedtext"
        }],
        "language": "js",
        "actions": [{
            "id": "expression_onEndEditing_57110201224765754",
            "type": "ADD_SNIPPET",
            "codeSnippet": "if(kony.appinit.isIE8)\n {\n onEditMobileNumberIB(frmIBOpenAccountContactKYC.txtChangeMobileNumber.text);\n } "
        }]
    }
}