{
    "p2kwiet2012247644952_btnAddManually_onClick_seq0": {
        "id": "p2kwiet2012247644952_btnAddManually_onClick_seq0",
        "type": "ACTION_SEQUENCE",
        "params": [{
            "name": "eventobject",
            "value": "eventobject"
        }],
        "language": "js",
        "actions": [{
            "id": "expression_onClick_4851020122476896",
            "type": "ADD_SNIPPET",
            "codeSnippet": "gblAdd_Receipent_State = gblNEW_RC_ADDITION;\n clearDataOnRcNewRecipientAdditionForm();\n showLoadingScreenPopup();"
        }, {
            "id": "navigation_onClick_45690201224764508",
            "type": "NAVIGATE_TO_FORM",
            "formId": "frmIBMyReceipentsAddContactManually",
            "formKUID": "p2kwiet2012247645129",
            "mappings": {},
            "mappingsOrder": [],
            "parentId": "",
            "enableMappingEditor": true,
            "package": ""
        }, {
            "id": "expression_onClick_20325201224769515",
            "type": "ADD_SNIPPET",
            "codeSnippet": "dismissLoadingScreenPopup();\n TMBUtil.DestroyForm(frmIBMyReceipentsAddBankAccnt);\n TMBUtil.DestroyForm(frmIBMyReceipentsAddContactFB);\n TMBUtil.DestroyForm(frmIBMyReceipentsHome);\n gblAdd_Receipent_State = gblNEW_RC_ADDITION;"
        }]
    }
}