{
    "p2kwiet2012247643978_button474201253135915_onClick_seq0": {
        "id": "p2kwiet2012247643978_button474201253135915_onClick_seq0",
        "type": "ACTION_SEQUENCE",
        "params": [{
            "name": "eventobject",
            "value": "eventobject"
        }],
        "language": "js",
        "actions": [{
            "id": "expression_onClick_62768201224765676",
            "type": "ADD_SNIPPET",
            "codeSnippet": "\n callBulkMessage();\n //frmIBEnterCrmidforS2S.show()"
        }]
    }
}