{
    "p2kwiet2012247641098_frmIBCMChngUserID_preshow_seq0": {
        "id": "p2kwiet2012247641098_frmIBCMChngUserID_preshow_seq0",
        "type": "ACTION_SEQUENCE",
        "params": [{
            "name": "eventobject",
            "value": "eventobject"
        }, {
            "name": "neworientation",
            "value": "neworientation"
        }],
        "language": "js",
        "actions": [{
            "id": "expression_preshow_12125201224766610",
            "type": "ADD_SNIPPET",
            "codeSnippet": "frmIBCMChngUserID.txtCurUserID.setFocus(true);\n frmIBCMChngUserID.txtCurUserID.text = \"\"\n frmIBCMChngUserID.txtNewUserID.text = \"\"\n frmIBCMChngUserID.image2474288733627.setVisibility(false);"
        }, {
            "id": "expression_preshow_46255201224769142",
            "type": "ADD_SNIPPET",
            "codeSnippet": "gblCMUserIDRule = 0"
        }, {
            "id": "expression_preshow_50468201224769686",
            "type": "ADD_SNIPPET",
            "codeSnippet": "gblCMMore = 0\n "
        }, {
            "id": "expression_preshow_3228220122476539",
            "type": "ADD_SNIPPET",
            "codeSnippet": "gblCMHide = 0"
        }]
    }
}