{
    "p2kwiet2012247644098_txtAccNum3_DESKTOPWEB_onBeginEditing_seq0": {
        "id": "p2kwiet2012247644098_txtAccNum3_DESKTOPWEB_onBeginEditing_seq0",
        "type": "ACTION_SEQUENCE",
        "params": [{
            "name": "eventobject",
            "value": "eventobject"
        }, {
            "name": "changedtext",
            "value": "changedtext"
        }],
        "language": "js",
        "actions": [{
            "id": "expression_onBeginEditing_3088920122476246",
            "type": "ADD_SNIPPET",
            "codeSnippet": "frmIBMyAccnts.txtAccNum3.skin=txtBottomBorderFocus;"
        }]
    }
}