{
    "p2kwiet2012247640009_hbox474225279249372_onClick_seq0": {
        "id": "p2kwiet2012247640009_hbox474225279249372_onClick_seq0",
        "type": "ACTION_SEQUENCE",
        "params": [{
            "name": "eventobject",
            "value": "eventobject"
        }],
        "language": "js",
        "actions": [{
            "id": "customcode_onClick_62474201224761841",
            "type": "INVOKE_FUNCTION",
            "sequenceKUID": "callBillPaymentCustomerAccountServiceIB",
            "display": "callBillPaymentCustomerAccountServiceIB",
            "inputparams": [],
            "source": "module"
        }]
    }
}