{
    "p2kwiet2012247646924_btnCancelPin_onClick_seq0": {
        "id": "p2kwiet2012247646924_btnCancelPin_onClick_seq0",
        "type": "ACTION_SEQUENCE",
        "params": [{
            "name": "eventobject",
            "value": "eventobject"
        }],
        "language": "js",
        "actions": [{
            "id": "customcode_onClick_71758201224763300",
            "type": "INVOKE_FUNCTION",
            "sequenceKUID": "onClickCancelPointRedemptionIB",
            "display": "onClickCancelPointRedemptionIB",
            "inputparams": [],
            "source": "module"
        }]
    }
}