{
    "p2kwiet2012247644952_btnOTPReq_onClick_seq0": {
        "id": "p2kwiet2012247644952_btnOTPReq_onClick_seq0",
        "type": "ACTION_SEQUENCE",
        "params": [{
            "name": "eventobject",
            "value": "eventobject"
        }],
        "language": "js",
        "actions": [{
            "id": "expression_onClick_77521201224767869",
            "type": "ADD_SNIPPET",
            "codeSnippet": "kony.print(\"requestOTP\");\n frmIBMyReceipentsAddBankAccnt.lblOTPinCurr.text = \" \";//kony.i18n.getLocalizedString(\"invalidOTP\"); //\n frmIBMyReceipentsAddBankAccnt.lblPlsReEnter.text = \" \"; \n frmIBMyReceipentsAddBankAccnt.hbxOTPincurrect.isVisible = false;\n frmIBMyReceipentsAddBankAccnt.hbox476047582127699.isVisible = true;\n frmIBMyReceipentsAddBankAccnt.hbxOTPsnt.isVisible = true;\n \n if(gblTokenSwitchFlag == true && gblSwitchToken == false)\n { frmIBMyReceipentsAddBankAccnt.label476047582115288.text = kony.i18n.getLocalizedString(\"keyotpmsgreq\");\n frmIBMyReceipentsAddBankAccnt.label476047582115284.text = \"OTP:\";\n frmIBMyReceipentsAddBankAccnt.btnOTPReq.text = kony.i18n.getLocalizedString(\"keyRequest\");\n frmIBMyReceipentsAddBankAccnt.textbox247428873338513.text=\"\";\n // frmIBMyReceipentsAddBankAccnt.textbox247428873338513.placeholder= kony.i18n.getLocalizedString(\"enterOTP\");\n gblTokenSwitchFlag = false;\n gblSwitchToken=true;\n startBackGroundOTPRequestService();\n }else{\n // kony.print(\"requestOTP\");\n startOTPRequestService();\n }\n \n \n "
        }]
    }
}