{
    "p2kwiet2012247646632_btnCancel_onClick_seq0": {
        "id": "p2kwiet2012247646632_btnCancel_onClick_seq0",
        "type": "ACTION_SEQUENCE",
        "params": [{
            "name": "eventobject",
            "value": "eventobject"
        }],
        "language": "js",
        "actions": [{
            "id": "expression_onClick_8989201224764180",
            "type": "ADD_SNIPPET",
            "codeSnippet": "gblRetryCountRequestOTP = \"0\";"
        }, {
            "id": "customcode_onClick_1252201224766243",
            "type": "INVOKE_FUNCTION",
            "sequenceKUID": "onOpenActCancel",
            "display": "onOpenActCancel",
            "inputparams": [],
            "source": "module"
        }]
    }
}