{
    "p2kwiet2012247645018_btnSelectRcNext_onClick_seq0": {
        "id": "p2kwiet2012247645018_btnSelectRcNext_onClick_seq0",
        "type": "ACTION_SEQUENCE",
        "params": [{
            "name": "eventobject",
            "value": "eventobject"
        }],
        "language": "js",
        "actions": [{
            "id": "customcode_onClick_14468201224761138",
            "type": "INVOKE_FUNCTION",
            "sequenceKUID": "setTobeAddedFBContactsforRC",
            "display": "setTobeAddedFBContactsforRC",
            "inputparams": [],
            "source": "module"
        }]
    }
}