{
    "p2kwiet2012247644098_txtCCNum4_DESKTOPWEB_onKeyUp_seq0": {
        "id": "p2kwiet2012247644098_txtCCNum4_DESKTOPWEB_onKeyUp_seq0",
        "type": "ACTION_SEQUENCE",
        "params": [{
            "name": "eventobject",
            "value": "eventobject"
        }, {
            "name": "changedtext",
            "value": "changedtext"
        }],
        "language": "js",
        "actions": [{
            "id": "expression_onKeyUp_44258201224768210",
            "type": "ADD_SNIPPET",
            "codeSnippet": "frmIBMyAccnts.txtCCNum4.maxTextLength=4;\n var txt = frmIBMyAccnts.txtCCNum4.text;\n kony.print(\"--\" + txt.length + \"---\" + txt);\n if(txt.length==0)\n frmIBMyAccnts.txtCCNum3.setFocus(true);"
        }]
    }
}