{
    "p2kwiet2012247640665_btnback_onClick_seq0": {
        "id": "p2kwiet2012247640665_btnback_onClick_seq0",
        "type": "ACTION_SEQUENCE",
        "params": [{
            "name": "eventobject",
            "value": "eventobject"
        }],
        "language": "js",
        "actions": [{
            "id": "customcode_onClick_40983201224761189",
            "type": "INVOKE_FUNCTION",
            "sequenceKUID": "populateDataForReturnedChequeService",
            "display": "populateDataForReturnedChequeService",
            "inputparams": [{
                "name": "GLOBAL_CHEQUESERVICE_TABLE",
                "value": "GLOBAL_CHEQUESERVICE_TABLE"
            }],
            "source": "module"
        }]
    }
}