{
    "p2kwiet2012247645428_btnConfirm_onClick_seq0": {
        "id": "p2kwiet2012247645428_btnConfirm_onClick_seq0",
        "type": "ACTION_SEQUENCE",
        "params": [{
            "name": "eventobject",
            "value": "eventobject"
        }],
        "language": "js",
        "actions": [{
            "id": "decision_onClick_48777201224763646",
            "type": "IF_CONDITION",
            "conditions": [{
                "leftValueType": "expression",
                "leftValue": "checkMaxBillerCountOnConfirmTopupIB()"
            }],
            "criteria": "all"
        }, {
            "id": "decision_onClick_74448201224769600",
            "type": "ELSE_CONDITION",
            "conditions": [],
            "criteria": "all"
        }, {
            "id": "customcode_onClick_36333201224764533",
            "type": "INVOKE_FUNCTION",
            "sequenceKUID": "mapSegTopUpComplete",
            "display": "mapSegTopUpComplete",
            "inputparams": [],
            "parentId": "decision_onClick_48777201224763646",
            "source": "module"
        }, {
            "id": "customcode_onClick_49077201224769196",
            "type": "INVOKE_FUNCTION",
            "sequenceKUID": "verifyOTPBillTopUp",
            "display": "verifyOTPBillTopUp",
            "inputparams": [],
            "parentId": "decision_onClick_48777201224763646",
            "source": "module"
        }, {
            "id": "expression_onClick_58918201224767688",
            "type": "ADD_SNIPPET",
            "codeSnippet": "var BillerList = myTopupList;\n var ConfirmationList = frmIBMyTopUpsHome.segBillersConfirm.data;\n var maxBillAllowed= parseInt(GLOBAL_MAX_BILL_COUNT);\n var TotalBillerCanBeAdded = maxBillAllowed - BillerList.length ;\n alert(kony.i18n.getLocalizedString(\"Valid_CantAddMore\") + TotalBillerCanBeAdded + kony.i18n.getLocalizedString(\"keyBillersIB\"));",
            "parentId": "decision_onClick_74448201224769600"
        }]
    }
}