{
    "p2kwiet2012247645597_hbox475208533100910_onClick_seq0": {
        "id": "p2kwiet2012247645597_hbox475208533100910_onClick_seq0",
        "type": "ACTION_SEQUENCE",
        "params": [{
            "name": "eventobject",
            "value": "eventobject"
        }],
        "language": "js",
        "actions": [{
            "id": "expression_onClick_7761201224764325",
            "type": "ADD_SNIPPET",
            "codeSnippet": "gblAddressFlag=4;\n gblMyProfileAddressFlag = \"zipcode\";\n "
        }]
    }
}