{
    "p2kwiet2012247645476_btnCancel_onClick_seq0": {
        "id": "p2kwiet2012247645476_btnCancel_onClick_seq0",
        "type": "ACTION_SEQUENCE",
        "params": [{
            "name": "eventobject",
            "value": "eventobject"
        }],
        "language": "js",
        "actions": [{
            "id": "expression_onClick_18477201224769780",
            "type": "ADD_SNIPPET",
            "codeSnippet": "if(eventobject.skin == \"btnCancel\"){\n NotificationHomePageState = false;\n locale = kony.i18n.getCurrentLocale();\n populateNotificationsNormalStateIB();\n }\n else{\n //do nothing\n }"
        }]
    }
}