{
    "p2kwiet2012247642265_btnsubmit_onClick_seq0": {
        "id": "p2kwiet2012247642265_btnsubmit_onClick_seq0",
        "type": "ACTION_SEQUENCE",
        "params": [{
            "name": "eventobject",
            "value": "eventobject"
        }],
        "language": "js",
        "actions": [{
            "id": "customcode_onClick_76529201224767753",
            "type": "INVOKE_FUNCTION",
            "sequenceKUID": "clearData",
            "display": "clearData",
            "inputparams": [],
            "source": "module"
        }, {
            "id": "customcode_onClick_15139201224764062",
            "type": "INVOKE_FUNCTION",
            "sequenceKUID": "getTransactionHistory",
            "display": "getTransactionHistory",
            "inputparams": [{
                "name": "functn",
                "value": ""
            }, {
                "name": "filetype",
                "value": ""
            }, {
                "name": "templatename",
                "value": ""
            }],
            "source": "module"
        }]
    }
}