{
    "p2kwiet2012247640409_buttononlineFull_onClick_seq0": {
        "id": "p2kwiet2012247640409_buttononlineFull_onClick_seq0",
        "type": "ACTION_SEQUENCE",
        "params": [{
            "name": "eventobject",
            "value": "eventobject"
        }],
        "language": "js",
        "actions": [{
            "id": "expression_onClick_93313201224767811",
            "type": "ADD_SNIPPET",
            "codeSnippet": "frmIBBillPaymentView.textboxOnlineTotalAmt.setEnabled(false);\n if(gblEditBillMethod == 3){\n frmIBBillPaymentView.textboxOnlineTotalAmt.text = fullAmtLoan;\n }else{\n frmIBBillPaymentView.textboxOnlineTotalAmt.text = commaFormatted(fullAmtValue)+ \" \" + kony.i18n.getLocalizedString(\"currencyThaiBaht\"); //fullAmtValue;\n }\n \n \n \n \n frmIBBillPaymentView.buttononlineSpecified.skin = \"btnIBrndrightGreyNowidth\";\n frmIBBillPaymentView.buttononlineFull.skin=\"btnIBrndleftblueNoWidth\";\n \n "
        }]
    }
}