{
    "p2kwiet2012247650520_btnEndOnDate_onClick_seq0": {
        "id": "p2kwiet2012247650520_btnEndOnDate_onClick_seq0",
        "type": "ACTION_SEQUENCE",
        "params": [{
            "name": "eventobject",
            "value": "eventobject"
        }],
        "language": "js",
        "actions": [{
            "id": "expression_onClick_79557201224768872",
            "type": "ADD_SNIPPET",
            "codeSnippet": "futuredate.calOnDate.setVisibility(true);\n futuredate.txtAfterTimes.setVisibility(false);\n futuredate.lblAfterTimesInstruction.setVisibility(false);\n futuredate.btnEndAfter.skin = \"btnNormal\"\n futuredate.btnEndOnDate.skin = \"btnFocusBlue\"\n futuredate.btnEndNever.skin = \"btnNormal\""
        }]
    }
}