{
    "p2kwiet2012247644098_btnBackAccntDetails_onClick_seq0": {
        "id": "p2kwiet2012247644098_btnBackAccntDetails_onClick_seq0",
        "type": "ACTION_SEQUENCE",
        "params": [{
            "name": "eventobject",
            "value": "eventobject"
        }],
        "language": "js",
        "actions": [{
            "id": "expression_onClick_38885201224768648",
            "type": "ADD_SNIPPET",
            "codeSnippet": "frmIBMyAccnts.hbxViewAccnt.isVisible=false"
        }]
    }
}