{
    "p2kwiet2012247642558_btndelelteDepositAccnt_onClick_seq0": {
        "id": "p2kwiet2012247642558_btndelelteDepositAccnt_onClick_seq0",
        "type": "ACTION_SEQUENCE",
        "params": [{
            "name": "eventobject",
            "value": "eventobject"
        }],
        "language": "js",
        "actions": [{
            "id": "expression_onClick_88085201224764017",
            "type": "ADD_SNIPPET",
            "codeSnippet": "\n \n //kony.print(\"varFMA --> \"+varFMA + \"varFAMA -->: \"+varFAMA );\n popupDeleAccnt.lblConfoMsg.text = kony.i18n.getLocalizedString(\"keylblDelAcc\");\n popupDeleAccnt.button44747680938122.onClick =onclickDeleteMyaccountFlow;"
        }, {
            "id": "navigation_onClick_7266201224766040",
            "type": "DISPLAY_POPUP",
            "popupId": "popupDeleAccnt",
            "popupKUID": "p2kwiet2012247650774",
            "mappings": {},
            "mappingsOrder": [],
            "enableMappingEditor": true
        }]
    }
}