{
    "p2kwiet2012247641578_hbox475208533100908_onClick_seq0": {
        "id": "p2kwiet2012247641578_hbox475208533100908_onClick_seq0",
        "type": "ACTION_SEQUENCE",
        "params": [{
            "name": "eventobject",
            "value": "eventobject"
        }],
        "language": "js",
        "actions": [{
            "id": "expression_onClick_23929201224763970",
            "type": "ADD_SNIPPET",
            "codeSnippet": "gblAddressFlag=2;\n gblMyProfileAddressFlag = \"district\";\n "
        }]
    }
}