{
    "p2kwiet2012247643906_btnOrderToBProceed_onClick_seq0": {
        "id": "p2kwiet2012247643906_btnOrderToBProceed_onClick_seq0",
        "type": "ACTION_SEQUENCE",
        "params": [{
            "name": "eventobject",
            "value": "eventobject"
        }],
        "language": "js",
        "actions": [{
            "id": "customcode_onClick_4433420122476121",
            "type": "INVOKE_FUNCTION",
            "sequenceKUID": "onOrderToBProceedClick",
            "display": "onOrderToBProceedClick",
            "inputparams": [],
            "source": "module"
        }]
    }
}