{
    "p2kwiet2012247645428_btnPayBill_onClick_seq0": {
        "id": "p2kwiet2012247645428_btnPayBill_onClick_seq0",
        "type": "ACTION_SEQUENCE",
        "params": [{
            "name": "eventobject",
            "value": "eventobject"
        }],
        "language": "js",
        "actions": [{
            "id": "customcode_onClick_94447201224761471",
            "type": "INVOKE_FUNCTION",
            "sequenceKUID": "gotoBillPaymentFromBillerView",
            "display": "gotoBillPaymentFromBillerView",
            "inputparams": [],
            "source": "module"
        }]
    }
}