{
    "p2kwiet2012247642497_button866825109108732_onClick_seq0": {
        "id": "p2kwiet2012247642497_button866825109108732_onClick_seq0",
        "type": "ACTION_SEQUENCE",
        "params": [{
            "name": "eventobject",
            "value": "eventobject"
        }],
        "language": "js",
        "actions": [{
            "id": "customcode_onClick_10176201224761666",
            "type": "INVOKE_FUNCTION",
            "sequenceKUID": "validationForDSMbtnIB",
            "display": "validationForDSMbtnIB",
            "inputparams": [],
            "source": "module"
        }, {
            "id": "expression_onClick_65071201224764585",
            "type": "ADD_SNIPPET",
            "codeSnippet": "frmIBDreamSAvingEdit.vboxBillers.skin=\"vbxRightColumn\"\n frmIBDreamSAvingEdit.hbxBPAll.skin=\"hbxIBSizeLimiter\"\n frmIBDreamSAvingEdit.imgcal.setVisibility(false)"
        }]
    }
}