{
    "p2kwiet2012247650732_hbox47417063034266_onClick_seq0": {
        "id": "p2kwiet2012247650732_hbox47417063034266_onClick_seq0",
        "type": "ACTION_SEQUENCE",
        "params": [{
            "name": "eventobject",
            "value": "eventobject"
        }],
        "language": "js",
        "actions": [{
            "id": "expression_onClick_7814120122476796",
            "type": "ADD_SNIPPET",
            "codeSnippet": "popupbiller.hbox1.setVisibility(true);\n popupbiller.hbox2.setVisibility(true);\n popupbiller.hbox3.setVisibility(true);\n popupbiller.hbox4.setVisibility(true);\n popupbiller.hbox5.setVisibility(true);\n popupbiller.hbox6.setVisibility(true);\n popupbiller.line47417063034633.setVisibility(true);\n popupbiller.line47417063034634.setVisibility(true);\n popupbiller.line47417063034635.setVisibility(true);\n popupbiller.line47417063034636.setVisibility(true);\n popupbiller.line47417063034637.setVisibility(true);\n \n "
        }]
    }
}