{
    "p2kwiet2012247647593_btnHelp_onClick_seq0": {
        "id": "p2kwiet2012247647593_btnHelp_onClick_seq0",
        "type": "ACTION_SEQUENCE",
        "params": [{
            "name": "eventobject",
            "value": "eventobject"
        }],
        "language": "js",
        "actions": [{
            "id": "expression_onClick_67452201224766197",
            "type": "ADD_SNIPPET",
            "codeSnippet": "popupSSSAmtRule.lblHelpMsg.text=kony.i18n.getLocalizedString(\"keyS2SMaxHelpMesg\");\n popupSSSAmtRule.show();"
        }]
    }
}