{
    "p2kwiet2012247639935_txtotp_DESKTOPWEB_onBeginEditing_seq0": {
        "id": "p2kwiet2012247639935_txtotp_DESKTOPWEB_onBeginEditing_seq0",
        "type": "ACTION_SEQUENCE",
        "params": [{
            "name": "eventobject",
            "value": "eventobject"
        }, {
            "name": "changedtext",
            "value": "changedtext"
        }],
        "language": "js",
        "actions": [{
            "id": "customcode_onBeginEditing_39209201224767062",
            "type": "INVOKE_FUNCTION",
            "sequenceKUID": "eh_frmIBBillPaymentConfirm_txtotp_onBeginEditing",
            "display": "eh_frmIBBillPaymentConfirm_txtotp_onBeginEditing",
            "inputparams": [],
            "source": "module"
        }]
    }
}