{
    "p2kwiet2012247639288_txtAddBillerRef1_DESKTOPWEB_onBeginEditing_seq0": {
        "id": "p2kwiet2012247639288_txtAddBillerRef1_DESKTOPWEB_onBeginEditing_seq0",
        "type": "ACTION_SEQUENCE",
        "params": [{
            "name": "eventobject",
            "value": "eventobject"
        }, {
            "name": "changedtext",
            "value": "changedtext"
        }],
        "language": "js",
        "actions": [{
            "id": "expression_onBeginEditing_9780420122476140",
            "type": "ADD_SNIPPET",
            "codeSnippet": "frmIBBeepAndBillApply.hbxBillerRef1.skin = \"hbxProperFocus\";"
        }]
    }
}