{
    "p2kwiet2012247642497_frmIBDreamSAvingEdit_preshow_seq0": {
        "id": "p2kwiet2012247642497_frmIBDreamSAvingEdit_preshow_seq0",
        "type": "ACTION_SEQUENCE",
        "params": [{
            "name": "eventobject",
            "value": "eventobject"
        }, {
            "name": "neworientation",
            "value": "neworientation"
        }],
        "language": "js",
        "actions": [{
            "id": "expression_preshow_53203201224769688",
            "type": "ADD_SNIPPET",
            "codeSnippet": "frmIBDreamSAvingEdit.lblOTPinCurr.text = \"\";\n frmIBDreamSAvingEdit.lblPlsReEnter.text = \"\"; \n "
        }, {
            "id": "expression_preshow_62009201224766372",
            "type": "ADD_SNIPPET",
            "codeSnippet": "amountDreamMnthRe= frmIBDreamSAvingEdit.lblmnthsaveval.text;\n amountDreamMnthRem = amountDreamMnthRe.replace(/,/g, \"\").replace(\"/\", \"\").replace(kony.i18n.getLocalizedString(\"keymonths\"), \"\").replace(kony.i18n.getLocalizedString(\"currencyThaiBaht\"), \"\");\n frmIBDreamSAvingEdit.tbxToken.text = \"\"\n gblDreamflag= \"false\"\n frmIBDreamSAvingEdit.hbxcalculator.isVisible = false;\n frmIBDreamSAvingEdit.hbxAccounts.isVisible = true;\n frmIBDreamSAvingEdit.imgdreamarrw.isVisible = true;\n frmIBDreamSAvingEdit.imgcal.isVisible = true;\n \n frmIBDreamSAvingEdit.hbxotp.isVisible = false;\n frmIBDreamSAvingEdit.hbxcancelOTP.isVisible = false;\n frmIBDreamSAvingEdit.hbxcancel.isVisible = true;\n \n frmIBDreamSAvingEdit.label86679531838298.text = kony.i18n.getLocalizedString(\"keyMBMydream\")\n frmIBDreamSAvingEdit.lblNickname.text = kony.i18n.getLocalizedString(\"Nickname\");\n \n \n frmIBDreamSAvingEdit.lbltargetamntstudio21.text=frmIBDreamSAvingEdit.lbltargetamntstudio21.text.replace(\":\",\"\")\n "
        }, {
            "id": "customcode_preshow_87205201224768000",
            "type": "INVOKE_FUNCTION",
            "sequenceKUID": "addNumberCheckListner",
            "display": "addNumberCheckListner",
            "inputparams": [{
                "name": "widjet",
                "value": "\"lblmnthsaveval\""
            }],
            "source": "module"
        }]
    }
}