{
    "p2kwiet2012247642265_button474170747310706_onClick_seq0": {
        "id": "p2kwiet2012247642265_button474170747310706_onClick_seq0",
        "type": "ACTION_SEQUENCE",
        "params": [{
            "name": "eventobject",
            "value": "eventobject"
        }],
        "language": "js",
        "actions": [{
            "id": "expression_onClick_53498201224767459",
            "type": "ADD_SNIPPET",
            "codeSnippet": "frmIBMyActivities.lblactivity.setVisibility(true);\n frmIBMyActivities.hbxBtns.setVisibility(true);\n frmIBMyActivities.lblMyActivities.setVisibility(false);\n frmIBMyActivities.hbxCal.setVisibility(false);"
        }, {
            "id": "customcode_onClick_91277201224764138",
            "type": "INVOKE_FUNCTION",
            "sequenceKUID": "btnfutureOnClick",
            "display": "btnfutureOnClick",
            "inputparams": [],
            "source": "module"
        }]
    }
}