{
    "p2kwiet2012247644245_seghistory_onRowClick_seq0": {
        "id": "p2kwiet2012247644245_seghistory_onRowClick_seq0",
        "type": "ACTION_SEQUENCE",
        "params": [{
            "name": "eventobject",
            "value": "eventobject"
        }, {
            "name": "sectionNumber",
            "value": "sectionNumber"
        }, {
            "name": "rowNumber",
            "value": "rowNumber"
        }],
        "language": "js",
        "actions": []
    }
}