{
    "p2kwiet2012247642762_btnTPConfirm_onClick_seq0": {
        "id": "p2kwiet2012247642762_btnTPConfirm_onClick_seq0",
        "type": "ACTION_SEQUENCE",
        "params": [{
            "name": "eventobject",
            "value": "eventobject"
        }],
        "language": "js",
        "actions": [{
            "id": "customcode_onClick_63963201224762109",
            "type": "INVOKE_FUNCTION",
            "sequenceKUID": "onClickConfirmEditTPIB",
            "display": "onClickConfirmEditTPIB",
            "inputparams": [],
            "source": "module"
        }]
    }
}