{
    "p2kwiet2012247650583_btnCancel_onClick_seq0": {
        "id": "p2kwiet2012247650583_btnCancel_onClick_seq0",
        "type": "ACTION_SEQUENCE",
        "params": [{
            "name": "eventobject",
            "value": "eventobject"
        }],
        "language": "js",
        "actions": [{
            "id": "expression_onClick_4523201224761085",
            "type": "ADD_SNIPPET",
            "codeSnippet": "popIBBPConfirmOTP.dismiss();"
        }]
    }
}