{
    "p2kwiet2012247649303_txtArMn_DESKTOPWEB_onEndEditing_seq0": {
        "id": "p2kwiet2012247649303_txtArMn_DESKTOPWEB_onEndEditing_seq0",
        "type": "ACTION_SEQUENCE",
        "params": [],
        "language": "js",
        "actions": [{
            "id": "customcode_onEndEditing_56589201224768164",
            "type": "INVOKE_FUNCTION",
            "sequenceKUID": "ehFrmIBTranferLP_txtArMn_onEndEditing",
            "display": "ehFrmIBTranferLP_txtArMn_onEndEditing",
            "inputparams": [],
            "source": "module"
        }]
    }
}