{
    "p2kwiet2012247646154_tbxToken_DESKTOPWEB_onBeginEditing_seq0": {
        "id": "p2kwiet2012247646154_tbxToken_DESKTOPWEB_onBeginEditing_seq0",
        "type": "ACTION_SEQUENCE",
        "params": [{
            "name": "eventobject",
            "value": "eventobject"
        }, {
            "name": "changedtext",
            "value": "changedtext"
        }],
        "language": "js",
        "actions": [{
            "id": "expression_onBeginEditing_81893201224762225",
            "type": "ADD_SNIPPET",
            "codeSnippet": "frmIBOpenNewSavingsAccConfirmation.hbxToken.skin=hbxOtpTextField; "
        }]
    }
}