{
    "p2kwiet2012247639086_btnOk_onClick_seq0": {
        "id": "p2kwiet2012247639086_btnOk_onClick_seq0",
        "type": "ACTION_SEQUENCE",
        "params": [{
            "name": "eventobject",
            "value": "eventobject"
        }],
        "language": "js",
        "actions": [{
            "id": "customcode_onClick_83433201224768668",
            "type": "INVOKE_FUNCTION",
            "sequenceKUID": "loadInterestPlansIB",
            "display": "loadInterestPlansIB",
            "inputparams": [],
            "source": "module"
        }]
    }
}