{
    "p2kwiet2012247646427_hbxPayingIntTo_onClick_seq0": {
        "id": "p2kwiet2012247646427_hbxPayingIntTo_onClick_seq0",
        "type": "ACTION_SEQUENCE",
        "params": [{
            "name": "eventobject",
            "value": "eventobject"
        }],
        "language": "js",
        "actions": [{
            "id": "decision_onClick_54961201224764296",
            "type": "IF_CONDITION",
            "conditions": [{
                "leftValueType": "expression",
                "leftValue": "frmIBOpenNewTermDepositAcc.lblFromAccount.text != \"\" && frmIBOpenNewTermDepositAcc.lblFromAccount.text != null"
            }],
            "criteria": "all"
        }, {
            "id": "decision_onClick_45803201224767162",
            "type": "ELSE_CONDITION",
            "conditions": [],
            "criteria": "all"
        }, {
            "id": "expression_onClick_37461201224769715",
            "type": "ADD_SNIPPET",
            "codeSnippet": "frmIBOpenNewTermDepositAcc.vbxPayingTo.skin=\"vboxLightBlue320px\"\n frmIBOpenNewTermDepositAcc.vbxOpenAmount.skin=\"NoSkin\";\n frmIBOpenNewTermDepositAcc.imgPayInterest.setVisibility(true);\n frmIBOpenNewTermDepositAcc.imgOpenAmount.setVisibility(false);\n gblOnClickCoverflow=\"\";",
            "parentId": "decision_onClick_54961201224764296"
        }, {
            "id": "customcode_onClick_8395201224761591",
            "type": "INVOKE_FUNCTION",
            "sequenceKUID": "setDataforTermDepositPayingAccts",
            "display": "setDataforTermDepositPayingAccts",
            "inputparams": [{
                "name": "resulttable",
                "value": "gblOpenActList"
            }],
            "parentId": "decision_onClick_54961201224764296",
            "source": "module"
        }, {
            "id": "expression_onClick_87561201224769077",
            "type": "ADD_SNIPPET",
            "codeSnippet": "alert(\"Please select from account\");",
            "parentId": "decision_onClick_45803201224767162"
        }]
    }
}