{
    "p2kwiet2012247642558_richtext476042680167636_onClick_seq0": {
        "id": "p2kwiet2012247642558_richtext476042680167636_onClick_seq0",
        "type": "ACTION_SEQUENCE",
        "params": [{
            "name": "eventobject",
            "value": "eventobject"
        }, {
            "name": "linktext",
            "value": "linktext"
        }, {
            "name": "attributes",
            "value": "attributes"
        }],
        "language": "js",
        "actions": []
    }
}