{
    "p2kwiet2012247645428_btnAddBillerNext_onClick_seq0": {
        "id": "p2kwiet2012247645428_btnAddBillerNext_onClick_seq0",
        "type": "ACTION_SEQUENCE",
        "params": [{
            "name": "eventobject",
            "value": "eventobject"
        }],
        "language": "js",
        "actions": [{
            "id": "decision_onClick_43659201224763857",
            "type": "IF_CONDITION",
            "conditions": [{
                "leftValueType": "expression",
                "leftValue": "NickNameValid(frmIBMyTopUpsHome.txtAddBillerNickName.text) "
            }],
            "criteria": "all"
        }, {
            "id": "decision_onClick_2195020122476538",
            "type": "ELSE_CONDITION",
            "conditions": [],
            "criteria": "all"
        }, {
            "id": "customcode_onClick_34118201224768556",
            "type": "INVOKE_FUNCTION",
            "sequenceKUID": "tokenExchangeBeforeSaveTopUpParamsInSess",
            "display": "tokenExchangeBeforeSaveTopUpParamsInSess",
            "inputparams": [],
            "parentId": "decision_onClick_43659201224763857",
            "source": "module"
        }, {
            "id": "expression_onClick_43445201224769856",
            "type": "ADD_SNIPPET",
            "codeSnippet": "alert(kony.i18n.getLocalizedString(\"Valid_BillerNicknameMandatory\"));",
            "parentId": "decision_onClick_2195020122476538"
        }]
    }
}