{
    "p2kwiet2012247640897_tbxTranscCrntPwd_DESKTOPWEB_onEndEditing_seq0": {
        "id": "p2kwiet2012247640897_tbxTranscCrntPwd_DESKTOPWEB_onEndEditing_seq0",
        "type": "ACTION_SEQUENCE",
        "params": [{
            "name": "eventobject",
            "value": "eventobject"
        }, {
            "name": "changedtext",
            "value": "changedtext"
        }],
        "language": "js",
        "actions": [{
            "id": "expression_onEndEditing_92158201224763915",
            "type": "ADD_SNIPPET",
            "codeSnippet": "frmIBCMChgPwd.tbxTranscCrntPwd.skin = txtBottomBorder;\n //frmIBCMChgPwd.hboxBubble.setVisibility(false);"
        }]
    }
}