{
    "p2kwiet2012247644098_frmIBMyAccnts_preshow_seq0": {
        "id": "p2kwiet2012247644098_frmIBMyAccnts_preshow_seq0",
        "type": "ACTION_SEQUENCE",
        "params": [{
            "name": "eventobject",
            "value": "eventobject"
        }, {
            "name": "neworientation",
            "value": "neworientation"
        }],
        "language": "js",
        "actions": [{
            "id": "expression_preshow_3156201224761328",
            "type": "ADD_SNIPPET",
            "codeSnippet": "document.oncontextmenu = function() { return false; }\n \n gblAccountSummaryFlag = \"false\";\n gblEditClickFromAccountDetails=false; //Used for Saving Care Edit\n frmIBMyAccnts.lnkDreamSaving.isVisible = false;\n \n \n "
        }, {
            "id": "expression_preshow_17312201224767639",
            "type": "ADD_SNIPPET",
            "codeSnippet": "//Initializing global variable used to keep track of max accnt. len of that bank\n MAX_ACC_LEN = 0;\n // Is selected bank ORFT bank\n IS_ORFT = \"Y\";\n gblEditClickFromAccountDetails=false;\n "
        }, {
            "id": "expression_preshow_71166201224767686",
            "type": "ADD_SNIPPET",
            "codeSnippet": "frmIBMyAccnts.txtAccNum1.maxTextLength = 3;\n frmIBMyAccnts.txtAccNum2.maxTextLength = 1;\n frmIBMyAccnts.txtAccNum3.maxTextLength = 5;\n frmIBMyAccnts.txtAccNum4.maxTextLength = 1;\n \n frmIBMyAccnts.lblTmbHeader.text = kony.i18n.getLocalizedString(\"keylblTMBBank\");\n frmIBMyAccnts.lblOtherBankHdr.text = kony.i18n.getLocalizedString(\"keylblOtherBankAccount\");\n frmIBMyAccnts.lblViewAccntName.text=kony.i18n.getLocalizedString(\"AccountName\");\n frmIBMyAccnts.lblViewAccntNum.text=kony.i18n.getLocalizedString(\"keyAccountNoIB\");\n frmIBMyAccnts.lblAccntNum.text = kony.i18n.getLocalizedString(\"AccountNumber\")+\":\";\n frmIBMyAccnts.lblNickName.text = kony.i18n.getLocalizedString(\"keyAddAccountNickname\");\n "
        }]
    }
}