{
    "p2kwiet2012247650797_button475089374658701_onClick_seq0": {
        "id": "p2kwiet2012247650797_button475089374658701_onClick_seq0",
        "type": "ACTION_SEQUENCE",
        "params": [{
            "name": "eventobject",
            "value": "eventobject"
        }],
        "language": "js",
        "actions": [{
            "id": "expression_onClick_16583201224765426",
            "type": "ADD_SNIPPET",
            "codeSnippet": "frmIBCMEditMyProfile.imgprofpic.src=\"avatar.png\";\n frmIBCMEditMyProfile.cimgprofpic.src=\"avatar.png\";\n profilePicFlag = \"picture\";\n profilePicFlagIB=true;\n popupDisplayPicOptions.dismiss();"
        }]
    }
}