{
    "p2kwiet2012247639415_frmIBBeepAndBillConfAndComp_postshow_seq0": {
        "id": "p2kwiet2012247639415_frmIBBeepAndBillConfAndComp_postshow_seq0",
        "type": "ACTION_SEQUENCE",
        "params": [{
            "name": "eventobject",
            "value": "eventobject"
        }, {
            "name": "neworientation",
            "value": "neworientation"
        }],
        "language": "js",
        "actions": [{
            "id": "customcode_postshow_16044201224767102",
            "type": "INVOKE_FUNCTION",
            "sequenceKUID": "addIBMenu",
            "display": "addIBMenu",
            "inputparams": [],
            "source": "module"
        }, {
            "id": "customcode_postshow_78382201224768551",
            "type": "INVOKE_FUNCTION",
            "sequenceKUID": "segConvenientServicesLoad",
            "display": "segConvenientServicesLoad",
            "inputparams": [],
            "source": "module"
        }, {
            "id": "customcode_postshow_2180201224764811",
            "type": "INVOKE_FUNCTION",
            "sequenceKUID": "pagespecificSubMenu",
            "display": "pagespecificSubMenu",
            "inputparams": [],
            "source": "module"
        }]
    }
}