{
    "p2kwiet2012247645428_btnAddBillerSearch_onClick_seq0": {
        "id": "p2kwiet2012247645428_btnAddBillerSearch_onClick_seq0",
        "type": "ACTION_SEQUENCE",
        "params": [{
            "name": "eventobject",
            "value": "eventobject"
        }],
        "language": "js",
        "actions": [{
            "id": "expression_onClick_1956120122476761",
            "type": "ADD_SNIPPET",
            "codeSnippet": "frmIBMyTopUpsHome.segBillersList.setVisibility(false);\n frmIBMyTopUpsHome.lblMyBills.setVisibility(false);\n frmIBMyTopUpsHome.hbxMore.setVisibility(false);\n frmIBMyTopUpsHome.segSuggestedBillersList.removeAll();\n frmIBMyTopUpsHome.hbxSugBillersContainer.setVisibility(true);\n isSelectTopupEnabled=true;\n gblTopUpMore=0;\n gblCustTopUpMore= 0;"
        }, {
            "id": "customcode_onClick_36856201224767780",
            "type": "INVOKE_FUNCTION",
            "sequenceKUID": "getMyTopUpSuggestListIB",
            "display": "getMyTopUpSuggestListIB",
            "inputparams": [],
            "source": "module"
        }]
    }
}