{
    "p2kwiet2012247647851_lblConfirm_onClick_seq0": {
        "id": "p2kwiet2012247647851_lblConfirm_onClick_seq0",
        "type": "ACTION_SEQUENCE",
        "params": [{
            "name": "eventobject",
            "value": "eventobject"
        }],
        "language": "js",
        "actions": [{
            "id": "customcode_onClick_64128201224767882",
            "type": "INVOKE_FUNCTION",
            "sequenceKUID": "onClickExecutePreConfirm",
            "display": "onClickExecutePreConfirm",
            "inputparams": [],
            "source": "module"
        }]
    }
}