{
    "p2kwiet2012247645129_txtemail_DESKTOPWEB_onEndEditing_seq0": {
        "id": "p2kwiet2012247645129_txtemail_DESKTOPWEB_onEndEditing_seq0",
        "type": "ACTION_SEQUENCE",
        "params": [{
            "name": "eventobject",
            "value": "eventobject"
        }, {
            "name": "changedtext",
            "value": "changedtext"
        }],
        "language": "js",
        "actions": [{
            "id": "expression_onEndEditing_57092201224766537",
            "type": "ADD_SNIPPET",
            "codeSnippet": "//frmIBMyReceipentsAddContactManually.hbox101071681347.skin=\"SkinDefaults\";"
        }]
    }
}