{
    "p2kwiet2012247641211_button474288733659_onClick_seq0": {
        "id": "p2kwiet2012247641211_button474288733659_onClick_seq0",
        "type": "ACTION_SEQUENCE",
        "params": [{
            "name": "eventobject",
            "value": "eventobject"
        }],
        "language": "js",
        "actions": [{
            "id": "expression_onClick_6237920122476814",
            "type": "ADD_SNIPPET",
            "codeSnippet": "editbuttonflag=\"password\";\n gblShowPwd = 1;\n frmIBCMChgPwd.tbxTranscCrntPwd.text = \"\"\n frmIBCMChgPwd.txtPassword.text = \"\"\n frmIBCMChgPwd.txtRetypePwd.text = \"\"\n frmIBCMChgPwd.tbxTranscCrntPwd.setFocus(true);\n frmIBCMChgPwd.hbxRequest.setVisibility(false);\n frmIBCMChgPwd.lnkHeader.setVisibility(true);\n frmIBCMChgPwd.lblConfirmation.setVisibility(true);\n frmIBCMChgPwd.hbox47428873359193.setVisibility(true);\n frmIBCMChgPwd.hbxCancelSaveOld.setVisibility(true);\n frmIBCMChgPwd.ArrowEditProf.setVisibility(true);\n frmIBCMChgPwd.arrowrequest.setVisibility(false);\n "
        }, {
            "id": "customcode_onClick_7823020122476964",
            "type": "INVOKE_FUNCTION",
            "sequenceKUID": "getIBEditProfileStatus",
            "display": "getIBEditProfileStatus",
            "inputparams": [],
            "source": "module"
        }]
    }
}