{
    "p2kwiet2012247639664_link44923078142734_onClick_seq0": {
        "id": "p2kwiet2012247639664_link44923078142734_onClick_seq0",
        "type": "ACTION_SEQUENCE",
        "params": [{
            "name": "eventobject",
            "value": "eventobject"
        }],
        "language": "js",
        "actions": [{
            "id": "customcode_onClick_16905201224767017",
            "type": "INVOKE_FUNCTION",
            "sequenceKUID": "onMyBBSelectMoreDynamic",
            "display": "onMyBBSelectMoreDynamic",
            "inputparams": [],
            "source": "module"
        }]
    }
}