{
    "p2kwiet2012247645218_btnBackToHome_onClick_seq0": {
        "id": "p2kwiet2012247645218_btnBackToHome_onClick_seq0",
        "type": "ACTION_SEQUENCE",
        "params": [{
            "name": "eventobject",
            "value": "eventobject"
        }],
        "language": "js",
        "actions": [{
            "id": "customcode_onClick_37704201224769433",
            "type": "INVOKE_FUNCTION",
            "sequenceKUID": "destroyAllForms",
            "display": "destroyAllForms",
            "inputparams": [],
            "source": "module"
        }, {
            "id": "navigation_onClick_89531201224761643",
            "type": "NAVIGATE_TO_FORM",
            "formId": "frmIBMyReceipentsHome",
            "formKUID": "p2kwiet2012247645274",
            "mappings": {},
            "mappingsOrder": [],
            "parentId": "",
            "enableMappingEditor": true,
            "package": ""
        }]
    }
}