{
    "p2kwiet2012247647022_txtAmntCashbackRopMile_DESKTOPWEB_onBeginEditing_seq0": {
        "id": "p2kwiet2012247647022_txtAmntCashbackRopMile_DESKTOPWEB_onBeginEditing_seq0",
        "type": "ACTION_SEQUENCE",
        "params": [{
            "name": "eventobject",
            "value": "eventobject"
        }, {
            "name": "changedtext",
            "value": "changedtext"
        }],
        "language": "js",
        "actions": [{
            "id": "customcode_onBeginEditing_91645201224769731",
            "type": "INVOKE_FUNCTION",
            "sequenceKUID": "onClickRewardsAnywhereHideRightPanel",
            "display": "onClickRewardsAnywhereHideRightPanel",
            "inputparams": [],
            "source": "module"
        }]
    }
}