{
    "p2kwiet2012247641918_txtPassword_onTextChange_seq0": {
        "id": "p2kwiet2012247641918_txtPassword_onTextChange_seq0",
        "type": "ACTION_SEQUENCE",
        "params": [{
            "name": "eventobject",
            "value": "eventobject"
        }, {
            "name": "changedtext",
            "value": "changedtext"
        }],
        "language": "js",
        "actions": [{
            "id": "customcode_onTextChange_91431201224769342",
            "type": "INVOKE_FUNCTION",
            "sequenceKUID": "passwordChangedIB",
            "display": "passwordChangedIB",
            "inputparams": [{
                "name": "curr_form",
                "value": "kony.application.getCurrentForm()"
            }],
            "source": "module"
        }]
    }
}