{
    "p2kwiet2012247638905_btnCancelPin_onClick_seq0": {
        "id": "p2kwiet2012247638905_btnCancelPin_onClick_seq0",
        "type": "ACTION_SEQUENCE",
        "params": [{
            "name": "eventobject",
            "value": "eventobject"
        }],
        "language": "js",
        "actions": [{
            "id": "decision_onClick_43711201224764703",
            "type": "IF_CONDITION",
            "conditions": [{
                "leftValueType": "expression",
                "leftValue": "frmIBAnyIDRegistration.hbxOtpBox.isVisible"
            }],
            "criteria": "all"
        }, {
            "id": "decision_onClick_14565201224764913",
            "type": "ELSE_CONDITION",
            "conditions": [],
            "criteria": "all"
        }, {
            "id": "expression_onClick_94795201224768989",
            "type": "ADD_SNIPPET",
            "codeSnippet": "frmIBAnyIDRegistration.hbxOtpBox.isVisible=false;\n enableDisableAnyIDAllClickableOnOTP(true);",
            "parentId": "decision_onClick_43711201224764703"
        }, {
            "id": "customcode_onClick_65325201224763117",
            "type": "INVOKE_FUNCTION",
            "sequenceKUID": "navigatetoAnyIDBrief",
            "display": "navigatetoAnyIDBrief",
            "inputparams": [],
            "parentId": "decision_onClick_14565201224764913",
            "source": "module"
        }]
    }
}