{
    "p2kwiet2012247641578_button449081826392299_onClick_seq0": {
        "id": "p2kwiet2012247641578_button449081826392299_onClick_seq0",
        "type": "ACTION_SEQUENCE",
        "params": [{
            "name": "eventobject",
            "value": "eventobject"
        }],
        "language": "js",
        "actions": [{
            "id": "expression_onClick_6726201224769309",
            "type": "ADD_SNIPPET",
            "codeSnippet": "editbuttonflag = \"number\"\n gblMobNoTransLimitFlag = true;\n flagMobNum=\"new\";\n frmIBCMChgMobNoTxnLimit.hbxRequest.setVisibility(false);\n frmIBCMChgMobNoTxnLimit.lblHead.setVisibility(true);\n frmIBCMChgMobNoTxnLimit.hbxChangeMobileNumber.setVisibility(true);\n frmIBCMChgMobNoTxnLimit.arrowrequest.setVisibility(false);\n frmIBCMChgMobNoTxnLimit.ArrowMobNu.setVisibility(true);\n "
        }, {
            "id": "customcode_onClick_23012201224768484",
            "type": "INVOKE_FUNCTION",
            "sequenceKUID": "getIBEditProfileStatus",
            "display": "getIBEditProfileStatus",
            "inputparams": [],
            "source": "module"
        }]
    }
}