{
    "AS_HBox_d767c8a26c5a499bbe31e222c13a083d": {
        "id": "AS_HBox_d767c8a26c5a499bbe31e222c13a083d",
        "type": "ACTION_SEQUENCE",
        "name": "popIBTransferOptions_onClickToEWalletID_onClick",
        "params": [{
            "datatype": "collection",
            "name": "eventobject"
        }],
        "contextObj": {
            "name": "popIBTransferOptions",
            "type": "popups",
            "platform": "",
            "KUID": "h9e45eab184e4346b23b342763834e22"
        },
        "language": "js",
        "actions": [{
            "id": "INVOKE_FUNCTION___abfbc478ba2342abb82dceb690223458",
            "type": "INVOKE_FUNCTION",
            "sequenceKUID": "onClickToEWalletID",
            "display": "onClickToEWalletID",
            "inputparams": [],
            "parentId": null,
            "callbackType": null,
            "disabled": null,
            "source": "module"
        }]
    }
}