{
    "AS_VBox_ae76d1b571da415f89925f090a414f95": {
        "id": "AS_VBox_ae76d1b571da415f89925f090a414f95",
        "type": "ACTION_SEQUENCE",
        "name": "popIBTransferOptions_vboxClose_onClick",
        "params": [{
            "datatype": "collection",
            "name": "eventobject"
        }],
        "contextObj": {
            "name": "popIBTransferOptions",
            "type": "popups",
            "platform": "",
            "KUID": "h9e45eab184e4346b23b342763834e22"
        },
        "language": "js",
        "actions": [{
            "id": "INVOKE_FUNCTION___f5c9a02a04424f0b8d52eaeedaed6ba6",
            "type": "INVOKE_FUNCTION",
            "sequenceKUID": "closepopIBTransferOptions",
            "display": "closepopIBTransferOptions",
            "inputparams": [],
            "parentId": null,
            "callbackType": null,
            "disabled": null,
            "source": "module"
        }]
    }
}