{
    "AS_Form_bbb367adb56c423988f85b6d69ed0b44": {
        "id": "AS_Form_bbb367adb56c423988f85b6d69ed0b44",
        "type": "ACTION_SEQUENCE",
        "name": "postshowIBMFpurchaseLP",
        "params": [{
            "datatype": "collection",
            "name": "eventobject"
        }],
        "contextObj": {
            "name": "frmIBMFSelPurchaseFundsLP",
            "type": "forms",
            "platform": "",
            "KUID": "i713ad712b6d469bbecd425063286e9c"
        },
        "language": "js",
        "actions": [{
            "id": "NAMED_ACTION____gad9b18d03a346ca9faea1bb9137baba",
            "type": "NAMED_ACTION",
            "sequenceKUID": "AS_NamedActions_ec5785c44af14a65bc06c9d185002707",
            "display": "addMenuIBAction",
            "inputparams": [],
            "parentId": null,
            "callbackType": null,
            "disabled": null,
            "isMasterInstanceAction": null
        }]
    }
}