{
    "AS_Form_a39eed4a89bf40e282a3df4b9b9f1614": {
        "id": "AS_Form_a39eed4a89bf40e282a3df4b9b9f1614",
        "type": "ACTION_SEQUENCE",
        "name": "preshowIBMFTnC",
        "params": [{
            "datatype": "collection",
            "name": "eventobject"
        }],
        "contextObj": {
            "name": "frmIBMFTnC",
            "type": "forms",
            "platform": "",
            "KUID": "g0f93308893141da9ff3ce7e00d7a851"
        },
        "language": "js",
        "actions": [{
            "id": "ADD_SNIPPET__e084be267c984a3397bdb66531366893",
            "type": "ADD_SNIPPET",
            "codeSnippet": "addMenutoIBMF();",
            "parentId": null,
            "callbackType": null
        }]
    }
}