{
    "AS_Form_c2b8e003f4e440bc9e5bf212376c5ef3": {
        "id": "AS_Form_c2b8e003f4e440bc9e5bf212376c5ef3",
        "type": "ACTION_SEQUENCE",
        "name": "preShowFrmIBMFSelPurchaseFundsLPAction",
        "params": [{
            "datatype": "collection",
            "name": "eventobject"
        }],
        "contextObj": {
            "name": "frmIBMFSelPurchaseFundsLP",
            "type": "forms",
            "platform": "",
            "KUID": "i713ad712b6d469bbecd425063286e9c"
        },
        "language": "js",
        "actions": [{
            "id": "INVOKE_FUNCTION___da388e0b69bf4fd18081cb0fccc40767",
            "type": "INVOKE_FUNCTION",
            "sequenceKUID": "preShowFrmIBMFSelPurchaseFundsLP",
            "display": "preShowFrmIBMFSelPurchaseFundsLP",
            "inputparams": [],
            "parentId": null,
            "callbackType": null,
            "disabled": null,
            "source": "module"
        }]
    }
}