{
    "TMBpreappinit": {
        "id": "TMBpreappinit",
        "type": "ACTION_SEQUENCE",
        "params": [{
            "name": "params",
            "value": "params"
        }],
        "language": "js",
        "actions": [{
            "id": "expression_preappinit_76901201224769125",
            "type": "ADD_SNIPPET",
            "codeSnippet": "kony.license.disableMetricReporting();\n kony.application.setApplicationBehaviors({ \n skipEscapeHtml:true \n });"
        }, {
            "id": "customcode_preappinit_55628201224769755",
            "type": "INVOKE_FUNCTION",
            "sequenceKUID": "defineTMBGlobals",
            "display": "defineTMBGlobals",
            "inputparams": [],
            "source": "module"
        }, {
            "id": "decision_preappinit_38922201224764136",
            "type": "IF_CONDITION",
            "conditions": [{
                "leftValueType": "expression",
                "leftValue": "isMFEnabled"
            }],
            "criteria": "all",
            "disabled": true
        }, {
            "id": "decision_preappinit_85523201224768180",
            "type": "ELSE_CONDITION",
            "conditions": [{
                "leftValueType": "widgetprop",
                "leftValue": "",
                "operator": "===",
                "rightValueType": "widgetprop",
                "rightValue": ""
            }],
            "criteria": "all",
            "disabled": true
        }, {
            "id": "ADD_SNIPPET__b5131e43432140a6ad0fd6f23cd14a46",
            "type": "ADD_SNIPPET",
            "codeSnippet": "initializeMFSDKIB();",
            "parentId": null,
            "callbackType": null
        }, {
            "id": "customcode_preappinit_54123201224765654",
            "type": "INVOKE_FUNCTION",
            "sequenceKUID": "appMFPostInitIB",
            "display": "appMFPostInitIB",
            "inputparams": [],
            "parentId": "decision_preappinit_38922201224764136",
            "disabled": true,
            "source": "module"
        }, {
            "id": "customcode_preappinit_6903920122476668",
            "type": "INVOKE_FUNCTION",
            "sequenceKUID": "loadResourceBundleIB",
            "display": "loadResourceBundleIB",
            "inputparams": [{
                "name": "customCallback"
            }, {
                "name": "loadResourceBundleIBGetContentUpdate"
            }],
            "parentId": "decision_preappinit_85523201224768180",
            "disabled": true,
            "source": "module"
        }]
    }
}