{
    "DNDConfig": null,
    "__parentReadjusting__": false,
    "_height_": {
        "type": "string",
        "value": "30dp"
    },
    "_margin_": [
        0,
        0,
        0,
        0
    ],
    "_orientation_": 6,
    "_padding_": [
        0,
        0,
        0,
        0
    ],
    "_percent_": true,
    "_skin_": "s75df0c6619e467cb825069055552c29",
    "_top_": {
        "type": "string",
        "value": "0dp"
    },
    "_width_": {
        "type": "string",
        "value": "30dp"
    },
    "allboxes": [],
    "autogrowmode": 0,
    "canUpdateUI": true,
    "centerx": {
        "type": "string",
        "value": "10%"
    },
    "centery": {
        "type": "string",
        "value": "50%"
    },
    "children": [
        "ImageCheckList"
    ],
    "clipbounds": true,
    "containerweight": 100,
    "enablescrolling": true,
    "id": "flxlblcircleaccept",
    "info": null,
    "isvisible": true,
    "kuid": "e8374a9bdac644b0bbdefde92c43130c",
    "layouttype": 2,
    "name": "kony.ui.FlexContainer",
    "parent": "flxNCBAccept",
    "pf": "frmLetterConsent",
    "snapgridsize": 10,
    "snaptogrid": true,
    "wType": "FlexContainer",
    "widgetalignment": 1,
    "zindex": 1
}