{
    "@class": "com.kony.gen.viz.model.component.KVizLabel",
    "DNDConfig": null,
    "__parentReadjusting__": false,
    "_height_": {
        "type": "ref",
        "value": "preferred"
    },
    "_left_": {
        "type": "string",
        "value": "0dp"
    },
    "_margin_": [
        1,
        1,
        1,
        1
    ],
    "_padding_": [
        0,
        0,
        0,
        0
    ],
    "_skin_": "s0c7d8fcecd64bd385a045bf53ca7ce7",
    "_text_": "",
    "_top_": {
        "type": "number",
        "value": "10"
    },
    "_width_": {
        "type": "string",
        "value": "90%"
    },
    "_wrapping_": 2,
    "android": {
        "textStyle": {
            "letterSpacing": 0,
            "strikeThrough": false
        }
    },
    "canUpdateUI": true,
    "centerx": {
        "type": "string",
        "value": "50%"
    },
    "containerweight": 100,
    "contentalignment": 4,
    "id": "lblContentConfirm",
    "info": null,
    "ipad": {
        "psp": {
            "wrapping": 2
        }
    },
    "iphone": {
        "psp": {
            "wrapping": 2
        }
    },
    "iscustomlayout": false,
    "isvisible": true,
    "kuid": "cf2853e4dfe9498f82f89a5db499b847",
    "name": "kony.ui.Label",
    "parent": "CopyflxNotAcceptNCBPopUp0jcdce24be12e40",
    "pf": "frmLetterConsent",
    "retaincontentalignment": false,
    "retainflexpositionproperties": false,
    "texti18n": "SuggestConfirm",
    "textstyle": {},
    "tooltip": "",
    "wType": "Label",
    "zindex": 1
}