{
    "@class": "com.kony.gen.viz.model.component.KVizRichText",
    "DNDConfig": null,
    "__parentReadjusting__": false,
    "_height_": {
        "type": "ref",
        "value": "preferred"
    },
    "_margin_": [
        0,
        0,
        0,
        0
    ],
    "_padding_": [
        0,
        0,
        0,
        0
    ],
    "_skin_": "s92b0a23a43e435489f406e695c12af9",
    "_text_": "",
    "_width_": {
        "type": "string",
        "value": "100%"
    },
    "_wrapping_": 2,
    "canUpdateUI": true,
    "containerweight": 100,
    "contentalignment": 4,
    "id": "richtext446432445207554",
    "info": null,
    "isvisible": true,
    "kuid": "f4895e0c30944a8ab34b88237b75a24a",
    "name": "kony.ui.RichText",
    "parent": "flxDelMessage",
    "pf": "frmBillPaymentEditFutureNew",
    "wType": "RichText",
    "widgetalignment": 5,
    "zindex": 1
}