{
    "@class": "com.kony.gen.viz.model.component.KVizButton",
    "DNDConfig": null,
    "__markedForDelete__": true,
    "_margin_": [
        0,
        0,
        0,
        0
    ],
    "_padding_": [
        2,
        3,
        2,
        3
    ],
    "_skin_": "sf227e0f29174f0fad3744cc099738c2",
    "_text_": "All",
    "canUpdateUI": true,
    "containerweight": 33,
    "contentalignment": 5,
    "desktopweb": {
        "psp": {
            "hoverSkin": "sf227e0f29174f0fad3744cc099738c2"
        }
    },
    "displaytext": true,
    "focusskin": "sf227e0f29174f0fad3744cc099738c2",
    "id": "btnAll",
    "ide_onClick": "AS_Button_f5daa6f3dc414518b9dcc0169f4e2213",
    "info": null,
    "isvisible": true,
    "kuid": "a58b667170e0417b807db457d1b5c447",
    "margininpixel": false,
    "name": "kony.ui.Button",
    "paddInPixel": [
        18.44,
        18.44,
        18.44,
        18.44
    ],
    "paddinginpixel": false,
    "parent": "HBox0ffcda4dfeac74c",
    "pf": "frmIBMFSelRedeemFund",
    "wType": "Button"
}