{
    "@class": "com.kony.gen.viz.model.container.KVizVBox",
    "DNDConfig": null,
    "_margin_": [
        0,
        0,
        0,
        0
    ],
    "_orientation_": 2,
    "_padding_": [
        5,
        0,
        0,
        0
    ],
    "_percent_": true,
    "_position_": 3,
    "_skin_": "s0e13ed4077f481ab090dae6b2e595ed",
    "allboxes": [],
    "canUpdateUI": true,
    "children": [
        "CopyHBox0c75c3faeb3a945"
    ],
    "containerweight": 100,
    "contextmenu": null,
    "donotUpdateContainerWeight": false,
    "id": "CopyVBox0b05e53cd028549",
    "info": null,
    "isvisible": true,
    "kuid": "e7804b3181d94396bfc5a7690dfd5648",
    "layouttype": 0,
    "name": "kony.ui.Box",
    "paddInPixel": [
        23.65,
        0,
        0,
        0
    ],
    "paddinginpixel": false,
    "parent": "CopyHBox0acd71123f3384a",
    "pf": "frmIBMFSelRedeemFund",
    "wType": "VBox",
    "widgetalignment": 4
}