{
    "@class": "com.kony.gen.viz.model.container.KVizVBox",
    "DNDConfig": null,
    "__markedForDelete__": true,
    "_margin_": [
        0,
        0,
        0,
        0
    ],
    "_orientation_": 2,
    "_padding_": [
        0,
        0,
        0,
        0
    ],
    "_percent_": true,
    "_position_": 3,
    "_skin_": "s0e13ed4077f481ab090dae6b2e595ed",
    "allboxes": [],
    "canUpdateUI": true,
    "children": [
        "CopyImage0g7239807a60c40"
    ],
    "containerweight": 5,
    "contextmenu": null,
    "donotUpdateContainerWeight": false,
    "id": "CopyVBox0ia170813d9f643",
    "info": null,
    "isvisible": true,
    "kuid": "id48d9ec0e3e4e839da9b87000c2da8c",
    "layouttype": 0,
    "name": "kony.ui.Box",
    "paddInPixel": [
        0,
        0,
        0,
        0
    ],
    "parent": "HBoxSelectFund",
    "pf": "frmIBMFSelRedeemFund",
    "wType": "VBox",
    "widgetalignment": 4
}