{
    "@class": "com.kony.gen.viz.model.container.KVizHBox",
    "DNDConfig": null,
    "__markedForDelete__": true,
    "_margin_": [
        0,
        0,
        0,
        0
    ],
    "_orientation_": 1,
    "_padding_": [
        0,
        0,
        0,
        0
    ],
    "_percent_": true,
    "_position_": 3,
    "_skin_": "s3240d32b9a74cc78d1e0768cd2cdf1b",
    "allboxes": [],
    "canUpdateUI": true,
    "children": [
        "ScrollBox0c3656244fd0b49"
    ],
    "containerweight": 100,
    "contextmenu": null,
    "id": "HBox0c0dd18cb009a4c",
    "info": null,
    "isvisible": true,
    "kuid": "d7e28577d5714a5386407538eb93b099",
    "layouttype": 0,
    "name": "kony.ui.Box",
    "parent": "VBox0e29acffef57d42",
    "pf": "frmIBMFSelRedeemFund",
    "wType": "HBox",
    "widgetalignment": 1
}