{
    "@class": "com.kony.gen.viz.model.component.KVizTextBox2",
    "DNDConfig": null,
    "__markedForDelete__": true,
    "_margin_": [
        0,
        0,
        0,
        0
    ],
    "_padding_": [
        3,
        2,
        1,
        2
    ],
    "_placeholder_": "",
    "_skin_": "s4ddde8b262940a0b2fe2098958bbf08",
    "_text_": "0.00",
    "autocapitalize": "none",
    "autocomplete": false,
    "autocorrect": false,
    "autofilter": false,
    "canUpdateUI": true,
    "containerheight": "",
    "containerheightmode": 1,
    "containerweight": 100,
    "contentalignment": 5,
    "desktopweb": {
        "onEndEditing": "AS_TextField_da9729b8e1cb4920aa6be08bc9258b13",
        "onKeyUp": "AS_TextField_i7c4c498b3794db29539ad80bdbbcc98"
    },
    "donotUpdateContainerWeight": false,
    "focusskin": "s4d14933936b4ba497623537c020390a",
    "id": "txtAmount",
    "info": null,
    "isvisible": true,
    "keyboardstyle": "A",
    "keyboardtype": "A",
    "kiosk": {
        "psp": {
            "autoFilter": false
        }
    },
    "kuid": "e17bebfd39aa4d0f838dcc837b728d99",
    "margininpixel": false,
    "maxtextlength": 14,
    "mode": "A",
    "name": "kony.ui.TextBox2",
    "paddInPixel": [
        14.37,
        9.58,
        4.79,
        9.58
    ],
    "paddinginpixel": false,
    "parent": "HBox0fb99a0b2078f4b",
    "pf": "frmIBMFSelRedeemFund",
    "securetextentry": false,
    "textinputmode": "A",
    "viewtype": "default",
    "wType": "TextField"
}