{
    "_src_": "prod_currentac.png",
    "_text_": "default:prod_currentac.png",
    "android": {
        "@class": "com.kony.gen.viz.model.component.property.image.AndroidImageProperty",
        "_margin_": [
            0,
            0,
            0,
            2
        ],
        "margin": [
            0,
            0,
            0,
            2
        ],
        "marginInPixel": true,
        "render": true
    },
    "canUpdateUI": true,
    "containerweight": 100,
    "contentalignment": 5,
    "hexpand": false,
    "id": "img1",
    "imagescalemode": 2,
    "imagewhenfailed": "prod_currentac.png",
    "imagewhiledownloading": "prod_currentac.png",
    "iphone": {
        "@class": "com.kony.gen.viz.model.component.property.image.IPhoneImageProperty",
        "_margin_": [
            0,
            0,
            0,
            0
        ],
        "_padding_": [
            0,
            0,
            0,
            0
        ],
        "margin": [
            0,
            0,
            0,
            0
        ],
        "marginInPixel": true,
        "padding": [
            0,
            0,
            0,
            0
        ],
        "paddingInPixel": false,
        "psp": {
            "downloadProgressIndicator": true,
            "glossyEffect": 0
        },
        "render": true
    },
    "isvisible": true,
    "kuid": "p2kwiet2012247651759",
    "name": "kony.ui.Image",
    "parent": "vbox474284988575751",
    "pf": "segSliderTemp1",
    "spa": {
        "@class": "com.kony.gen.viz.model.component.property.image.SPAImageProperty",
        "psp": {
            "imageScaleMode": "default",
            "renderAsAnchor": false
        }
    },
    "spaan": {
        "@class": "com.kony.gen.viz.model.component.property.image.SPAAndroidImageProperty",
        "_padding_": [
            0,
            0,
            0,
            0
        ],
        "heightWidth": "55,55",
        "padding": [
            0,
            0,
            0,
            0
        ],
        "paddingInPixel": false,
        "render": true
    },
    "spabb": {
        "@class": "com.kony.gen.viz.model.component.property.image.SPABBImageProperty",
        "_padding_": [
            0,
            0,
            0,
            0
        ],
        "padding": [
            0,
            0,
            0,
            0
        ],
        "paddingInPixel": false,
        "render": true
    },
    "spaip": {
        "@class": "com.kony.gen.viz.model.component.property.image.SPAIPhoneImageProperty",
        "_padding_": [
            0,
            0,
            0,
            0
        ],
        "heightWidth": "55,55",
        "padding": [
            0,
            0,
            0,
            0
        ],
        "paddingInPixel": false,
        "render": true
    },
    "spawinphone8": {
        "@class": "com.kony.gen.viz.model.component.property.image.SPAWinPhone8ImageProperty",
        "heightWidth": "0,0",
        "render": true
    },
    "vexpand": false,
    "wType": "Image0",
    "widgetalignment": 2,
    "winphone8": {
        "@class": "com.kony.gen.viz.model.component.property.image.WinPhone8ImageProperty",
        "psp": {
            "enableCache": false
        },
        "render": true
    }
}