{
    "DNDConfig": null,
    "_enabled_": false,
    "_margin_": [
        0,
        0,
        0,
        4
    ],
    "_padding_": [
        0,
        0,
        0,
        0
    ],
    "_skin_": "s93af69726d94af5b449181427c2310e",
    "_text_": " Open New Account",
    "_wrapping_": 2,
    "canUpdateUI": true,
    "containerweight": 100,
    "contentalignment": 2,
    "desktopweb": {
        "@class": "com.kony.gen.viz.model.component.property.label.DesktopWebLabelProperty",
        "_padding_": [
            0,
            1,
            0,
            0
        ],
        "padding": [
            0,
            1,
            0,
            0
        ],
        "paddingInPixel": false,
        "psp": {
            "textCopyable": false
        },
        "render": true
    },
    "hexpand": true,
    "id": "lblOpenNewAccount",
    "info": null,
    "isvisible": true,
    "kiosk": {
        "@class": "com.kony.gen.viz.model.component.property.label.KioskLabelProperty",
        "render": true
    },
    "kuid": "p2kwiet2012247645640",
    "margininpixel": false,
    "name": "kony.ui.Label",
    "paddinginpixel": false,
    "parent": "vboxMiddle",
    "pf": "frmIBOpenActSelProd",
    "spa": {
        "@class": "com.kony.gen.viz.model.component.property.label.SPALabelProperty",
        "psp": {
            "textCopyable": false
        }
    },
    "texti18n": "kelblOpenNewAccount",
    "tooltip": "",
    "vexpand": false,
    "wType": "Label",
    "widgetalignment": 2
}