{
    "DNDConfig": null,
    "_data_": [
        {
            "imgprofilepic": {
                "@class": "com.viz.ide.model.segment.ImageSegmentData",
                "src": "avatar_dis.png"
            },
            "lblMobile": {
                "@class": "com.viz.ide.model.segment.SimpleTextSegmentData",
                "text": "081-234-5678"
            },
            "lblName": {
                "@class": "com.viz.ide.model.segment.SimpleTextSegmentData",
                "text": "Sophie Smith"
            },
            "lblUsername": {
                "@class": "com.viz.ide.model.segment.SimpleTextSegmentData",
                "text": "sophie@gmail.com"
            }
        },
        {
            "imgprofilepic": {
                "@class": "com.viz.ide.model.segment.ImageSegmentData",
                "src": "avatar_dis.png"
            },
            "lblMobile": {
                "@class": "com.viz.ide.model.segment.SimpleTextSegmentData",
                "text": "081-234-5678"
            },
            "lblName": {
                "@class": "com.viz.ide.model.segment.SimpleTextSegmentData",
                "text": "Sophie Smith"
            },
            "lblUsername": {
                "@class": "com.viz.ide.model.segment.SimpleTextSegmentData",
                "text": "sophie@gmail.com"
            }
        },
        {
            "imgprofilepic": {
                "@class": "com.viz.ide.model.segment.ImageSegmentData",
                "src": "avatar_dis.png"
            },
            "lblMobile": {
                "@class": "com.viz.ide.model.segment.SimpleTextSegmentData",
                "text": "081-234-5678"
            },
            "lblName": {
                "@class": "com.viz.ide.model.segment.SimpleTextSegmentData",
                "text": "Sophie Smith"
            },
            "lblUsername": {
                "@class": "com.viz.ide.model.segment.SimpleTextSegmentData",
                "text": "sophie@gmail.com"
            }
        }
    ],
    "_enabled_": false,
    "_indicator_": "none",
    "_margin_": [
        0,
        0,
        0,
        0
    ],
    "_orientation_": 1,
    "_padding_": [
        0,
        0,
        0,
        0
    ],
    "_skin_": "seg2Normal",
    "android": {
        "@class": "com.kony.gen.viz.model.container.property.segment2.AndroidSegment2Property",
        "psp": {
            "dockSectionHeaders": false
        },
        "render": true,
        "viewConfig": {
            "coverflowConfig": {
                "isCircular": true,
                "projectionAngle": 60
            }
        },
        "viewType": "tableview"
    },
    "canUpdateUI": true,
    "containerheightreference": 1,
    "containerweight": 100,
    "context": {
        "channel": "mobile",
        "formID": "AdvancedWidgetsSegements",
        "templateType": "segments",
        "topLevelBox": false
    },
    "counter": "02",
    "focusedindex": null,
    "focuseditem": null,
    "generatedtemplate": "p2kwiet2012247634712",
    "groupcells": false,
    "hasSections": false,
    "hiddencolumns": {},
    "id": "sgmntFBFrndsRecpList",
    "info": null,
    "iphone": {
        "@class": "com.kony.gen.viz.model.container.property.segment2.IPhoneSegment2Property",
        "_margin_": [
            0,
            0,
            0,
            0
        ],
        "_padding_": [
            0,
            0,
            0,
            0
        ],
        "margin": [
            0,
            0,
            0,
            0
        ],
        "marginInPixel": false,
        "padding": [
            0,
            0,
            0,
            0
        ],
        "paddingInPixel": false,
        "psp": {
            "bounces": false,
            "editStyle": "none",
            "enableDictionary": false,
            "indicator": "none",
            "progressIndicatorColor": "white",
            "searchCriteria": 1,
            "showProgressIndicator": true
        },
        "render": true,
        "viewConfig": {
            "coverflowConfig": {}
        },
        "viewType": "tableview"
    },
    "isvisible": true,
    "kuid": "p2kwiet2012247634695",
    "layoutalignment": 3,
    "margininpixel": false,
    "name": "kony.ui.SegmentedUI2",
    "needpageindicator": true,
    "paddinginpixel": false,
    "paginationconfig": {
        "position": "bottom"
    },
    "parent": "sboxRight",
    "pf": "frmMyRecipientSelectFBComp",
    "retainselection": false,
    "rowTemplateId": "p2kwiet2012247634712",
    "rowcounter": 2,
    "rowfocusskin": "s95b453b58b14bb9b0213841c91e1f69",
    "rowskin": "sa210dd8f8314cf581d230b3d99ab471",
    "screenlevelwidget": false,
    "scrollingevents": false,
    "seccounter": 0,
    "sectionheaderskin": "se767cf77ac843aa8b4c335cbb5eda62",
    "selectedRows": null,
    "selectedState": false,
    "selectedindex": null,
    "selectedindices": null,
    "selecteditems": null,
    "selectedsectionindex": 0,
    "selectionbehavior": "default",
    "selectionbehaviorconfig": {},
    "separatorcolor": "c0c0c000",
    "separatorrequired": true,
    "separatorthickness": 1,
    "showscrollbars": false,
    "spa": {
        "@class": "com.kony.gen.viz.model.container.property.segment2.SPASegment2Property"
    },
    "spaan": {
        "@class": "com.kony.gen.viz.model.container.property.segment2.SPAAndroidSegment2Property",
        "_padding_": [
            0,
            0,
            0,
            0
        ],
        "padding": [
            0,
            0,
            0,
            0
        ],
        "paddingInPixel": false,
        "render": true
    },
    "spabb": {
        "@class": "com.kony.gen.viz.model.container.property.segment2.SPABBSegment2Property",
        "_padding_": [
            0,
            0,
            0,
            0
        ],
        "padding": [
            0,
            0,
            0,
            0
        ],
        "paddingInPixel": false,
        "render": true
    },
    "spaip": {
        "@class": "com.kony.gen.viz.model.container.property.segment2.SPAIPhoneSegment2Property",
        "_padding_": [
            0,
            0,
            0,
            0
        ],
        "padding": [
            0,
            0,
            0,
            0
        ],
        "paddingInPixel": false,
        "render": true
    },
    "spawinphone8": {
        "@class": "com.kony.gen.viz.model.container.property.segment2.SPAWinPhone8Segment2Property",
        "render": true
    },
    "viewtype": "tableview",
    "wType": "Segment",
    "widgetalignment": 1,
    "widgetdatamap": {
        "imgprofilepic": "imgprofilepic",
        "lblMobile": "lblMobile",
        "lblName": "lblName",
        "lblUsername": "lblUsername",
        "vbox4733076528984": "vbox4733076528984",
        "vbox4733076528990": "vbox4733076528990"
    },
    "winphone8": {
        "@class": "com.kony.gen.viz.model.container.property.segment2.WinPhone8Segment2Property",
        "_margin_": [
            0,
            0,
            0,
            0
        ],
        "_padding_": [
            0,
            0,
            0,
            0
        ],
        "margin": [
            0,
            0,
            0,
            0
        ],
        "marginInPixel": false,
        "padding": [
            0,
            0,
            0,
            0
        ],
        "paddingInPixel": false,
        "psp": {
            "enableCache": false
        },
        "render": true
    }
}