{
    "@class": "com.kony.gen.viz.model.container.KVizVBox",
    "DNDConfig": null,
    "_margin_": [
        0,
        0,
        0,
        0
    ],
    "_orientation_": 2,
    "_padding_": [
        2,
        0,
        2,
        0
    ],
    "_percent_": true,
    "_position_": 3,
    "_skin_": "s406f84d3f3c4e988928ebd4c0c5064a",
    "allboxes": [],
    "canUpdateUI": true,
    "children": [
        "lblMFHearder",
        "hbxLinks",
        "hbxMFImg",
        "hbxMessage",
        "hbxDateOfExpiry",
        "hbxUpdateNow",
        "hbxDoItLater"
    ],
    "containerweight": 100,
    "contextmenu": null,
    "id": "vbxContents",
    "info": null,
    "isvisible": true,
    "kuid": "gec5eb944cbd4b4384434337f497d0c3",
    "layouttype": 0,
    "name": "kony.ui.Box",
    "paddinginpixel": false,
    "parent": "HboxContents",
    "pf": "frmIBMFSuitExpiry",
    "wType": "VBox",
    "widgetalignment": 1
}