{
    "DNDConfig": null,
    "_enabled_": false,
    "_margin_": [
        0,
        0,
        5,
        0
    ],
    "_padding_": [
        0,
        7,
        0,
        7
    ],
    "_skin_": "s6c60ce7072941d2a6ad053931fbdede",
    "_text_": "",
    "canUpdateUI": true,
    "containerweight": 50,
    "contentalignment": 5,
    "desktopweb": {
        "@class": "com.kony.gen.viz.model.component.property.button.DesktopWebButtonProperty",
        "_margin_": [
            0,
            0,
            0,
            0
        ],
        "_padding_": [
            0,
            7,
            0,
            7
        ],
        "displayText": true,
        "margin": [
            0,
            0,
            0,
            0
        ],
        "marginInPixel": false,
        "padding": [
            0,
            7,
            0,
            7
        ],
        "paddingInPixel": false,
        "render": true
    },
    "displaytext": true,
    "focusskin": "s923aa87908a45519c4d26601e09d2b5",
    "hexpand": true,
    "id": "btnAddManually",
    "ide_onClick": "p2kwiet2012247645274_btnAddManually_onClick_seq0",
    "info": null,
    "isvisible": true,
    "kiosk": {
        "@class": "com.kony.gen.viz.model.component.property.button.KioskButtonProperty",
        "render": true
    },
    "kuid": "p2kwiet2012247645261",
    "margininpixel": false,
    "name": "kony.ui.Button",
    "paddinginpixel": false,
    "parent": "hboxBtnContainer",
    "pf": "frmIBMyReceipentsHome",
    "spa": {
        "@class": "com.kony.gen.viz.model.component.property.button.SPAButtonProperty",
        "displayText": true
    },
    "vexpand": false,
    "wType": "Button",
    "widgetalignment": 5
}