{
    "@class": "com.kony.gen.viz.model.container.KVizHBox",
    "DNDConfig": null,
    "__markedForDelete__": true,
    "_margin_": [
        0,
        0,
        0,
        0
    ],
    "_orientation_": 1,
    "_padding_": [
        0,
        0,
        0,
        0
    ],
    "_percent_": true,
    "_position_": 3,
    "_skin_": "s3240d32b9a74cc78d1e0768cd2cdf1b",
    "allboxes": [],
    "canUpdateUI": true,
    "children": [
        "CopyVBox0ga3b79ba5e714a"
    ],
    "containerweight": 100,
    "contextmenu": null,
    "id": "CopyHBox0j176ded05beb46",
    "info": null,
    "isvisible": true,
    "kuid": "fbe3cba8928e48d5af8508f5b907d428",
    "layouttype": 0,
    "margininpixel": false,
    "name": "kony.ui.Box",
    "parent": "VBox0e116b069c08d4d",
    "pf": "frmIBMFComplete",
    "wType": "HBox",
    "widgetalignment": 1
}