{
    "DNDConfig": null,
    "_enabled_": false,
    "_padding_": [
        0,
        0,
        0,
        0
    ],
    "_skin_": "s77e157ba8e8401a94d581b60f5ef840",
    "_text_": "",
    "canUpdateUI": true,
    "containerweight": 100,
    "contentalignment": 5,
    "desktopweb": {
        "@class": "com.kony.gen.viz.model.component.property.button.DesktopWebButtonProperty",
        "_margin_": [
            0,
            5,
            0,
            0
        ],
        "displayText": true,
        "margin": [
            0,
            5,
            0,
            0
        ],
        "marginInPixel": false,
        "render": true
    },
    "displaytext": true,
    "focusskin": "saf5a1fce4ff42c5bc839ca0602c8374",
    "hexpand": false,
    "id": "btnConfirm1",
    "ide_onClick": "p2kwiet2012247638079_btnConfirm1_onClick_seq0",
    "info": null,
    "isvisible": true,
    "kiosk": {
        "@class": "com.kony.gen.viz.model.component.property.button.KioskButtonProperty",
        "render": true
    },
    "kuid": "p2kwiet2012247638072",
    "name": "kony.ui.Button",
    "paddinginpixel": false,
    "parent": "vbox2101266882191424",
    "pf": "frmApplyMBviaIBConfirmation",
    "spa": {
        "@class": "com.kony.gen.viz.model.component.property.button.SPAButtonProperty",
        "displayText": true
    },
    "texti18n": "retToHome",
    "vexpand": false,
    "wType": "Button",
    "widgetalignment": 5
}