{
    "DNDConfig": null,
    "_enabled_": false,
    "_margin_": [
        0,
        2,
        2,
        2
    ],
    "_orientation_": 2,
    "_padding_": [
        0,
        0,
        0,
        0
    ],
    "_position_": 3,
    "_resize_": true,
    "_skin_": "sa53654b4113418f8dcb6d569eb3ef8f",
    "allboxes": [],
    "android": {
        "@class": "com.kony.gen.viz.model.container.property.vbox.AndroidVBoxProperty",
        "_margin_": [
            0,
            2,
            2,
            2
        ],
        "margin": [
            0,
            2,
            2,
            2
        ],
        "marginInPixel": true,
        "render": true
    },
    "borderCollapse": false,
    "canUpdateUI": true,
    "children": [
        "lblPaymentDetails",
        "label96811643038207",
        "hbox201224763750335",
        "hbxAmtValue",
        "hbxAmtInterest",
        "hbxAmtDisconnected",
        "hbox15245716321878295"
    ],
    "containerweight": 100,
    "id": "vbox96811643038203",
    "info": null,
    "iphone": {
        "@class": "com.kony.gen.viz.model.container.property.vbox.IPhoneVBoxProperty",
        "_margin_": [
            0,
            2,
            2,
            2
        ],
        "margin": [
            0,
            2,
            2,
            2
        ],
        "marginInPixel": true,
        "render": true
    },
    "isvisible": true,
    "kuid": "p2kwiet15245716321611",
    "margininpixel": false,
    "name": "kony.ui.Box",
    "paddinginpixel": false,
    "parent": "hbxAmntFeeRefNo",
    "pf": "frmBillPaymentConfirmationFuture",
    "spa": {
        "@class": "com.kony.gen.viz.model.container.property.vbox.SPAVBoxProperty"
    },
    "spaan": {
        "@class": "com.kony.gen.viz.model.container.property.vbox.SPAAndroidVBoxProperty",
        "render": true
    },
    "spabb": {
        "@class": "com.kony.gen.viz.model.container.property.vbox.SPABBVBoxProperty",
        "render": true
    },
    "spaip": {
        "@class": "com.kony.gen.viz.model.container.property.vbox.SPAIPhoneVBoxProperty",
        "render": true
    },
    "spawinphone8": {
        "@class": "com.kony.gen.viz.model.container.property.vbox.SPAWinPhone8VBoxProperty",
        "render": true
    },
    "templateType": "forms",
    "wType": "VBox",
    "widgetalignment": 1,
    "winphone8": {
        "@class": "com.kony.gen.viz.model.container.property.vbox.WinPhone8VBoxProperty",
        "_margin_": [
            0,
            2,
            2,
            2
        ],
        "margin": [
            0,
            2,
            2,
            2
        ],
        "marginInPixel": true,
        "psp": {
            "enableCache": false
        },
        "render": true
    }
}