{
    "DNDConfig": null,
    "_enabled_": false,
    "_margin_": [
        2,
        2,
        0,
        2
    ],
    "_orientation_": 2,
    "_padding_": [
        0,
        0,
        0,
        0
    ],
    "_position_": 3,
    "_resize_": true,
    "_skin_": "s2a6296e4feb4f339a199369c63304c0",
    "allboxes": [],
    "android": {
        "@class": "com.kony.gen.viz.model.container.property.vbox.AndroidVBoxProperty",
        "_margin_": [
            2,
            2,
            0,
            2
        ],
        "margin": [
            2,
            2,
            0,
            2
        ],
        "marginInPixel": true,
        "render": true
    },
    "borderCollapse": false,
    "canUpdateUI": true,
    "children": [
        "lblTransCnfmTaxAmt",
        "lblTransCnfmTaxAmtVal"
    ],
    "containerweight": 50,
    "focusskin": "s2a6296e4feb4f339a199369c63304c0",
    "id": "vbxTaxAmnt",
    "info": null,
    "iphone": {
        "@class": "com.kony.gen.viz.model.container.property.vbox.IPhoneVBoxProperty",
        "_margin_": [
            2,
            2,
            0,
            2
        ],
        "margin": [
            2,
            2,
            0,
            2
        ],
        "marginInPixel": true,
        "render": true
    },
    "isvisible": true,
    "kuid": "p2kwiet2012247637449",
    "margininpixel": false,
    "name": "kony.ui.Box",
    "paddinginpixel": false,
    "parent": "hbxIntTaxAmnt",
    "pf": "frmTransferConfirm",
    "spa": {
        "@class": "com.kony.gen.viz.model.container.property.vbox.SPAVBoxProperty"
    },
    "spaan": {
        "@class": "com.kony.gen.viz.model.container.property.vbox.SPAAndroidVBoxProperty",
        "render": true
    },
    "spabb": {
        "@class": "com.kony.gen.viz.model.container.property.vbox.SPABBVBoxProperty",
        "render": true
    },
    "spaip": {
        "@class": "com.kony.gen.viz.model.container.property.vbox.SPAIPhoneVBoxProperty",
        "render": true
    },
    "spawinphone8": {
        "@class": "com.kony.gen.viz.model.container.property.vbox.SPAWinPhone8VBoxProperty",
        "render": true
    },
    "templateType": "forms",
    "wType": "VBox",
    "widgetalignment": 1,
    "winphone8": {
        "@class": "com.kony.gen.viz.model.container.property.vbox.WinPhone8VBoxProperty",
        "_margin_": [
            2,
            2,
            0,
            2
        ],
        "margin": [
            2,
            2,
            0,
            2
        ],
        "marginInPixel": true,
        "psp": {
            "enableCache": false
        },
        "render": true
    }
}