{
    "@class": "com.kony.gen.viz.model.component.KVizLabel",
    "DNDConfig": null,
    "__parentReadjusting__": false,
    "_height_": {
        "type": "string",
        "value": "80dp"
    },
    "_margin_": [
        1,
        1,
        1,
        1
    ],
    "_padding_": [
        0,
        0,
        0,
        0
    ],
    "_skin_": "s726538034f54d10b0020353d1521f55",
    "_text_": "A",
    "_width_": {
        "type": "string",
        "value": "80dp"
    },
    "_wrapping_": 2,
    "android": {
        "textStyle": {
            "letterSpacing": 0,
            "strikeThrough": false
        }
    },
    "canUpdateUI": true,
    "centerx": {
        "type": "string",
        "value": "50%"
    },
    "centery": {
        "type": "string",
        "value": "28%"
    },
    "containerweight": 100,
    "contentalignment": 5,
    "id": "lblSuccesandcompleteicon",
    "info": null,
    "ipad": {
        "psp": {
            "wrapping": 2
        }
    },
    "iphone": {
        "psp": {
            "wrapping": 2
        }
    },
    "isvisible": true,
    "kuid": "d1c20e9e5f3a4c02a0d5ccf4a3cfa4d1",
    "name": "kony.ui.Label",
    "paddinginpixel": false,
    "parent": "flxSubheader",
    "pf": "frmMBeKYCVerifyMobile",
    "textstyle": {},
    "tooltip": "",
    "wType": "Label",
    "zindex": 1
}