{
    "DNDConfig": null,
    "__parentReadjusting__": false,
    "_enabled_": false,
    "_height_": {
        "type": "string",
        "value": "100.0%"
    },
    "_margin_": [
        6,
        6,
        6,
        6
    ],
    "_padding_": [
        0,
        0,
        3,
        0
    ],
    "_right_": {
        "type": "string",
        "value": "0dp"
    },
    "_skin_": "sea8d5407d454d938c41509eb019e50d",
    "_text_": "Your QR",
    "_top_": {
        "type": "string",
        "value": "7dp"
    },
    "_width_": {
        "type": "ref",
        "value": "preferred"
    },
    "android": {
        "@class": "com.kony.gen.viz.model.component.property.button.AndroidButtonProperty",
        "displayText": true,
        "render": true
    },
    "canUpdateUI": true,
    "centery": {
        "type": "string",
        "value": "50.0%"
    },
    "containerweight": 0,
    "contentalignment": 5,
    "displaytext": true,
    "focusskin": "sea8d5407d454d938c41509eb019e50d",
    "hexpand": true,
    "id": "btnRight",
    "ide_onClick": "AS_Button_g3206a985377411fb226628cd6ccaf62",
    "info": null,
    "iphone": {
        "@class": "com.kony.gen.viz.model.component.property.button.IPhoneButtonProperty",
        "displayText": true,
        "psp": {
            "glowEffect": false,
            "showProgressIndicator": false
        },
        "render": true
    },
    "isvisible": true,
    "kuid": "b0eb1f183fed44e49d060667d0c1fe12",
    "margininpixel": false,
    "name": "kony.ui.Button",
    "paddinginpixel": false,
    "parent": "flxHeader",
    "pf": "frmscanqrLanding",
    "showprogressindicator": false,
    "spa": {
        "@class": "com.kony.gen.viz.model.component.property.button.SPAButtonProperty",
        "displayText": true
    },
    "spaan": {
        "@class": "com.kony.gen.viz.model.component.property.button.SPAAndroidButtonProperty",
        "render": true
    },
    "spabb": {
        "@class": "com.kony.gen.viz.model.component.property.button.SPABBButtonProperty",
        "render": false
    },
    "spaip": {
        "@class": "com.kony.gen.viz.model.component.property.button.SPAIPhoneButtonProperty",
        "render": true
    },
    "spawinphone8": {
        "@class": "com.kony.gen.viz.model.component.property.button.SPAWinPhone8ButtonProperty",
        "render": true
    },
    "texti18n": "btnMyQR",
    "vexpand": false,
    "wType": "Button",
    "widgetalignment": 5,
    "winphone8": {
        "@class": "com.kony.gen.viz.model.component.property.button.WinPhone8ButtonProperty",
        "displayText": true,
        "psp": {
            "enableCache": false
        },
        "render": true
    },
    "zindex": 1
}