{
    "@class": "com.kony.gen.viz.model.component.KVizLabel",
    "DNDConfig": null,
    "_margin_": [
        1,
        1,
        1,
        1
    ],
    "_padding_": [
        0,
        0,
        0,
        0
    ],
    "_skin_": "sc37039bd73a4cfeb86bb8e15d561c08",
    "_text_": "Please Select",
    "_wrapping_": 2,
    "android": {
        "textStyle": {
            "letterSpacing": 0,
            "strikeThrough": false
        }
    },
    "canUpdateUI": true,
    "containerweight": 62,
    "contentalignment": 4,
    "donotUpdateContainerWeight": false,
    "id": "lblSelectTransfer",
    "info": null,
    "ipad": {
        "psp": {
            "wrapping": 2
        }
    },
    "iphone": {
        "psp": {
            "wrapping": 2
        }
    },
    "isvisible": true,
    "kuid": "ie749fc12611499fb5ba2b741f924ce8",
    "name": "kony.ui.Label",
    "paddInPixel": [
        0,
        0,
        0,
        0
    ],
    "parent": "hbxBankMobileTransferNew",
    "pf": "frmIBTranferLP",
    "tooltip": "",
    "wType": "Label"
}