{
    "@class": "com.kony.gen.viz.model.component.KVizRichText",
    "DNDConfig": null,
    "__parentReadjusting__": false,
    "_height_": {
        "type": "ref",
        "value": "preferred"
    },
    "_left_": {
        "type": "string",
        "value": "0dp"
    },
    "_margin_": [
        0,
        0,
        0,
        0
    ],
    "_padding_": [
        0,
        0,
        0,
        0
    ],
    "_skin_": "s9cfb2fdc8de4cc2b57b995a633e468d",
    "_text_": "",
    "_top_": {
        "type": "string",
        "value": "0dp"
    },
    "_width_": {
        "type": "string",
        "value": "90%"
    },
    "_wrapping_": 2,
    "canUpdateUI": true,
    "centerx": {
        "type": "string",
        "value": "50%"
    },
    "containerweight": 100,
    "contentalignment": 4,
    "id": "richtextTutorial",
    "info": null,
    "isvisible": true,
    "kuid": "a118faced5ab4f67900ad68fa23e69af",
    "name": "kony.ui.RichText",
    "parent": "flexRichtext",
    "pf": "frmCardlesswithdrawComplete",
    "wType": "RichText",
    "widgetalignment": 5,
    "zindex": 1
}