
{

    "NSAppTransportSecurity" :
    {
        "NSAllowsArbitraryLoads" : true ,
        "NSExceptionDomains" :
            {
                "example.com" :
                    {
                        "NSIncludesSubdomains" : true ,
                        "NSExceptionAllowsInsecureHTTPLoads" : true
                    }
            }
    } ,
 
    "NSCameraUsageDescription" : "This application requires Camera access to work" ,
	"NSCalendarsUsageDescription" : "This application requires access to Calendar to work" ,
	"NSMicrophoneUsageDescription" : "This application requires access to microphone to work" ,
	"NSPhotoLibraryUsageDescription" : "This application requires access to Photos to work" ,
	"NSContactsUsageDescription" : "This application requires access to Phone Contacts to work" ,
	"NSLocationWhenInUseUsageDescription" : "This application requires location services to work" ,
	"NSSiriUsageDescription" : "This application requires access to Siri to work",
	"NSPhotoLibraryAddUsageDescription" : "This application requires access to Photos to work",
	"allowbundledonly" : true ,
	"FaceBookAppID" : "1545677452412617" ,
	"NSFaceIDUsageDescription" : "This application requires access to Face ID to work" ,
	"CFBundleIconName" : "AppIcon" ,
	"FacebookDisplayName" : "MIB" ,
	"statusBarStyle" : "STATUS_BAR_STYLE_LIGHT_CONTENT",
	



  
   "CFBundleURLTypes":
   {
	"Item 0":
   [
      {
         "CFBundleTypeRole" : "Editor",
         "CFBundleURLName" :"com.kone.TMB",
         "CFBundleURLSchemes": [
		 {
		 "Item 0" : "tmbtouch"
		 }
		 
		 ]
		 }
		 ],
		 
		 
		 "Item 1":
   [
      {
         "CFBundleTypeRole" : "Editor",
         "CFBundleURLName" :"insert-a370da70",
         "CFBundleURLSchemes": [
		 {
		 "Item 1" : "insert-a370da70"
		 }
		 
		 ]
      }
   ]
   },
   "LSApplicationQueriesSchemes" :
   
   [
      {
         "Item 0" : "line",
         "Item 1" :"fb-messenger",
         "Item 2" :"fb-messenger-api",
	"Item 3" :"tmbtouch"
      }
   ]
 
}