{
    "DNDConfig": null,
    "_enabled_": false,
    "_margin_": [
        32,
        0,
        0,
        0
    ],
    "_padding_": [
        0,
        0,
        0,
        60
    ],
    "_skin_": "s383995a163b4c2fa1400e65b7e39c08",
    "_text_": "",
    "canUpdateUI": true,
    "containerweight": 17,
    "contentalignment": 5,
    "desktopweb": {
        "@class": "com.kony.gen.viz.model.component.property.button.DesktopWebButtonProperty",
        "_margin_": [
            32,
            0,
            0,
            0
        ],
        "_padding_": [
            0,
            0,
            0,
            60
        ],
        "displayText": true,
        "margin": [
            32,
            0,
            0,
            0
        ],
        "marginInPixel": false,
        "padding": [
            0,
            0,
            0,
            60
        ],
        "paddingInPixel": false,
        "render": true
    },
    "displaytext": true,
    "focusskin": "sc3438eb616b484284f7de7f5e0b2cf8",
    "hexpand": true,
    "id": "btnAddAtCnfrmtn1",
    "ide_onClick": "p2kwiet2012247638763_btnAddAtCnfrmtn1_onClick_seq0",
    "info": null,
    "isvisible": true,
    "kiosk": {
        "@class": "com.kony.gen.viz.model.component.property.button.KioskButtonProperty",
        "_margin_": [
            32,
            0,
            0,
            0
        ],
        "_padding_": [
            0,
            0,
            0,
            60
        ],
        "margin": [
            32,
            0,
            0,
            0
        ],
        "marginInPixel": false,
        "padding": [
            0,
            0,
            0,
            60
        ],
        "paddingInPixel": false,
        "render": true
    },
    "kuid": "p2kwiet2012247638649",
    "margininpixel": false,
    "name": "kony.ui.Button",
    "paddinginpixel": false,
    "parent": "hbox44747680915788",
    "pf": "frmIBAddMyAccnt",
    "spa": {
        "@class": "com.kony.gen.viz.model.component.property.button.SPAButtonProperty",
        "displayText": true
    },
    "vexpand": false,
    "wType": "Button",
    "widgetalignment": 5
}