{
    "DNDConfig": null,
    "_enabled_": false,
    "_margin_": [
        0,
        0,
        0,
        0
    ],
    "_orientation_": 1,
    "_padding_": [
        0,
        0,
        0,
        0
    ],
    "_percent_": true,
    "_position_": 3,
    "_resize_": true,
    "_skin_": "s3cd729155364efe97d4fcd79c72daf8",
    "allboxes": [],
    "borderCollapse": false,
    "canUpdateUI": true,
    "children": [
        "link5028545855044",
        "line5028545854029",
        "link5028545855046",
        "line5028545854133",
        "link5028545855048",
        "line5028545854039",
        "link5028545855050",
        "line5028545854143",
        "link5028545854131",
        "line5028545854153",
        "link5028545854079",
        "line5028545854081",
        "link5028545854185",
        "line5028545854187",
        "link5028545854091",
        "line5028545854093",
        "link5028545854217"
    ],
    "containerweight": 100,
    "desktopweb": {
        "@class": "com.kony.gen.viz.model.container.property.hbox.DesktopWebHBoxProperty",
        "_padding_": [
            0,
            0,
            0,
            0
        ],
        "_position_": 3,
        "padding": [
            0,
            0,
            0,
            0
        ],
        "paddingInPixel": false,
        "position": 3,
        "render": true
    },
    "id": "hbox5028545855042",
    "info": null,
    "isvisible": true,
    "kiosk": {
        "@class": "com.kony.gen.viz.model.container.property.hbox.KioskHBoxProperty",
        "_position_": 3,
        "position": 3,
        "render": true
    },
    "kuid": "p2kwiet2012247651097",
    "layoutalignment": 3,
    "layouttype": 0,
    "margininpixel": false,
    "name": "kony.ui.Box",
    "paddinginpixel": false,
    "parent": "vbox5028545855026",
    "pf": "hdrIBfrmComplete",
    "spa": {
        "@class": "com.kony.gen.viz.model.container.property.hbox.SPAHBoxProperty"
    },
    "templateType": "forms",
    "wType": "HBox",
    "widgetalignment": 1
}