{
    "DNDConfig": null,
    "_enabled_": false,
    "_margin_": [
        0,
        0,
        0,
        0
    ],
    "_padding_": [
        0,
        0,
        0,
        0
    ],
    "_skin_": "s030b487403c4769b57959ce5ee61f0c",
    "_title_": "",
    "addWidgetsdone": false,
    "allboxes": [],
    "canUpdateUI": true,
    "children": [
        "hbxXferAll"
    ],
    "containerheightreference": 1,
    "containerweight": 100,
    "desktopweb": {
        "@class": "com.kony.gen.viz.model.container.property.form.DesktopWebFormProperty",
        "ide_onDeviceBack": "p2kwiet2012247638227_frmIBAccntFullStatement_DESKTOPWEB_onDeviceBack_seq0",
        "inTransitionConfig": {
            "formTransition": "none"
        },
        "isModal": false,
        "needAppMenu": true,
        "outTransitionConfig": {
            "formTransition": "none"
        },
        "psp": {
            "dockableAppMenu": true,
            "dockableFooter": true,
            "dockableHeader": true,
            "draggable": false,
            "minimizeOnLostFocus": false,
            "resizable": false
        },
        "render": true
    },
    "displayorientation": 3,
    "enabledforidletimeout": true,
    "footeroverlap": false,
    "footersId": "p2kwiet2012247651270",
    "headeroverlap": false,
    "headersId": "p2kwiet2012247651174",
    "id": "frmIBAccntFullStatement",
    "ide_postShow": "p2kwiet2012247638227_frmIBAccntFullStatement_postshow_seq0",
    "ide_preShow": "p2kwiet2012247638227_frmIBAccntFullStatement_preshow_seq0",
    "info": null,
    "initdone": false,
    "intransitionconfig": {
        "formTransition": "None"
    },
    "ismodal": false,
    "isvisible": true,
    "kuid": "frmIBAccntFullStatementDesktopweb",
    "layouttype": 0,
    "margininpixel": false,
    "menuposition": 2,
    "name": "kony.ui.Form2",
    "needappmenu": true,
    "outtransitionconfig": {
        "formTransition": "None"
    },
    "paddinginpixel": false,
    "percent": true,
    "restorewidgetprototypes": true,
    "retainscrollposition": false,
    "spa": {
        "@class": "com.kony.gen.viz.model.container.property.form.SPAFormProperty",
        "isModal": false,
        "needAppMenu": false,
        "psp": {
            "dockableAppMenu": true,
            "dockableFooter": true,
            "dockableHeader": true
        }
    },
    "templateType": "forms",
    "titleBarSkin": "sfa6e896438d4205a69f819cd18ad83e",
    "titlebar": true,
    "transparencybehindthepopup": 100,
    "type": 3,
    "wType": "Form",
    "widgetalignment": 1
}