{
    "AS_Button_gf16c7538f1c427d847de4726e585efe": {
        "id": "AS_Button_gf16c7538f1c427d847de4726e585efe",
        "type": "ACTION_SEQUENCE",
        "params": [{
            "datatype": "collection",
            "name": "eventobject"
        }],
        "contextObj": {
            "name": "frmMenu",
            "type": "forms",
            "platform": "",
            "KUID": "p2kwiet2012247633448"
        },
        "language": "js",
        "actions": [{
            "id": "ADD_SNIPPET__cf54c68f37954589bc5c1fbfc1b41775",
            "type": "ADD_SNIPPET",
            "codeSnippet": "animation = true;",
            "parentId": null,
            "callbackType": null
        }]
    }
}