{
    "AS_Button_a48cb1ab12644f5ea771c5fe6c114899": {
        "id": "AS_Button_a48cb1ab12644f5ea771c5fe6c114899",
        "type": "ACTION_SEQUENCE",
        "params": [{
            "datatype": "collection",
            "name": "eventobject"
        }],
        "language": "js",
        "actions": [{
            "id": "ADD_SNIPPET_ide_onClick_ja286aeab4914e8eb10e7e28297b3fef",
            "type": "ADD_SNIPPET",
            "codeSnippet": "gblMenuSource = \"TMB Bonus icon\";\nfrmLoyaltylanding.show();",
            "callbackType": null
        }]
    }
}