{
    "AS_Button_eb16706522424defb4e7cb39f918208c": {
        "id": "AS_Button_eb16706522424defb4e7cb39f918208c",
        "type": "ACTION_SEQUENCE",
        "params": [{
            "datatype": "collection",
            "name": "eventobject"
        }],
        "contextObj": {
            "name": "frmUVConfirmHome",
            "type": "forms",
            "platform": null,
            "KUID": "bcfcabe98de34d539ba3eec98db2d3fb"
        },
        "language": "js",
        "actions": [{
            "id": "INVOKE_FUNCTION__ide_onClick_fe75697077234844b36d9cd42fc3e001",
            "type": "INVOKE_FUNCTION",
            "sequenceKUID": "showAccountSummaryFromMenu",
            "display": "showAccountSummaryFromMenu",
            "inputparams": [],
            "callbackType": null,
            "disabled": null,
            "source": "module"
        }]
    }
}