{
    "AS_Button_7f5d996fe386440e9cc44ac3905395d8": {
        "id": "AS_Button_7f5d996fe386440e9cc44ac3905395d8",
        "type": "ACTION_SEQUENCE",
        "params": [{
            "datatype": "collection",
            "name": "eventobject"
        }],
        "contextObj": {
            "name": "frmPreTransferMB2",
            "type": "forms",
            "platform": "",
            "KUID": "3cef5546017f49349928a571d9829490"
        },
        "language": "js",
        "actions": [{
            "id": "ADD_SNIPPET__24140f42e49d4db9b11d3e7da4e97d1b",
            "type": "ADD_SNIPPET",
            "codeSnippet": "gblSelTransferMode = 3;",
            "parentId": null,
            "callbackType": null
        }, {
            "id": "INVOKE_FUNCTION___b867bc4e3996406288b80d211bc4d9ff",
            "type": "INVOKE_FUNCTION",
            "sequenceKUID": "toTransferPageFromPreLandingPage",
            "display": "toTransferPageFromPreLandingPage",
            "inputparams": [],
            "parentId": null,
            "callbackType": null,
            "disabled": null,
            "source": "module"
        }]
    }
}