{
    "AS_Button_j36edb48ba514fbcacce7da902f1a060": {
        "id": "AS_Button_j36edb48ba514fbcacce7da902f1a060",
        "type": "ACTION_SEQUENCE",
        "params": [{
            "name": "eventobject",
            "value": "eventobject"
        }],
        "contextObj": {
            "type": "forms",
            "platform": null,
            "KUID": "h8332d8bb35c4669bfcb58cc798c3bdd"
        },
        "language": "js",
        "actions": [{
            "id": "INVOKE_FUNCTION__ide_onClick_c1af312938cd4618ab943890f728be8d",
            "type": "INVOKE_FUNCTION",
            "sequenceKUID": "onClickManageOfRequestPinSuccessScreen",
            "display": "onClickManageOfRequestPinSuccessScreen",
            "inputparams": [],
            "source": "module"
        }]
    }
}