{
    "AS_Button_ifebf2e89e5a49b68479d72a83207d96": {
        "id": "AS_Button_ifebf2e89e5a49b68479d72a83207d96",
        "type": "ACTION_SEQUENCE",
        "params": [{
            "name": "eventobject",
            "value": "eventobject"
        }],
        "contextObj": {
            "name": "frmMBRTPBillerSettings",
            "type": "forms",
            "platform": null,
            "KUID": "be87bb53854a47eb9b3259f76e619e60"
        },
        "language": "js",
        "actions": [{
            "id": "INVOKE_FUNCTION__ide_onClick_d7c1ddb371d2465085d3eebec0382d6f",
            "type": "INVOKE_FUNCTION",
            "sequenceKUID": "onClickRTPGotItBtn",
            "display": "onClickRTPGotItBtn",
            "inputparams": [],
            "source": "module"
        }]
    }
}