{
    "AS_Button_f9ff79a68d294c20a3d6054f72fa359d": {
        "id": "AS_Button_f9ff79a68d294c20a3d6054f72fa359d",
        "type": "ACTION_SEQUENCE",
        "params": [{
            "name": "eventobject",
            "value": "eventobject"
        }],
        "contextObj": {
            "name": "frmMBPreLoginAccessesPin",
            "type": "forms",
            "platform": null,
            "KUID": "c84ceb06e41d48ef86b26874268ffbda"
        },
        "language": "js",
        "actions": [{
            "id": "INVOKE_FUNCTION__ide_onClick_f5878433ba584e79abeb5edcf47aaea5",
            "type": "INVOKE_FUNCTION",
            "sequenceKUID": "onClickForgotPin",
            "display": "onClickForgotPin",
            "inputparams": [],
            "source": "module"
        }]
    }
}