{
    "AS_Button_9b3bf1c6362c4f679812843ea59af0aa": {
        "id": "AS_Button_9b3bf1c6362c4f679812843ea59af0aa",
        "type": "ACTION_SEQUENCE",
        "params": [{
            "name": "eventobject",
            "value": "eventobject"
        }],
        "contextObj": {
            "name": "frmMFTnc",
            "type": "forms",
            "platform": null,
            "KUID": "d9fc9b5b76d2464f866934af2d824214"
        },
        "language": "js",
        "actions": [{
            "id": "IF_CONDITION_ide_onClick_05c7efac11864741aa6974685d636355",
            "type": "IF_CONDITION",
            "conditions": [{
                "leftValueType": "expression",
                "leftValue": "isMenuShown == false"
            }],
            "criteria": "all"
        }, {
            "id": "INVOKE_FUNCTION__ide_onClick_f530559a24e44e60853ff151f145a034",
            "type": "INVOKE_FUNCTION",
            "sequenceKUID": "onClickOfCancelSogoood",
            "display": "onClickOfCancelSogoood",
            "inputparams": [],
            "parentId": "IF_CONDITION_ide_onClick_05c7efac11864741aa6974685d636355",
            "source": "module"
        }, {
            "id": "ELSE_CONDITION_ide_onClick_d6351a805e0e4b50a730898e021e807a",
            "type": "ELSE_CONDITION",
            "conditions": [],
            "criteria": "all"
        }, {
            "id": "ADD_SNIPPET_ide_onClick_5a054c45a26647829d0dc25c6e845f50",
            "type": "ADD_SNIPPET",
            "codeSnippet": "isMenuShown = false;",
            "parentId": "ELSE_CONDITION_ide_onClick_d6351a805e0e4b50a730898e021e807a"
        }]
    }
}