{
    "AS_Button_f736dbf52592429f8b0d2d260b3b0038": {
        "id": "AS_Button_f736dbf52592429f8b0d2d260b3b0038",
        "type": "ACTION_SEQUENCE",
        "params": [{
            "datatype": "collection",
            "name": "eventobject"
        }],
        "language": "js",
        "actions": [{
            "id": "INVOKE_FUNCTION__ide_onClick_f27fc2091ff34cfaaf10a7229a5c33ff",
            "type": "INVOKE_FUNCTION",
            "sequenceKUID": "handleMenuBtn",
            "display": "handleMenuBtn",
            "inputparams": [],
            "callbackType": null,
            "disabled": null,
            "source": "module"
        }]
    }
}