{
    "AS_Button_ecfe858289654c36b4a98462518d4075": {
        "id": "AS_Button_ecfe858289654c36b4a98462518d4075",
        "type": "ACTION_SEQUENCE",
        "params": [{
            "name": "eventobject",
            "value": "eventobject"
        }],
        "language": "js",
        "actions": [{
            "id": "INVOKE_FUNCTION__ide_onClick_df3419f1a4ea471b82f58bb225116b85",
            "type": "INVOKE_FUNCTION",
            "sequenceKUID": "onClickLoginToQB",
            "display": "onClickLoginToQB",
            "inputparams": [],
            "source": "module"
        }]
    }
}