{
    "AS_Form_i93008ee972047adb8caa72297b45d5f": {
        "id": "AS_Form_i93008ee972047adb8caa72297b45d5f",
        "type": "ACTION_SEQUENCE",
        "name": "AS_eKYCVerifyMobile",
        "params": [{
            "datatype": "collection",
            "name": "eventobject"
        }],
        "contextObj": {
            "name": "frmMBeKYCVerifyMobile",
            "type": "forms",
            "platform": "",
            "KUID": "ec1f8f76724242e581ff661fac1a9977"
        },
        "language": "js",
        "actions": [{
            "id": "INVOKE_FUNCTION___b9925f98dc214d84be4773bbdf388a5b",
            "type": "INVOKE_FUNCTION",
            "sequenceKUID": "preShowfrmMBeKYCVerifyMobile",
            "display": "preShowfrmMBeKYCVerifyMobile",
            "inputparams": [],
            "parentId": null,
            "callbackType": null,
            "disabled": null,
            "source": "module"
        }]
    }
}