{
    "AS_FlexContainer_fa5bf35029d743b0b1e5bc1e2778efed": {
        "id": "AS_FlexContainer_fa5bf35029d743b0b1e5bc1e2778efed",
        "type": "ACTION_SEQUENCE",
        "params": [{
            "datatype": "collection",
            "name": "eventobject"
        }, {
            "datatype": "string",
            "name": "x"
        }, {
            "datatype": "string",
            "name": "y"
        }],
        "contextObj": {
            "name": "frmUVRequestHistoryNew",
            "type": "forms",
            "platform": null,
            "KUID": "geac0220be9645859efda520d34489a3"
        },
        "language": "js",
        "actions": [{
            "id": "INVOKE_FUNCTION__ide_onTouchEnd_e3c6ec94ccd845d78e8bf8913961d2da",
            "type": "INVOKE_FUNCTION",
            "sequenceKUID": "navigateTofrmUVTransReqHistoryDetails",
            "display": "navigateTofrmUVTransReqHistoryDetails",
            "inputparams": [],
            "callbackType": null,
            "disabled": null,
            "source": "module"
        }]
    }
}