{
    "AS_Form_c2dad0027f834588a4844418db6685ed": {
        "id": "AS_Form_c2dad0027f834588a4844418db6685ed",
        "type": "ACTION_SEQUENCE",
        "params": [{
            "datatype": "collection",
            "name": "eventobject"
        }],
        "contextObj": {
            "name": "frmUVConfirmHome",
            "type": "forms",
            "platform": "",
            "KUID": "bcfcabe98de34d539ba3eec98db2d3fb"
        },
        "language": "js",
        "actions": [{
            "id": "INVOKE_FUNCTION___e5a7772026d84c0eb8e83ad62153f278",
            "type": "INVOKE_FUNCTION",
            "sequenceKUID": "frmUVConfirmHomeMenuPreshow",
            "display": "frmUVConfirmHomeMenuPreshow",
            "inputparams": [],
            "parentId": null,
            "callbackType": null,
            "disabled": null,
            "source": "module"
        }]
    }
}