{
    "AS_FlexContainer_aa7539edebe741b4a366a4f742b55868": {
        "id": "AS_FlexContainer_aa7539edebe741b4a366a4f742b55868",
        "type": "ACTION_SEQUENCE",
        "params": [{
            "datatype": "collection",
            "name": "eventobject"
        }, {
            "datatype": "string",
            "name": "x"
        }, {
            "datatype": "string",
            "name": "y"
        }],
        "language": "js",
        "actions": [{
            "id": "INVOKE_FUNCTION__ide_onTouchStart_c029483d0f98410a91f3abdb140e5653",
            "type": "INVOKE_FUNCTION",
            "display": "<>",
            "inputparams": [],
            "callbackType": null,
            "disabled": true,
            "source": "module"
        }]
    }
}