{
    "AS_Form_e5bac2f5c6ea4db189dc6e397d4dd681": {
        "id": "AS_Form_e5bac2f5c6ea4db189dc6e397d4dd681",
        "type": "ACTION_SEQUENCE",
        "params": [{
            "datatype": "collection",
            "name": "eventobject"
        }],
        "contextObj": {
            "name": "frmMBPreLoginAccessesPin",
            "type": "forms",
            "platform": "",
            "KUID": "c84ceb06e41d48ef86b26874268ffbda"
        },
        "language": "js",
        "actions": [{
            "id": "INVOKE_FUNCTION___g4e71a145c5c4544ae48a10b8aefb063",
            "type": "INVOKE_FUNCTION",
            "sequenceKUID": "postshowPreAccessScreen",
            "display": "postshowPreAccessScreen",
            "inputparams": [],
            "parentId": null,
            "callbackType": null,
            "disabled": null,
            "source": "module"
        }]
    }
}