{
    "AS_FlexContainer_gaf3f2aedbde414d981dc097b748d3e0": {
        "id": "AS_FlexContainer_gaf3f2aedbde414d981dc097b748d3e0",
        "type": "ACTION_SEQUENCE",
        "params": [{
            "datatype": "collection",
            "name": "eventobject"
        }],
        "contextObj": {
            "name": "frmMBPreLoginAccessesPin",
            "type": "forms",
            "platform": "",
            "KUID": "c84ceb06e41d48ef86b26874268ffbda"
        },
        "language": "js",
        "actions": [{
            "id": "INVOKE_FUNCTION__ide_onClick_c1adaad2a86541fea05f8bb3f693516e",
            "type": "INVOKE_FUNCTION",
            "sequenceKUID": "accessPinOnClickLogin",
            "display": "accessPinOnClickLogin",
            "inputparams": [],
            "callbackType": null,
            "disabled": null,
            "source": "module"
        }]
    }
}