{
    "AS_FlexContainer_e17978ed229a4b7fadcb9b2e96cd3de3": {
        "id": "AS_FlexContainer_e17978ed229a4b7fadcb9b2e96cd3de3",
        "type": "ACTION_SEQUENCE",
        "params": [{
            "datatype": "collection",
            "name": "eventobject"
        }, {
            "datatype": "string",
            "name": "x"
        }, {
            "datatype": "string",
            "name": "y"
        }],
        "contextObj": {
            "name": "frmMBRTPStartUp",
            "type": "forms",
            "platform": "",
            "KUID": "c5fd40fb73f64b09806ac33004cb3e39"
        },
        "language": "js",
        "actions": []
    }
}