{
    "AS_Form_a83b37306a604460a3c1d40b94f766df": {
        "id": "AS_Form_a83b37306a604460a3c1d40b94f766df",
        "type": "ACTION_SEQUENCE",
        "params": [{
            "datatype": "collection",
            "name": "eventobject"
        }],
        "contextObj": {
            "name": "frmMBManageCardLimit",
            "type": "forms",
            "platform": "",
            "KUID": "a55272c398954c9aac96b9000c1eacd4"
        },
        "language": "js",
        "actions": [{
            "id": "INVOKE_FUNCTION___gf66249f7cea4e07bec580301d992fa7",
            "type": "INVOKE_FUNCTION",
            "sequenceKUID": "preShowfrmMBManageCardLimit",
            "display": "preShowfrmMBManageCardLimit",
            "inputparams": [],
            "parentId": null,
            "callbackType": null,
            "disabled": null,
            "source": "module"
        }]
    }
}