{
    "AS_Form_b2cea5a566b6458aae1c45d055f6ffdc": {
        "id": "AS_Form_b2cea5a566b6458aae1c45d055f6ffdc",
        "type": "ACTION_SEQUENCE",
        "name": "AS_Form_init_frmLoanAddress",
        "params": [{
            "datatype": "collection",
            "name": "eventobject"
        }],
        "contextObj": {
            "name": "frmLoanAddress",
            "type": "forms",
            "platform": "",
            "KUID": "f27c629ac03b4829aac84c4aec6b9d4e"
        },
        "language": "js",
        "actions": [{
            "id": "INVOKE_FUNCTION___hbf53ff342154b7ba7e5c12d6ff62841",
            "type": "INVOKE_FUNCTION",
            "sequenceKUID": "initLoanAddress",
            "display": "initLoanAddress",
            "inputparams": [],
            "parentId": null,
            "callbackType": null,
            "disabled": null,
            "source": "module"
        }]
    }
}