{
    "AS_FlexContainer_fc8b6da8cd934e0a851efa229472bd5e": {
        "id": "AS_FlexContainer_fc8b6da8cd934e0a851efa229472bd5e",
        "type": "ACTION_SEQUENCE",
        "params": [{
            "datatype": "collection",
            "name": "eventobject"
        }],
        "contextObj": {
            "name": "frmAccountSummaryLanding",
            "type": "forms",
            "platform": "",
            "KUID": "gf351423cbb54ebfbd98a3738e158cf6"
        },
        "language": "js",
        "actions": [{
            "id": "INVOKE_FUNCTION__ide_onClick_a8945fbe66e3407e93cf6d3f859ba42e",
            "type": "INVOKE_FUNCTION",
            "sequenceKUID": "onclickgetTransferFromAccountsFromAccSmry",
            "display": "onclickgetTransferFromAccountsFromAccSmry",
            "inputparams": [],
            "callbackType": null,
            "disabled": null,
            "source": "module"
        }]
    }
}