{
    "AS_Form_ca0488f93a9941c58c3a20ae2f1ddbf0": {
        "id": "AS_Form_ca0488f93a9941c58c3a20ae2f1ddbf0",
        "type": "ACTION_SEQUENCE",
        "params": [{
            "datatype": "collection",
            "name": "eventobject"
        }],
        "contextObj": {
            "name": "frmUploadManyFile",
            "type": "forms",
            "platform": null,
            "KUID": "c0b498cad83a4ec5aa8a5244f0c91ad4"
        },
        "language": "js",
        "actions": [{
            "id": "INVOKE_FUNCTION__ide_init_d4ee5e876982455fae48563487bee165",
            "type": "INVOKE_FUNCTION",
            "sequenceKUID": "frmUploadDocuments_init",
            "display": "frmUploadDocuments_init",
            "inputparams": [],
            "callbackType": null,
            "disabled": null,
            "source": "module"
        }]
    }
}