{
    "AS_Form_hb6015d9a3ce4ab2aa8532cc073a53d9": {
        "id": "AS_Form_hb6015d9a3ce4ab2aa8532cc073a53d9",
        "type": "ACTION_SEQUENCE",
        "name": "AS_Form_frmChangeLanguage_disableBack",
        "params": [{
            "datatype": "collection",
            "name": "eventobject"
        }],
        "contextObj": {
            "name": "frmChangeLanguage",
            "type": "forms",
            "platform": "",
            "KUID": "e55bd79cc4f4489196f3c6182a9f335a"
        },
        "language": "js",
        "actions": [{
            "id": "INVOKE_FUNCTION___idf350b4b53247488ac19483979151cc",
            "type": "INVOKE_FUNCTION",
            "sequenceKUID": "disableBackButton",
            "display": "disableBackButton",
            "inputparams": [],
            "parentId": null,
            "callbackType": null,
            "disabled": null,
            "source": "module"
        }]
    }
}