{
    "AS_FlexContainer_8edaeeb4f79446d5ab4d700b5ff1ff12": {
        "id": "AS_FlexContainer_8edaeeb4f79446d5ab4d700b5ff1ff12",
        "type": "ACTION_SEQUENCE",
        "params": [{
            "name": "eventobject",
            "value": "eventobject"
        }, {
            "name": "x",
            "value": "x"
        }, {
            "name": "y",
            "value": "y"
        }, {
            "name": "contextInfo",
            "value": "contextInfo"
        }],
        "contextObj": {
            "name": "frmMFTnc",
            "type": "forms",
            "platform": null,
            "KUID": "d9fc9b5b76d2464f866934af2d824214"
        },
        "language": "js",
        "actions": [{
            "id": "ADD_SNIPPET_ide_onTouchStart_7f3ca1512af940ec821aea1deb0fde2a",
            "type": "ADD_SNIPPET",
            "codeSnippet": "frmMBCashAdvanceTnC.buttonEmail.skin=\"btnEmailSCFoc\"\n frmMBCashAdvanceTnC.flexEmail.skin=\"flexLightBlueLine\";"
        }]
    }
}