{
    "AS_FlexContainer_g6e05bb9687846cc97a229d20a91a4fc": {
        "id": "AS_FlexContainer_g6e05bb9687846cc97a229d20a91a4fc",
        "type": "ACTION_SEQUENCE",
        "params": [{
            "datatype": "collection",
            "name": "eventobject"
        }, {
            "datatype": "string",
            "name": "x"
        }, {
            "datatype": "string",
            "name": "y"
        }],
        "language": "js",
        "actions": [{
            "id": "INVOKE_FUNCTION__ide_onTouchEnd_i179707dcd854865a32a00df22558e62",
            "type": "INVOKE_FUNCTION",
            "sequenceKUID": "navigateTofrmUVTransReqHistoryDetails",
            "display": "navigateTofrmUVTransReqHistoryDetails",
            "inputparams": [],
            "callbackType": null,
            "disabled": null,
            "source": "module"
        }]
    }
}