{
    "AS_HBox_e2f2995dbddc43699da395bae5231fb2": {
        "id": "AS_HBox_e2f2995dbddc43699da395bae5231fb2",
        "type": "ACTION_SEQUENCE",
        "params": [{
            "name": "eventobject",
            "value": "eventobject"
        }],
        "contextObj": {
            "name": "frmQRScreenShotCalendar",
            "type": "forms",
            "platform": null,
            "KUID": "c93843e3e016411b910a19c1def1dea0"
        },
        "language": "js",
        "actions": [{
            "id": "INVOKE_FUNCTION__ide_onClick_e91f1485ebc54b6dbaba0ba36b3e0988",
            "type": "INVOKE_FUNCTION",
            "sequenceKUID": "showHideMegaTransferDetails",
            "display": "showHideMegaTransferDetails",
            "inputparams": [],
            "source": "module"
        }]
    }
}