{
    "AS_Form_g555dcfa18764742bda99714b783661c": {
        "id": "AS_Form_g555dcfa18764742bda99714b783661c",
        "type": "ACTION_SEQUENCE",
        "name": "AS_preshowfrmCheckList",
        "params": [{
            "datatype": "collection",
            "name": "eventobject"
        }],
        "contextObj": {
            "name": "frmCheckList",
            "type": "forms",
            "platform": "",
            "KUID": "b8d14b96db514722a4e87265dc3449af"
        },
        "language": "js",
        "actions": [{
            "id": "INVOKE_FUNCTION___j7861598ae79409f93db48c8e464d01a",
            "type": "INVOKE_FUNCTION",
            "sequenceKUID": "preshowfrmCheckList",
            "display": "preshowfrmCheckList",
            "inputparams": [],
            "parentId": null,
            "callbackType": null,
            "disabled": null,
            "source": "module"
        }]
    }
}