{
    "AS_Form_d9b6f3e7d8e4475ba111444d21109024": {
        "id": "AS_Form_d9b6f3e7d8e4475ba111444d21109024",
        "type": "ACTION_SEQUENCE",
        "name": "frmCardlessWithdrawSelectAccount_BackButtonClick",
        "params": [{
            "datatype": "collection",
            "name": "eventobject"
        }, {
            "datatype": "string",
            "name": "neworientation"
        }],
        "contextObj": {
            "name": "frmCardlessWithdrawSelectAccount",
            "type": "forms",
            "platform": "",
            "KUID": "d195fbd982974adbafafc12dc18885f9"
        },
        "language": "js",
        "actions": [{
            "id": "INVOKE_FUNCTION___e5068d8484584e9783e79e5bb7a263d6",
            "type": "INVOKE_FUNCTION",
            "sequenceKUID": "disableBackButton",
            "display": "disableBackButton",
            "inputparams": [],
            "parentId": null,
            "callbackType": null,
            "disabled": null,
            "source": "module"
        }]
    }
}