{
    "AS_Form_e1fa056878bb45ce940a731d6030a47e": {
        "id": "AS_Form_e1fa056878bb45ce940a731d6030a47e",
        "type": "ACTION_SEQUENCE",
        "name": "frmEKYCIdpSetting_init_function",
        "params": [{
            "datatype": "collection",
            "name": "eventobject"
        }],
        "contextObj": {
            "name": "frmEKYCIdpSetting",
            "type": "forms",
            "platform": null,
            "KUID": "a2c1e6aa38684e4aab550f400a3ac1c0"
        },
        "language": "js",
        "actions": [{
            "id": "INVOKE_FUNCTION___bbfcaced24ab48e0aae553d20950ad3c",
            "type": "INVOKE_FUNCTION",
            "sequenceKUID": "frmEKYCIdpSetting_init_Action",
            "display": "frmEKYCIdpSetting_init_Action",
            "inputparams": [],
            "parentId": null,
            "callbackType": null,
            "disabled": null,
            "source": "module"
        }]
    }
}