{
    "AS_Form_d8fe3b46f22748d299da21c7642e202c": {
        "id": "AS_Form_d8fe3b46f22748d299da21c7642e202c",
        "type": "ACTION_SEQUENCE",
        "name": "frmEKYCIdpNoActive_init_function",
        "params": [{
            "datatype": "collection",
            "name": "eventobject"
        }],
        "contextObj": {
            "name": "frmEKYCIdpNoActive",
            "type": "forms",
            "platform": "",
            "KUID": "f37e2688c4364fefb3d658b1e8323784"
        },
        "language": "js",
        "actions": [{
            "id": "INVOKE_FUNCTION___j131a858d1c547fea894e21b65348f37",
            "type": "INVOKE_FUNCTION",
            "sequenceKUID": "frmEKYCIdpNoActive_init_action",
            "display": "frmEKYCIdpNoActive_init_action",
            "inputparams": [],
            "parentId": null,
            "callbackType": null,
            "disabled": null,
            "source": "module"
        }]
    }
}