{
    "AS_FlexContainer_c50a3e9e3e8f46d598c93f716a4f59b8": {
        "id": "AS_FlexContainer_c50a3e9e3e8f46d598c93f716a4f59b8",
        "type": "ACTION_SEQUENCE",
        "name": "frmEDonationPaymentComplete_FlexMore_OnClick",
        "params": [{
            "datatype": "collection",
            "name": "eventobject"
        }],
        "contextObj": {
            "name": "frmEDonationPaymentComplete",
            "type": "forms",
            "platform": "",
            "KUID": "f79ead596f324dfe8800d1ea7c48ef72"
        },
        "language": "js",
        "actions": [{
            "id": "CHANNEL_CONDITION__idce5e1b44e74d61a62a83ac09465313",
            "type": "CHANNEL_CONDITION",
            "platforms": ["android"],
            "parentId": null
        }, {
            "id": "CHANNEL_CONDITION__fb093169b71549228b7ba61dc18cb8ee",
            "type": "CHANNEL_CONDITION",
            "platforms": ["iphone"],
            "parentId": null
        }, {
            "id": "INVOKE_FUNCTION___ea50cf0446e447aba84dbbc1bb479ca7",
            "type": "INVOKE_FUNCTION",
            "sequenceKUID": "shareIntentmoreCall",
            "display": "shareIntentmoreCall",
            "inputparams": [{
                "name": "message",
                "value": "\"more\""
            }, {
                "name": "module",
                "value": "\"eDonation\""
            }],
            "parentId": "CHANNEL_CONDITION__fb093169b71549228b7ba61dc18cb8ee",
            "source": "module"
        }, {
            "id": "INVOKE_FUNCTION___f6a6e3fa351b4b9fb0d2aef8e07368cf",
            "type": "INVOKE_FUNCTION",
            "sequenceKUID": "shareIntentmoreCallandroid",
            "display": "shareIntentmoreCallandroid",
            "inputparams": [{
                "name": "message",
                "value": "\"more\""
            }, {
                "name": "module",
                "value": "\"eDonation\""
            }],
            "parentId": "CHANNEL_CONDITION__idce5e1b44e74d61a62a83ac09465313",
            "source": "module"
        }]
    }
}