{
    "AS_Browser_c85f08ee9f6544efbb2cbb4199011b4e": {
        "id": "AS_Browser_c85f08ee9f6544efbb2cbb4199011b4e",
        "type": "ACTION_SEQUENCE",
        "name": "frmLoyaltylanding_OnSuccess",
        "params": [{
            "datatype": "collection",
            "name": "eventobject"
        }],
        "contextObj": {
            "name": "frmLoyaltylanding",
            "type": "forms",
            "platform": "",
            "KUID": "b68923f3f13340f9b8644513dcae16f8"
        },
        "language": "js",
        "actions": [{
            "id": "ADD_SNIPPET__e179ad836ba448e5922aca44d438fb4b",
            "type": "ADD_SNIPPET",
            "codeSnippet": "callActivityLogForTMBBonus(\"01\");\ndismissLoadingScreen();",
            "parentId": null,
            "callbackType": null
        }]
    }
}