{
    "AS_Form_j86f3a04405443a8be4c67fdb28db19f": {
        "id": "AS_Form_j86f3a04405443a8be4c67fdb28db19f",
        "type": "ACTION_SEQUENCE",
        "name": "frmMFSwitchCompleteMB_Initiatization",
        "params": [{
            "name": "eventobject",
            "datatype": "collection"
        }],
        "contextObj": {
            "name": "frmMFSwitchCompleteMB",
            "type": "forms",
            "platform": "",
            "KUID": "a0c6815d6775451eada88212ecd540ef"
        },
        "language": "js",
        "actions": [{
            "id": "ADD_SNIPPET__c94e8fde35ce4bad9739e7f8b51821e2",
            "type": "ADD_SNIPPET",
            "codeSnippet": "frmMFSwitchCompleteMBInitiatization()",
            "parentId": null,
            "callbackType": null
        }]
    }
}