{
    "AS_Form_a940157b29204af999d201a4eba40382": {
        "id": "AS_Form_a940157b29204af999d201a4eba40382",
        "type": "ACTION_SEQUENCE",
        "name": "frmMFSelectPurchasesFundMBInitEvent",
        "params": [{
            "datatype": "collection",
            "name": "eventobject"
        }],
        "contextObj": {
            "name": "frmMFSelectPurchaseFundMB",
            "type": "forms",
            "platform": "",
            "KUID": "4e904471844c4e1fb06302a47999cc24"
        },
        "language": "js",
        "actions": [{
            "id": "ADD_SNIPPET__e34c84081aa04f728227c24db29a93a1",
            "type": "ADD_SNIPPET",
            "codeSnippet": "frmMFSelectPurchaseFundMBInitiatization();",
            "parentId": null,
            "callbackType": null
        }]
    }
}