{
    "AS_FlexContainer_eb034382c7844c019859ef336d502e53": {
        "id": "AS_FlexContainer_eb034382c7844c019859ef336d502e53",
        "type": "ACTION_SEQUENCE",
        "name": "frmMFSuitabilityTest1_onTouchStart_clickAnswer5",
        "params": [{
            "datatype": "collection",
            "name": "eventobject"
        }, {
            "datatype": "string",
            "name": "x"
        }, {
            "datatype": "string",
            "name": "y"
        }],
        "contextObj": {
            "name": "frmMFSuitabilityTest1",
            "type": "forms",
            "platform": "",
            "KUID": "a344ed23d0d84ec0a8ebf6ef05cb96ce"
        },
        "language": "js",
        "actions": [{
            "id": "INVOKE_FUNCTION___d7305d73c8e8448e8044c795590b0e81",
            "type": "INVOKE_FUNCTION",
            "sequenceKUID": "onClickMFSuitabilityTestAnswer5",
            "display": "onClickMFSuitabilityTestAnswer5",
            "inputparams": [],
            "parentId": null,
            "callbackType": null,
            "disabled": null,
            "source": "module"
        }]
    }
}