{
    "AS_FlexContainer_a67499c1fdc84e27a7b94df9e2466bec": {
        "id": "AS_FlexContainer_a67499c1fdc84e27a7b94df9e2466bec",
        "type": "ACTION_SEQUENCE",
        "name": "frmMBRTPApplyBiller_flxRef2_onClick",
        "params": [{
            "datatype": "collection",
            "name": "eventobject"
        }],
        "contextObj": {
            "name": "frmMBRTPApplyBiller",
            "type": "forms",
            "platform": "",
            "KUID": "g8fefe70b62e4de380f428d807ab4372"
        },
        "language": "js",
        "actions": [{
            "id": "INVOKE_FUNCTION___j9e2de0e8cf24870b4c1217dd2166b6e",
            "type": "INVOKE_FUNCTION",
            "sequenceKUID": "onClickRTPApplyBillerRef2",
            "display": "onClickRTPApplyBillerRef2",
            "inputparams": [],
            "parentId": null,
            "callbackType": null,
            "disabled": null,
            "source": "module"
        }]
    }
}