{
    "AS_Button_c17a7a558e6a460fafe7fc805693fb0d": {
        "id": "AS_Button_c17a7a558e6a460fafe7fc805693fb0d",
        "type": "ACTION_SEQUENCE",
        "name": "frmMenu_btnMenuCardless_Click",
        "params": [{
            "datatype": "collection",
            "name": "eventobject"
        }],
        "contextObj": {
            "name": "frmMenu",
            "type": "forms",
            "platform": "",
            "KUID": "p2kwiet2012247633448"
        },
        "language": "js",
        "actions": [{
            "id": "ADD_SNIPPET__d7556f73c45d457a86c869525c00cee6",
            "type": "ADD_SNIPPET",
            "codeSnippet": "loadFunctionalModuleSync(\"cardlessModule\");\n/*try {\n        kony.modules.loadFunctionalModule(\"cardlessModule\");               \n    } catch (err) {\n        kony.print(\"Error loading functional modules\");\n    }\n    */",
            "parentId": null,
            "callbackType": null
        }, {
            "id": "INVOKE_FUNCTION___ia82bad8c83845699aafc065c7728a76",
            "type": "INVOKE_FUNCTION",
            "sequenceKUID": "onClickOfCardlessWithDrawMenu",
            "display": "onClickOfCardlessWithDrawMenu",
            "inputparams": [],
            "parentId": null,
            "callbackType": null,
            "disabled": null,
            "source": "module"
        }]
    }
}