{
    "AS_Form_hcefe63fd7a6449184e208ee94da9fbf": {
        "id": "AS_Form_hcefe63fd7a6449184e208ee94da9fbf",
        "type": "ACTION_SEQUENCE",
        "name": "frmMyQRSelectPromptPayInitAction",
        "params": [{
            "datatype": "collection",
            "name": "eventobject"
        }],
        "contextObj": {
            "name": "frmMyQRSelectPromptPay",
            "type": "forms",
            "platform": "",
            "KUID": "c7db2ae67e644fa2af6e39303a38a356"
        },
        "language": "js",
        "actions": [{
            "id": "INVOKE_FUNCTION___gf16bbeb52ac42de8984be49eaf01d85",
            "type": "INVOKE_FUNCTION",
            "sequenceKUID": "frmMyQRSelectPromptPayInit",
            "display": "frmMyQRSelectPromptPayInit",
            "inputparams": [],
            "parentId": null,
            "callbackType": null,
            "disabled": null,
            "source": "module"
        }]
    }
}