{
    "AS_Button_he70bc9e62104a80a02c19e2abc6be79": {
        "id": "AS_Button_he70bc9e62104a80a02c19e2abc6be79",
        "type": "ACTION_SEQUENCE",
        "name": "frmMBRTPSettings_btnBack_onClick",
        "params": [{
            "datatype": "collection",
            "name": "eventobject"
        }],
        "contextObj": {
            "name": "frmMBRTPSettings",
            "type": "forms",
            "platform": "",
            "KUID": "e7316d7a1c1643688622b6288aed81ef"
        },
        "language": "js",
        "actions": [{
            "id": "INVOKE_FUNCTION___fcdeac4647ae4286b9d6ac9a40a35384",
            "type": "INVOKE_FUNCTION",
            "sequenceKUID": "onClickRTPBackArrowBtnSetting",
            "display": "onClickRTPBackArrowBtnSetting",
            "inputparams": [],
            "parentId": null,
            "callbackType": null,
            "disabled": null,
            "source": "module"
        }]
    }
}