{
    "AS_FlexContainer_e07529f263614a2a85507b66898afb3f": {
        "id": "AS_FlexContainer_e07529f263614a2a85507b66898afb3f",
        "type": "ACTION_SEQUENCE",
        "name": "frmMFSuitabilityTest1_onTouchStart_clickAnswer2",
        "params": [{
            "datatype": "collection",
            "name": "eventobject"
        }, {
            "datatype": "string",
            "name": "x"
        }, {
            "datatype": "string",
            "name": "y"
        }],
        "contextObj": {
            "name": "frmMFSuitabilityTest1",
            "type": "forms",
            "platform": "",
            "KUID": "a344ed23d0d84ec0a8ebf6ef05cb96ce"
        },
        "language": "js",
        "actions": [{
            "id": "INVOKE_FUNCTION___f34ee2e9bbab42e7a2c80c4f6e6549eb",
            "type": "INVOKE_FUNCTION",
            "sequenceKUID": "onClickMFSuitabilityTestAnswer2",
            "display": "onClickMFSuitabilityTestAnswer2",
            "inputparams": [],
            "parentId": null,
            "callbackType": null,
            "disabled": null,
            "source": "module"
        }]
    }
}