{
    "AS_Form_b0654f712de14d538fb64ec1eab5d870": {
        "id": "AS_Form_b0654f712de14d538fb64ec1eab5d870",
        "type": "ACTION_SEQUENCE",
        "name": "frmMFSelectFundRedeemMBInitEvent2",
        "params": [{
            "datatype": "collection",
            "name": "eventobject"
        }],
        "contextObj": {
            "name": "frmMFSelectFundRedeemMB",
            "type": "forms",
            "platform": "",
            "KUID": "ffd42ea70b4f436c86c0bad6cf491c81"
        },
        "language": "js",
        "actions": [{
            "id": "ADD_SNIPPET__hf0b2477778d4cbd85febdf479aec274",
            "type": "ADD_SNIPPET",
            "codeSnippet": "frmMFSelectFundRedeemMBInit();",
            "parentId": null,
            "callbackType": null
        }]
    }
}