{
    "AS_Button_d15ec47edf8842b0821534d8bcef998a": {
        "id": "AS_Button_d15ec47edf8842b0821534d8bcef998a",
        "type": "ACTION_SEQUENCE",
        "name": "frmMFSuitabilityTest1_onClick_btnBack",
        "params": [{
            "datatype": "collection",
            "name": "eventobject"
        }],
        "contextObj": {
            "name": "frmMFSuitabilityTest1",
            "type": "forms",
            "platform": "",
            "KUID": "a344ed23d0d84ec0a8ebf6ef05cb96ce"
        },
        "language": "js",
        "actions": [{
            "id": "NAVIGATE_TO_FORM___a47dff50d54c474f8be76ba26c27ec26",
            "type": "NAVIGATE_TO_FORM",
            "formId": "frmMFSuitabilityTnC",
            "formKUID": "i75a1d16d8724ef697482ed359a0dd06",
            "mappings": {},
            "mappingsOrder": [],
            "parentId": "",
            "callbackType": null,
            "enableMappingEditor": true,
            "package": ""
        }]
    }
}