{
    "AS_Form_h18e31d9b5524448811a14d1c9894624": {
        "id": "AS_Form_h18e31d9b5524448811a14d1c9894624",
        "type": "ACTION_SEQUENCE",
        "name": "frmMBCashAdvanceSelectPlan_onDeviceBack",
        "params": [{
            "name": "eventobject",
            "value": "eventobject"
        }],
        "contextObj": {
            "name": "frmMBCashAdvanceSelectPlan",
            "type": "forms",
            "platform": null,
            "KUID": "afdc71522cf44e3ba580f4c15b6c53c0"
        },
        "language": "js",
        "actions": [{
            "id": "INVOKE_FUNCTION__ide_onDeviceBack_h0edbcf66da1457785158117066f0c9d",
            "type": "INVOKE_FUNCTION",
            "sequenceKUID": "disableBackButton",
            "display": "disableBackButton",
            "inputparams": [],
            "source": "module"
        }]
    }
}