{
    "AS_Form_e6efae7903424401adba53325d33d647": {
        "id": "AS_Form_e6efae7903424401adba53325d33d647",
        "type": "ACTION_SEQUENCE",
        "name": "frmMBRTPNoActiveList_preShow",
        "params": [{
            "datatype": "collection",
            "name": "eventobject"
        }],
        "contextObj": {
            "name": "frmMBRTPNoActiveList",
            "type": "forms",
            "platform": "",
            "KUID": "abf4071b242b47e9b1a13fdf0f78a439"
        },
        "language": "js",
        "actions": [{
            "id": "INVOKE_FUNCTION___ca1ef356130a4f7e81602dd8f93c6888",
            "type": "INVOKE_FUNCTION",
            "sequenceKUID": "preShowFrmMBRTPNoActiveList",
            "display": "preShowFrmMBRTPNoActiveList",
            "inputparams": [],
            "parentId": null,
            "callbackType": null,
            "disabled": null,
            "source": "module"
        }]
    }
}