{
    "AS_Form_a134c8d12f7145d88669f8f6e491c533": {
        "id": "AS_Form_a134c8d12f7145d88669f8f6e491c533",
        "type": "ACTION_SEQUENCE",
        "name": "frmMBFTEditMenuPreshow",
        "params": [{
            "datatype": "collection",
            "name": "eventobject"
        }],
        "contextObj": {
            "name": "frmMBFTEdit",
            "type": "forms",
            "platform": "",
            "KUID": "8b91b5e732324b8dbb44d387cc6d0491"
        },
        "language": "js",
        "actions": [{
            "id": "INVOKE_FUNCTION___hd9cd0d386e7432e95ab625fb8d3ff07",
            "type": "INVOKE_FUNCTION",
            "sequenceKUID": "frmMBFTEditMenuPreshow",
            "display": "frmMBFTEditMenuPreshow",
            "inputparams": [],
            "parentId": null,
            "callbackType": null,
            "disabled": null
        }]
    }
}