{
    "AS_Form_d867bd2dc60f4271af7e0b87b190ce87": {
        "id": "AS_Form_d867bd2dc60f4271af7e0b87b190ce87",
        "type": "ACTION_SEQUENCE",
        "name": "frmMFSelectRedeemFundMBinitEvent",
        "params": [{
            "datatype": "collection",
            "name": "eventobject"
        }],
        "contextObj": {
            "name": "frmMFSelectRedeemFundMB",
            "type": "forms",
            "platform": "",
            "KUID": "30391d8b9c8845e69cf167e71d2aa532"
        },
        "language": "js",
        "actions": [{
            "id": "INVOKE_FUNCTION___a64eb84e9e59460bb100065cc3bfd3e3",
            "type": "INVOKE_FUNCTION",
            "sequenceKUID": "frmMFSelectRedeemFundMBInitiatization",
            "display": "frmMFSelectRedeemFundMBInitiatization",
            "inputparams": [],
            "parentId": null,
            "callbackType": null,
            "disabled": null,
            "source": "module"
        }]
    }
}