{
    "AS_Form_i45808f794074a13b682318141085920": {
        "id": "AS_Form_i45808f794074a13b682318141085920",
        "type": "ACTION_SEQUENCE",
        "name": "frmMBMangeDebitcard_Pre_Show",
        "params": [{
            "datatype": "collection",
            "name": "eventobject"
        }],
        "contextObj": {
            "name": "frmMBManageDebitCardConfirmation",
            "type": "forms",
            "platform": "",
            "KUID": "gffc7e3dc9c842fba0576d0336e9aa18"
        },
        "language": "js",
        "actions": [{
            "id": "INVOKE_FUNCTION___i11ece2a47f34743a9d8702e92de8167",
            "type": "INVOKE_FUNCTION",
            "sequenceKUID": "preshowfrmMBChangeDebitCardLimit",
            "display": "preshowfrmMBChangeDebitCardLimit",
            "inputparams": [],
            "parentId": null,
            "callbackType": null,
            "disabled": null,
            "source": "module"
        }]
    }
}