{
    "AS_Label_ae1a7618f1b848f8bf209f745ddcdfd5": {
        "id": "AS_Label_ae1a7618f1b848f8bf209f745ddcdfd5",
        "type": "ACTION_SEQUENCE",
        "name": "frmMFSuitabilityReview_onclick_TakeTest",
        "params": [{
            "datatype": "collection",
            "name": "eventobject"
        }, {
            "datatype": "string",
            "name": "x"
        }, {
            "datatype": "string",
            "name": "y"
        }],
        "contextObj": {
            "name": "frmMFSuitabilityReview",
            "type": "forms",
            "platform": "",
            "KUID": "jcecf1e4d33240e6956ee8a055df8ce7"
        },
        "language": "js",
        "actions": [{
            "id": "INVOKE_FUNCTION___a2ad7ffee27b4ca893eeb763e7b6b137",
            "type": "INVOKE_FUNCTION",
            "sequenceKUID": "onClickNextfrmMFSuitabilityReview",
            "display": "onClickNextfrmMFSuitabilityReview",
            "inputparams": [],
            "parentId": null,
            "callbackType": null,
            "disabled": null,
            "source": "module"
        }]
    }
}