{
    "AS_TextField_hd5fec7250bf424c822a719fa96d02a9": {
        "id": "AS_TextField_hd5fec7250bf424c822a719fa96d02a9",
        "type": "ACTION_SEQUENCE",
        "name": "frmQRSuccess_onDoneEnterAmount",
        "params": [{
            "datatype": "collection",
            "name": "eventobject"
        }, {
            "datatype": "string",
            "name": "changedtext"
        }],
        "language": "js",
        "actions": [{
            "id": "ADD_SNIPPET_ide_onDone_e4228182ff2e4e84a1d0a9bebee7f178",
            "type": "ADD_SNIPPET",
            "codeSnippet": "if(frmQRSuccess.tbxEnterAmount.text == \"\" || frmQRSuccess.tbxEnterAmount.text == \"0\" || frmQRSuccess.tbxEnterAmount.text == \"0.00\"){\n  alert(kony.i18n.getLocalizedString(\"keyPleaseEnterAmount\"));\n} else {\n  gblQRPayData[\"transferAmt\"] = removeCommos(frmQRSuccess.tbxEnterAmount.text);\n  invokeQRPaymentDefaultAccountServiceCalFee();\n}",
            "callbackType": null
        }]
    }
}