{
    "AS_Button_id8032a570284010967c7d3eedf90404": {
        "id": "AS_Button_id8032a570284010967c7d3eedf90404",
        "type": "ACTION_SEQUENCE",
        "name": "frmQRSuccess_onClickClose",
        "params": [{
            "datatype": "collection",
            "name": "eventobject"
        }],
        "language": "js",
        "actions": [{
            "id": "ADD_SNIPPET_ide_onClick_be2ae567c76f4ae98fe269f42a601554",
            "type": "ADD_SNIPPET",
            "codeSnippet": "closeApprovalKeypad();\nshowQRScanningLanding();",
            "callbackType": null
        }]
    }
}