{
    "AS_Button_a008e766025b430993367838e6e83dcd": {
        "id": "AS_Button_a008e766025b430993367838e6e83dcd",
        "type": "ACTION_SEQUENCE",
        "name": "frmQRSelectNew_onClickNew",
        "params": [{
            "datatype": "collection",
            "name": "eventobject"
        }],
        "contextObj": {
            "name": "frmQRSelectAccount",
            "type": "forms",
            "platform": "",
            "KUID": "f6832a4ca9c14698bb878d59e89214f7"
        },
        "language": "js",
        "actions": [{
            "id": "ADD_SNIPPET__b0a36a96acc84fb1841447cea167d66a",
            "type": "ADD_SNIPPET",
            "codeSnippet": "frmQRSelectAccountOnClickSelAcctLink();",
            "parentId": null,
            "callbackType": null
        }]
    }
}