{
    "AS_Segment_da7295b830f747d69a76fc222675c416": {
        "id": "AS_Segment_da7295b830f747d69a76fc222675c416",
        "type": "ACTION_SEQUENCE",
        "name": "frmQRSelectAccountNew_SegSwipe",
        "params": [{
            "datatype": "collection",
            "name": "seguiWidget"
        }, {
            "datatype": "number",
            "name": "sectionIndex"
        }, {
            "datatype": "number",
            "name": "rowIndex"
        }],
        "contextObj": {
            "name": "frmQRSelectAccount",
            "type": "forms",
            "platform": "",
            "KUID": "f6832a4ca9c14698bb878d59e89214f7"
        },
        "language": "js",
        "actions": [{
            "id": "ADD_SNIPPET__ec20167ef6ad414e83aa3e3b45fb2176",
            "type": "ADD_SNIPPET",
            "codeSnippet": "var modScroll = new getAccountIndexForQRPay();\nmodScroll.paginationSwitch( sectionIndex, rowIndex );",
            "parentId": null,
            "callbackType": null
        }]
    }
}