{
    "AS_Form_ed847e836f32479e9f858f8a41176730": {
        "id": "AS_Form_ed847e836f32479e9f858f8a41176730",
        "type": "ACTION_SEQUENCE",
        "name": "frmUVApprovalMB_onDeviceBack",
        "params": [{
            "datatype": "collection",
            "name": "eventobject"
        }],
        "contextObj": {
            "name": "frmUVApprovalMB",
            "type": "forms",
            "platform": "",
            "KUID": "b7cb0844fdad4cc0a9520d64390948fa"
        },
        "language": "js",
        "actions": [{
            "id": "INVOKE_FUNCTION___c9e4a71ee3464778ace555f0fbb5d871",
            "type": "INVOKE_FUNCTION",
            "sequenceKUID": "disableBackButton",
            "display": "disableBackButton",
            "inputparams": [],
            "parentId": null,
            "callbackType": null,
            "disabled": null,
            "source": "module"
        }]
    }
}