{
    "AS_Button_jc7b9ea9822d412a840780a5b03feeff": {
        "id": "AS_Button_jc7b9ea9822d412a840780a5b03feeff",
        "type": "ACTION_SEQUENCE",
        "name": "frmUVTransRejectMenu_onClick_btnReason3",
        "params": [{
            "datatype": "collection",
            "name": "eventobject"
        }],
        "contextObj": {
            "name": "frmUVTransRejectMenu",
            "type": "forms",
            "platform": "",
            "KUID": "aba928141e444f0aab1eb336e3bc7d48"
        },
        "language": "js",
        "actions": [{
            "id": "ADD_SNIPPET__d2fe1553742f4409ba2976c97e4ca71a",
            "type": "ADD_SNIPPET",
            "codeSnippet": "gblUVRejectedReason = 2;",
            "parentId": null,
            "callbackType": null
        }, {
            "id": "INVOKE_FUNCTION___jb353302aec0485fb157eb82be757585",
            "type": "INVOKE_FUNCTION",
            "sequenceKUID": "onClickTransRejectRequest",
            "display": "onClickTransRejectRequest",
            "inputparams": [{
                "name": "reason",
                "value": "3"
            }],
            "parentId": null,
            "callbackType": null,
            "disabled": null,
            "source": "module"
        }]
    }
}