{
    "AS_Form_dacdfd6e4b314a169f5b4f21b8ae7a6b": {
        "id": "AS_Form_dacdfd6e4b314a169f5b4f21b8ae7a6b",
        "type": "ACTION_SEQUENCE",
        "name": "frmUVApprovalComplete_onDeviceBack",
        "params": [{
            "datatype": "collection",
            "name": "eventobject"
        }],
        "contextObj": {
            "type": "forms",
            "platform": null,
            "KUID": "ed5c93f0dd7a4f588495e173cdf4826a"
        },
        "language": "js",
        "actions": [{
            "id": "INVOKE_FUNCTION___c8684edf80c344c388495cb0e8bfdba4",
            "type": "INVOKE_FUNCTION",
            "sequenceKUID": "disableBackButton",
            "display": "disableBackButton",
            "inputparams": [],
            "parentId": null,
            "callbackType": null,
            "disabled": null,
            "source": "module"
        }]
    }
}