{
    "AS_Form_bf13f39096874e1199b83d1dcf496236": {
        "id": "AS_Form_bf13f39096874e1199b83d1dcf496236",
        "type": "ACTION_SEQUENCE",
        "name": "onDeviceBackAction",
        "params": [{
            "datatype": "collection",
            "name": "eventobject"
        }],
        "contextObj": {
            "name": "frmBillPaymentEditFutureNew",
            "type": "forms",
            "platform": "",
            "KUID": "e56a4bc3f5d94750a3b4bdd0bbf51526"
        },
        "language": "js",
        "actions": [{
            "id": "INVOKE_FUNCTION___c65baf5c08e74af58db4363a48d49013",
            "type": "INVOKE_FUNCTION",
            "sequenceKUID": "disableBackButton",
            "display": "disableBackButton",
            "inputparams": [],
            "parentId": null,
            "callbackType": null,
            "disabled": null,
            "source": "module"
        }]
    }
}