{
    "AS_TextField_ce7cb980fd3e42e7be2aa69f1b0e568a": {
        "id": "AS_TextField_ce7cb980fd3e42e7be2aa69f1b0e568a",
        "type": "ACTION_SEQUENCE",
        "name": "onTextChange_IOS_frmQRSuccess",
        "params": [{
            "datatype": "collection",
            "name": "eventobject"
        }, {
            "datatype": "string",
            "name": "changedtext"
        }],
        "contextObj": {
            "name": "frmQRSuccess",
            "type": "forms",
            "platform": "",
            "KUID": "a05459f9f557410eb9470b6fed6334eb"
        },
        "language": "js",
        "actions": [{
            "id": "ADD_SNIPPET__b33cf5f9424a41efa6ef5e1b8c3ad357",
            "type": "ADD_SNIPPET",
            "codeSnippet": "frmQRSuccessOnDoneTextAmount();",
            "parentId": null,
            "callbackType": null
        }]
    }
}