{
    "p2kwiet2012247630638_buttonBck_onClick_seq0": {
        "id": "p2kwiet2012247630638_buttonBck_onClick_seq0",
        "type": "ACTION_SEQUENCE",
        "params": [{
            "name": "eventobject",
            "value": "eventobject"
        }],
        "language": "js",
        "actions": [{
            "id": "expression_onClick_28587201224766760",
            "type": "ADD_SNIPPET",
            "codeSnippet": "frmMBCardProductURL.browser506459299404741.clearHistory();"
        }, {
            "id": "navigation_onClick_58188201224767996",
            "type": "NAVIGATE_TO_FORM",
            "formId": "frmMBCardProductLink",
            "formKUID": "p2kwiet2012247630627",
            "mappings": {},
            "mappingsOrder": [],
            "parentId": "",
            "enableMappingEditor": true,
            "package": ""
        }]
    }
}