{
    "p2kwiet2012247634132_btnAddAcc_onClick_seq0": {
        "id": "p2kwiet2012247634132_btnAddAcc_onClick_seq0",
        "type": "ACTION_SEQUENCE",
        "params": [{
            "name": "eventobject",
            "value": "eventobject"
        }],
        "language": "js",
        "actions": [{
            "id": "expression_onClick_8899220122476260",
            "type": "ADD_SNIPPET",
            "codeSnippet": "if (AddAccountList.length >= MAX_BANK_ACCNT_BULK_ADD || (recipientAccountsRs.length + AddAccountList.length) >= gblMAXAccountCount){\n //frmMyRecipientAddAccConf.btnAddAcc.onClick = null;\n if(flowSpa){\n //frmMyRecipientAddAccConf.btnAddAcc.onClick = null;\n } else {\n \n }\n }\n else {\n //frmMyRecipientAddAccConf.btnAddAcc.onClick = btnAddAccOnclick;\n frmMyRecipientAddAcc.show();\n }"
        }]
    }
}