{
    "p2kwiet2012247628422_button67633371988604_onClick_seq0": {
        "id": "p2kwiet2012247628422_button67633371988604_onClick_seq0",
        "type": "ACTION_SEQUENCE",
        "params": [{
            "name": "eventobject",
            "value": "eventobject"
        }],
        "language": "js",
        "actions": [{
            "id": "expression_onClick_17877201224769716",
            "type": "ADD_SNIPPET",
            "codeSnippet": "gblMobNoTransLimitFlag=true;\n gblOpenAccountFlow = true;\n \n "
        }, {
            "id": "expression_onClick_6280520122476543",
            "type": "ADD_SNIPPET",
            "codeSnippet": "editbuttonflag=\"number\";\n frmChangeMobNoTransLimitMB.txtChangeMobileNumber.text = \"\";\n "
        }, {
            "id": "customcode_onClick_18439201224763000",
            "type": "INVOKE_FUNCTION",
            "sequenceKUID": "checkStatusEditProfile",
            "display": "checkStatusEditProfile",
            "inputparams": [],
            "source": "module"
        }]
    }
}