{
    "p2kwiet2012247632491_frmMBReIssueDBProduct_preshow_seq0": {
        "id": "p2kwiet2012247632491_frmMBReIssueDBProduct_preshow_seq0",
        "type": "ACTION_SEQUENCE",
        "params": [{
            "name": "eventobject",
            "value": "eventobject"
        }],
        "language": "js",
        "actions": [{
            "id": "customcode_preshow_71572201224769722",
            "type": "INVOKE_FUNCTION",
            "sequenceKUID": "frmMBReIssueDBProductMenuPreshow",
            "display": "frmMBReIssueDBProductMenuPreshow",
            "inputparams": [],
            "source": "module"
        }]
    }
}