{
    "p2kwiet2012247635627_segSlider_onswipe_seq0": {
        "id": "p2kwiet2012247635627_segSlider_onswipe_seq0",
        "type": "ACTION_SEQUENCE",
        "params": [{
            "name": "seguiWidget",
            "value": "seguiWidget"
        }, {
            "name": "sectionIndex",
            "value": "sectionIndex"
        }, {
            "name": "rowIndex",
            "value": "rowIndex"
        }],
        "language": "js",
        "actions": [{
            "id": "preprocessdecision_onswipe_8983201224769366",
            "type": "CHANNEL_CONDITION",
            "platforms": ["android", "iphone"]
        }, {
            "id": "expression_onswipe_15087201224768555",
            "type": "ADD_SNIPPET",
            "codeSnippet": "var modScroll = new getOPenActMBIndex();\n modScroll.paginationSwitch( sectionIndex, rowIndex,frmOpenAccountSavingCareMB.segSlider );\n ",
            "parentId": "preprocessdecision_onswipe_8983201224769366"
        }]
    }
}