{
    "p2kwiet2012247627164_bttnBack_onClick_seq0": {
        "id": "p2kwiet2012247627164_bttnBack_onClick_seq0",
        "type": "ACTION_SEQUENCE",
        "params": [{
            "name": "eventobject",
            "value": "eventobject"
        }],
        "language": "js",
        "actions": [{
            "id": "customcode_onClick_290802012247647",
            "type": "INVOKE_FUNCTION",
            "sequenceKUID": "onClickBackList",
            "display": "onClickBackList",
            "inputparams": [],
            "source": "module"
        }]
    }
}