{
    "p2kwiet2012247630763_imgPin4_onTouchEnd_seq0": {
        "id": "p2kwiet2012247630763_imgPin4_onTouchEnd_seq0",
        "type": "ACTION_SEQUENCE",
        "params": [{
            "name": "eventobject",
            "value": "eventobject"
        }, {
            "name": "x",
            "value": "x"
        }, {
            "name": "y",
            "value": "y"
        }, {
            "name": "contextInfo",
            "value": "contextInfo"
        }],
        "language": "js",
        "actions": [{
            "id": "customcode_onTouchEnd_26126201224761140",
            "type": "INVOKE_FUNCTION",
            "sequenceKUID": "gotoChangePinSuccess",
            "display": "gotoChangePinSuccess",
            "inputparams": [],
            "source": "module"
        }]
    }
}