{
    "p2kwiet2012247636763_btnOATDConfCancel_onClick_seq0": {
        "id": "p2kwiet2012247636763_btnOATDConfCancel_onClick_seq0",
        "type": "ACTION_SEQUENCE",
        "params": [{
            "name": "eventobject",
            "value": "eventobject"
        }],
        "language": "js",
        "actions": [{
            "id": "navigation_onClick_47385201224766732",
            "type": "NAVIGATE_TO_FORM",
            "formId": "frmOccupationInfo",
            "formKUID": "p2kwiet2012247635272",
            "mappings": {},
            "mappingsOrder": [],
            "parentId": "",
            "enableMappingEditor": true,
            "package": ""
        }]
    }
}