{
    "p2kwiet2012247635149_txbXferSearch_onTextChange_seq0": {
        "id": "p2kwiet2012247635149_txbXferSearch_onTextChange_seq0",
        "type": "ACTION_SEQUENCE",
        "params": [{
            "name": "eventobject",
            "value": "eventobject"
        }, {
            "name": "changedtext",
            "value": "changedtext"
        }],
        "language": "js",
        "actions": [{
            "id": "customcode_onTextChange_78911201224768877",
            "type": "INVOKE_FUNCTION",
            "sequenceKUID": "TransferRecipientSearch1",
            "display": "TransferRecipientSearch1",
            "inputparams": [{
                "name": "eventObject",
                "value": "eventobject"
            }],
            "source": "module"
        }]
    }
}