{
    "p2kwiet2012247631583_frmMBListCreditCard_preshow_seq0": {
        "id": "p2kwiet2012247631583_frmMBListCreditCard_preshow_seq0",
        "type": "ACTION_SEQUENCE",
        "params": [{
            "name": "eventobject",
            "value": "eventobject"
        }],
        "language": "js",
        "actions": [{
            "id": "customcode_preshow_41679201224764262",
            "type": "INVOKE_FUNCTION",
            "sequenceKUID": "frmCreditCardListLocalChange",
            "display": "frmCreditCardListLocalChange",
            "inputparams": [],
            "source": "module"
        }]
    }
}