{
    "p2kwiet2012247634373_txtAccountNickName_SPA_onBeginEditing_seq0": {
        "id": "p2kwiet2012247634373_txtAccountNickName_SPA_onBeginEditing_seq0",
        "type": "ACTION_SEQUENCE",
        "params": [{
            "name": "eventobject",
            "value": "eventobject"
        }, {
            "name": "changedtext",
            "value": "changedtext"
        }],
        "language": "js",
        "actions": [{
            "id": "expression_onBeginEditing_56711201224764541",
            "type": "ADD_SNIPPET",
            "codeSnippet": "frmMyRecipientEditAccount.txtAccountNickName.skin=\"txtFocusBG\";"
        }]
    }
}