{
    "p2kwiet2012247626930_vboxAppleStore_onClick_seq0": {
        "id": "p2kwiet2012247626930_vboxAppleStore_onClick_seq0",
        "type": "ACTION_SEQUENCE",
        "params": [{
            "name": "eventobject",
            "value": "eventobject"
        }],
        "language": "js",
        "actions": [{
            "id": "preprocessdecision_onClick_853020122476544",
            "type": "CHANNEL_CONDITION",
            "platforms": ["spaip"]
        }, {
            "id": "preprocessdecision_onClick_11908201224763069",
            "type": "CHANNEL_CONDITION",
            "platforms": ["spaan"]
        }, {
            "id": "customcode_onClick_1176720122476454",
            "type": "INVOKE_FUNCTION",
            "sequenceKUID": "navigateToAppleStoreIphone",
            "display": "navigateToAppleStoreIphone",
            "inputparams": [],
            "parentId": "preprocessdecision_onClick_853020122476544",
            "source": "module"
        }, {
            "id": "customcode_onClick_72694201224767054",
            "type": "INVOKE_FUNCTION",
            "sequenceKUID": "navigateToAppleStore",
            "display": "navigateToAppleStore",
            "inputparams": [],
            "parentId": "preprocessdecision_onClick_11908201224763069",
            "source": "module"
        }]
    }
}