{
    "p2kwiet2012247632512_btnBack_onClick_seq0": {
        "id": "p2kwiet2012247632512_btnBack_onClick_seq0",
        "type": "ACTION_SEQUENCE",
        "params": [{
            "name": "eventobject",
            "value": "eventobject"
        }],
        "language": "js",
        "actions": [{
            "id": "customcode_onClick_44154201224763013",
            "type": "INVOKE_FUNCTION",
            "sequenceKUID": "onClickBackOfRequestNewPinConfirmScreen",
            "display": "onClickBackOfRequestNewPinConfirmScreen",
            "inputparams": [],
            "source": "module"
        }]
    }
}