{
    "p2kwiet2012247651223_btnReturn_onClick_seq0": {
        "id": "p2kwiet2012247651223_btnReturn_onClick_seq0",
        "type": "ACTION_SEQUENCE",
        "params": [{
            "name": "eventobject",
            "value": "eventobject"
        }],
        "language": "js",
        "actions": [{
            "id": "customcode_onClick_46240201224769434",
            "type": "INVOKE_FUNCTION",
            "sequenceKUID": "onreturnAccnt",
            "display": "onreturnAccnt",
            "inputparams": [],
            "source": "module"
        }]
    }
}