{
    "p2kwiet2012247636648_hbox4758937266374_onClick_seq0": {
        "id": "p2kwiet2012247636648_hbox4758937266374_onClick_seq0",
        "type": "ACTION_SEQUENCE",
        "params": [{
            "name": "eventobject",
            "value": "eventobject"
        }],
        "language": "js",
        "actions": [{
            "id": "expression_onClick_21895201224767342",
            "type": "ADD_SNIPPET",
            "codeSnippet": "gblAddressFlag=3;\n gblMyProfileAddressFlag = \"subdistrict\";"
        }, {
            "id": "customcode_onClick_302020122476169",
            "type": "INVOKE_FUNCTION",
            "sequenceKUID": "editMySubDistrict",
            "display": "editMySubDistrict",
            "inputparams": [],
            "source": "module"
        }]
    }
}