{
    "p2kwiet2012247631989_frmMBNewTnC_preshow_seq0": {
        "id": "p2kwiet2012247631989_frmMBNewTnC_preshow_seq0",
        "type": "ACTION_SEQUENCE",
        "params": [{
            "name": "eventobject",
            "value": "eventobject"
        }],
        "language": "js",
        "actions": [{
            "id": "customcode_preshow_2929120122476858",
            "type": "INVOKE_FUNCTION",
            "sequenceKUID": "frmMBNewTnCMenuPreshow",
            "display": "frmMBNewTnCMenuPreshow",
            "inputparams": [],
            "source": "module"
        }]
    }
}