{
    "p2kwiet2012247635149_btnO_onClick_seq0": {
        "id": "p2kwiet2012247635149_btnO_onClick_seq0",
        "type": "ACTION_SEQUENCE",
        "params": [{
            "name": "eventobject",
            "value": "eventobject"
        }],
        "language": "js",
        "actions": [{
            "id": "customcode_onClick_70410201224763050",
            "type": "INVOKE_FUNCTION",
            "sequenceKUID": "TransferRecipientSearch",
            "display": "TransferRecipientSearch",
            "inputparams": [{
                "name": "eventObject",
                "value": "eventobject"
            }],
            "source": "module"
        }]
    }
}