{
    "p2kwiet2012247635184_btnAgreeSpa_onClick_seq0": {
        "id": "p2kwiet2012247635184_btnAgreeSpa_onClick_seq0",
        "type": "ACTION_SEQUENCE",
        "params": [{
            "name": "eventobject",
            "value": "eventobject"
        }],
        "language": "js",
        "actions": [{
            "id": "preprocessdecision_onClick_1682201224764341",
            "type": "CHANNEL_CONDITION",
            "platforms": ["j2me", "bb", "bb10", "winphone8", "palm", "android", "iphone", "winmobile", "symbian", "winmobile6x"]
        }, {
            "id": "preprocessdecision_onClick_27878201224762262",
            "type": "CHANNEL_CONDITION",
            "platforms": ["spaip", "spabbnth", "spawinphone8", "wap", "spaan", "spabb", "spawindows"]
        }, {
            "id": "expression_onClick_50866201224762065",
            "type": "ADD_SNIPPET",
            "codeSnippet": "popTransactionPwd.btnPopTransactionCancel.onClick = transCancelSelectFacebook;\n popTransactionPwd.btnPopTransactionConf.onClick = transConfirmSelectFacebookPre;\n popTransactionPwd.tbxPopTransactionPwd.text = \"\";\n popTransactionPwd.lblPopTranscationMsg.text = kony.i18n.getLocalizedString(\"keyTransPwdMsg\");\n popTransactionPwd.lblPopTransationPwd.text = kony.i18n.getLocalizedString(\"transPasswordSub\");\n popTransactionPwd.btnPopTransactionCancel.text = kony.i18n.getLocalizedString(\"keyCancelButton\"); \n popTransactionPwd.btnPopTransactionConf.text = kony.i18n.getLocalizedString(\"keyConfirm\");\n gblRcBase64List = \"\";",
            "parentId": "preprocessdecision_onClick_1682201224764341"
        }, {
            "id": "navigation_onClick_28717201224763536",
            "type": "DISPLAY_POPUP",
            "popupId": "popTransactionPwd",
            "popupKUID": "p2kwiet2012247650125",
            "mappings": {},
            "mappingsOrder": [],
            "parentId": "preprocessdecision_onClick_1682201224764341",
            "enableMappingEditor": true
        }, {
            "id": "expression_onClick_87627201224764375",
            "type": "ADD_SNIPPET",
            "codeSnippet": "var inputParams = {}\n spaChnage=\"addRcFacebook\"\n gblFlagTransPwdFlow = \"addRcFacebook\"\n gblOTPFlag = true;\n try {\n kony.timer.cancel(\"otpTimer\")\n }\n catch (e) {\n kony.print(\"Timer doesnot exist\");\n }\n onClickOTPRequestSpa();",
            "parentId": "preprocessdecision_onClick_27878201224762262"
        }]
    }
}