{
    "p2kwiet2012247650252_btnPopDeleteYEs_onClick_seq0": {
        "id": "p2kwiet2012247650252_btnPopDeleteYEs_onClick_seq0",
        "type": "ACTION_SEQUENCE",
        "params": [{
            "name": "eventobject",
            "value": "eventobject"
        }],
        "language": "js",
        "actions": [{
            "id": "customcode_onClick_63711201224761099",
            "type": "INVOKE_FUNCTION",
            "sequenceKUID": "callToCustCare",
            "display": "callToCustCare",
            "inputparams": [],
            "source": "module"
        }]
    }
}