{
    "p2kwiet2012247649889_segBanklist_onRowClick_seq0": {
        "id": "p2kwiet2012247649889_segBanklist_onRowClick_seq0",
        "type": "ACTION_SEQUENCE",
        "params": [{
            "name": "eventobject",
            "value": "eventobject"
        }, {
            "name": "sectionNumber",
            "value": "sectionNumber"
        }, {
            "name": "rowNumber",
            "value": "rowNumber"
        }],
        "language": "js",
        "actions": [{
            "id": "customcode_onRowClick_40004201224766018",
            "type": "INVOKE_FUNCTION",
            "sequenceKUID": "onRowSelectAddrPopUp",
            "display": "onRowSelectAddrPopUp",
            "inputparams": [],
            "source": "module"
        }]
    }
}