{
    "p2kwiet2012247627135_bttnBack_onClick_seq0": {
        "id": "p2kwiet2012247627135_bttnBack_onClick_seq0",
        "type": "ACTION_SEQUENCE",
        "params": [{
            "name": "eventobject",
            "value": "eventobject"
        }],
        "language": "js",
        "actions": [{
            "id": "customcode_onClick_27618201224762902",
            "type": "INVOKE_FUNCTION",
            "sequenceKUID": "onClickBackDetails",
            "display": "onClickBackDetails",
            "inputparams": [],
            "source": "module"
        }]
    }
}