{
    "p2kwiet2012247629538_tbxAtmNumber_onTextChange_seq0": {
        "id": "p2kwiet2012247629538_tbxAtmNumber_onTextChange_seq0",
        "type": "ACTION_SEQUENCE",
        "params": [{
            "name": "eventobject",
            "value": "eventobject"
        }, {
            "name": "changedtext",
            "value": "changedtext"
        }],
        "language": "js",
        "actions": [{
            "id": "customcode_onTextChange_9973220122476104",
            "type": "INVOKE_FUNCTION",
            "sequenceKUID": "formatCardNumber",
            "display": "formatCardNumber",
            "inputparams": [{
                "name": "cardNumber",
                "value": "frmMBActiAtmIdMobile.tbxAtmNumber.text"
            }],
            "source": "module"
        }]
    }
}