{
    "p2kwiet2012247627099_btnCombDistrict_onClick_seq0": {
        "id": "p2kwiet2012247627099_btnCombDistrict_onClick_seq0",
        "type": "ACTION_SEQUENCE",
        "params": [{
            "name": "eventobject",
            "value": "eventobject"
        }],
        "language": "js",
        "actions": [{
            "id": "customcode_onClick_46871201224765437",
            "type": "INVOKE_FUNCTION",
            "sequenceKUID": "callATMDistrictData",
            "display": "callATMDistrictData",
            "inputparams": [],
            "source": "module"
        }, {
            "id": "expression_onClick_15365201224762743",
            "type": "ADD_SNIPPET",
            "codeSnippet": "if(provinceID != \"\")\n popUpProvinceData.show();"
        }]
    }
}