{
    "p2kwiet15245716321099_btnback_onClick_seq0": {
        "id": "p2kwiet15245716321099_btnback_onClick_seq0",
        "type": "ACTION_SEQUENCE",
        "params": [{
            "name": "eventobject",
            "value": "eventobject"
        }],
        "language": "js",
        "actions": [{
            "id": "customcode_onClick_615141524571632367",
            "type": "INVOKE_FUNCTION",
            "sequenceKUID": "callMasterBillerService",
            "display": "callMasterBillerService",
            "inputparams": [],
            "source": "module"
        }]
    }
}