{
    "p2kwiet2012247637118_btnMonthly_onClick_seq0": {
        "id": "p2kwiet2012247637118_btnMonthly_onClick_seq0",
        "type": "ACTION_SEQUENCE",
        "params": [{
            "name": "eventobject",
            "value": "eventobject"
        }],
        "language": "js",
        "actions": [{
            "id": "expression_onClick_78006201224763198",
            "type": "ADD_SNIPPET",
            "codeSnippet": "frmScheduleBillPayEditFuture.lblEnd.setVisibility(true);\n frmScheduleBillPayEditFuture.hbxEndAfterButtonHolder.setVisibility(true);\n frmScheduleBillPayEditFuture.lineUntil.setVisibility(true);"
        }, {
            "id": "customcode_onClick_48336201224762876",
            "type": "INVOKE_FUNCTION",
            "sequenceKUID": "repeatScheduleFrequencyMB",
            "display": "repeatScheduleFrequencyMB",
            "inputparams": [{
                "name": "eventObject",
                "value": "eventobject"
            }],
            "source": "module"
        }]
    }
}