{
    "p2kwiet2012247637673_vbxContactList_onClick_seq0": {
        "id": "p2kwiet2012247637673_vbxContactList_onClick_seq0",
        "type": "ACTION_SEQUENCE",
        "params": [{
            "name": "eventobject",
            "value": "eventobject"
        }],
        "language": "js",
        "actions": [{
            "id": "customcode_onClick_61036201224769385",
            "type": "INVOKE_FUNCTION",
            "sequenceKUID": "populateContactsInToList",
            "display": "populateContactsInToList",
            "inputparams": [],
            "source": "module"
        }]
    }
}