{
    "p2kwiet2012247629155_button209682697497232_onClick_seq0": {
        "id": "p2kwiet2012247629155_button209682697497232_onClick_seq0",
        "type": "ACTION_SEQUENCE",
        "params": [{
            "name": "eventobject",
            "value": "eventobject"
        }],
        "language": "js",
        "actions": [{
            "id": "preprocessdecision_onClick_95511201224769288",
            "type": "CHANNEL_CONDITION",
            "platforms": ["j2me", "bb", "bb10", "winphone8", "palm", "android", "winmobile", "iphone", "symbian", "winmobile6x"]
        }, {
            "id": "preprocessdecision_onClick_12886201224764984",
            "type": "CHANNEL_CONDITION",
            "platforms": ["spaip", "spabbnth", "spawinphone8", "spaan", "spabb", "spawindows"]
        }, {
            "id": "customcode_onClick_32938201224761285",
            "type": "INVOKE_FUNCTION",
            "sequenceKUID": "checkCameraPermissionsForEditProfile",
            "display": "checkCameraPermissionsForEditProfile",
            "inputparams": [],
            "parentId": "preprocessdecision_onClick_95511201224769288",
            "source": "module"
        }, {
            "id": "navigation_onClick_91387201224766471",
            "type": "DISPLAY_POPUP",
            "popupId": "popUploadPicSpa",
            "popupKUID": "p2kwiet2012247650323",
            "mappings": {},
            "mappingsOrder": [],
            "parentId": "preprocessdecision_onClick_12886201224764984",
            "enableMappingEditor": true
        }]
    }
}