{
    "p2kwiet2012247631467_frmMBFtSchedule_postshow_seq0": {
        "id": "p2kwiet2012247631467_frmMBFtSchedule_postshow_seq0",
        "type": "ACTION_SEQUENCE",
        "params": [{
            "name": "eventobject",
            "value": "eventobject"
        }, {
            "name": "neworientation",
            "value": "neworientation"
        }],
        "language": "js",
        "actions": [{
            "id": "customcode_postshow_18932201224766511",
            "type": "INVOKE_FUNCTION",
            "sequenceKUID": "ehFrmMBFtSchedule_frmMBFtSchedule_postshow",
            "display": "ehFrmMBFtSchedule_frmMBFtSchedule_postshow",
            "inputparams": [],
            "source": "module"
        }]
    }
}