{
    "p2kwiet2012247637118_frmScheduleBillPayEditFuture_postshow_seq0": {
        "id": "p2kwiet2012247637118_frmScheduleBillPayEditFuture_postshow_seq0",
        "type": "ACTION_SEQUENCE",
        "params": [{
            "name": "eventobject",
            "value": "eventobject"
        }, {
            "name": "neworientation",
            "value": "neworientation"
        }],
        "language": "js",
        "actions": [{
            "id": "preprocessdecision_postshow_34062201224764293",
            "type": "CHANNEL_CONDITION",
            "platforms": ["spaip"]
        }, {
            "id": "customcode_postshow_80436201224763484",
            "type": "INVOKE_FUNCTION",
            "sequenceKUID": "commonMBPostShow",
            "display": "commonMBPostShow",
            "inputparams": [],
            "parentId": "preprocessdecision_postshow_34062201224764293",
            "source": "module"
        }]
    }
}