{
    "p2kwiet2012247626480_btnBackSpa_onClick_seq0": {
        "id": "p2kwiet2012247626480_btnBackSpa_onClick_seq0",
        "type": "ACTION_SEQUENCE",
        "params": [{
            "name": "eventobject",
            "value": "eventobject"
        }],
        "language": "js",
        "actions": [{
            "id": "decision_onClick_95452201224766052",
            "type": "IF_CONDITION",
            "conditions": [{
                "leftValueType": "expression",
                "leftValue": "isMenuShown==false"
            }],
            "criteria": "all"
        }, {
            "id": "decision_onClick_27610201224765566",
            "type": "ELSE_CONDITION",
            "conditions": [],
            "criteria": "all"
        }, {
            "id": "customcode_onClick_81229201224766225",
            "type": "INVOKE_FUNCTION",
            "sequenceKUID": "onClickOfAccountDetailsBack",
            "display": "onClickOfAccountDetailsBack",
            "inputparams": [],
            "parentId": "decision_onClick_95452201224766052",
            "source": "module"
        }, {
            "id": "expression_onClick_53303201224768282",
            "type": "ADD_SNIPPET",
            "codeSnippet": "//kony.application.showLoadingScreen(frmLoading, \"\",constants.LOADING_SCREEN_POSITION_ONLY_CENTER, true, true, null);\n showLoadingScreen();\n frmAccountDetailsMB.scrollboxMain.scrollToEnd();\n isMenuShown=false;\n kony.application.dismissLoadingScreen();",
            "parentId": "decision_onClick_27610201224765566"
        }]
    }
}