{
    "p2kwiet2012247634557_btnMobileNo1_onClick_seq0": {
        "id": "p2kwiet2012247634557_btnMobileNo1_onClick_seq0",
        "type": "ACTION_SEQUENCE",
        "params": [{
            "name": "eventobject",
            "value": "eventobject"
        }, {
            "name": "context",
            "value": "context"
        }],
        "language": "js",
        "actions": [{
            "id": "customcode_onClick_8080201224763023",
            "type": "INVOKE_FUNCTION",
            "sequenceKUID": "ContactsMSfunc",
            "display": "ContactsMSfunc",
            "inputparams": [{
                "name": "btnID",
                "value": "\"one\""
            }],
            "source": "module"
        }]
    }
}