{
    "p2kwiet2012247635689_btnTranLandToSel_onClick_seq0": {
        "id": "p2kwiet2012247635689_btnTranLandToSel_onClick_seq0",
        "type": "ACTION_SEQUENCE",
        "params": [{
            "name": "eventobject",
            "value": "eventobject"
        }],
        "language": "js",
        "actions": [{
            "id": "customcode_onClick_17679201224767064",
            "type": "INVOKE_FUNCTION",
            "sequenceKUID": "showTDToActsToSpa",
            "display": "showTDToActsToSpa",
            "inputparams": [],
            "source": "module"
        }]
    }
}