{
    "p2kwiet2012247631989_flexPdf_onTouchStart_seq0": {
        "id": "p2kwiet2012247631989_flexPdf_onTouchStart_seq0",
        "type": "ACTION_SEQUENCE",
        "params": [{
            "name": "eventobject",
            "value": "eventobject"
        }, {
            "name": "x",
            "value": "x"
        }, {
            "name": "y",
            "value": "y"
        }, {
            "name": "contextInfo",
            "value": "contextInfo"
        }],
        "language": "js",
        "actions": [{
            "id": "expression_onTouchStart_12124201224764012",
            "type": "ADD_SNIPPET",
            "codeSnippet": "frmMBNewTnC.buttonPdf.skin=\"btnPdfSCFoc\";\n frmMBNewTnC.flexPdf.skin=\"flexLightBlueLine\";"
        }]
    }
}