{
    "p2kwiet2012247629441_btnHdrMenu_onClick_seq0": {
        "id": "p2kwiet2012247629441_btnHdrMenu_onClick_seq0",
        "type": "ACTION_SEQUENCE",
        "params": [{
            "name": "eventobject",
            "value": "eventobject"
        }],
        "language": "js",
        "actions": [{
            "id": "customcode_onClick_70511201224769935",
            "type": "INVOKE_FUNCTION",
            "sequenceKUID": "frmInboxHome_btnHdrMenu_onClick",
            "display": "frmInboxHome_btnHdrMenu_onClick",
            "inputparams": [],
            "source": "module"
        }]
    }
}