{
    "p2kwiet2012247630325_frmMBAssignAtmPinNew_init_seq0": {
        "id": "p2kwiet2012247630325_frmMBAssignAtmPinNew_init_seq0",
        "type": "ACTION_SEQUENCE",
        "params": [{
            "name": "eventobject",
            "value": "eventobject"
        }],
        "language": "js",
        "actions": [{
            "id": "customcode_init_49836201224763633",
            "type": "INVOKE_FUNCTION",
            "sequenceKUID": "init_frmMBAssignAtmPinNew_Function",
            "display": "init_frmMBAssignAtmPinNew_Function",
            "inputparams": [],
            "source": "module"
        }]
    }
}