{
    "p2kwiet2012247630571_btnMainMenu_onClick_seq0": {
        "id": "p2kwiet2012247630571_btnMainMenu_onClick_seq0",
        "type": "ACTION_SEQUENCE",
        "params": [{
            "name": "eventobject",
            "value": "eventobject"
        }],
        "language": "js",
        "actions": [{
            "id": "customcode_onClick_82656201224764809",
            "type": "INVOKE_FUNCTION",
            "sequenceKUID": "handleMenuBtn",
            "display": "handleMenuBtn",
            "inputparams": [],
            "source": "module"
        }]
    }
}