{
    "p2kwiet2012247629324_flxTouchED_onTouchStart_seq0": {
        "id": "p2kwiet2012247629324_flxTouchED_onTouchStart_seq0",
        "type": "ACTION_SEQUENCE",
        "params": [{
            "name": "eventobject",
            "value": "eventobject"
        }, {
            "name": "x",
            "value": "x"
        }, {
            "name": "y",
            "value": "y"
        }, {
            "name": "contextInfo",
            "value": "contextInfo"
        }],
        "language": "js",
        "actions": [{
            "id": "customcode_onTouchStart_18286201224768917",
            "type": "INVOKE_FUNCTION",
            "sequenceKUID": "onImgEDTouch",
            "display": "onImgEDTouch",
            "inputparams": [],
            "source": "module"
        }]
    }
}