{
    "p2kwiet2012247628567_txtTemp_iPhone_onEndEditing_seq0": {
        "id": "p2kwiet2012247628567_txtTemp_iPhone_onEndEditing_seq0",
        "type": "ACTION_SEQUENCE",
        "params": [{
            "name": "eventobject",
            "value": "eventobject"
        }, {
            "name": "changedtext",
            "value": "changedtext"
        }],
        "language": "js",
        "actions": [{
            "id": "expression_onEndEditing_93447201224766785",
            "type": "ADD_SNIPPET",
            "codeSnippet": "popBubble.destroy();"
        }]
    }
}