{
    "p2kwiet2012247650317_button474076475461503_onClick_seq0": {
        "id": "p2kwiet2012247650317_button474076475461503_onClick_seq0",
        "type": "ACTION_SEQUENCE",
        "params": [{
            "name": "eventobject",
            "value": "eventobject"
        }],
        "language": "js",
        "actions": [{
            "id": "expression_onClick_1422320122476899",
            "type": "ADD_SNIPPET",
            "codeSnippet": "popUploadPic.dismiss();"
        }]
    }
}