{
    "p2kwiet2012247628805_lblTargetAmntVal_iPhone_onBeginEditing_seq0": {
        "id": "p2kwiet2012247628805_lblTargetAmntVal_iPhone_onBeginEditing_seq0",
        "type": "ACTION_SEQUENCE",
        "params": [{
            "name": "eventobject",
            "value": "eventobject"
        }, {
            "name": "changedtext",
            "value": "changedtext"
        }],
        "language": "js",
        "actions": [{
            "id": "expression_onBeginEditing_77968201224764463",
            "type": "ADD_SNIPPET",
            "codeSnippet": "frmDreamSavingEdit.lblTargetAmntVal.skin=\"txtFocusBG\"\n \n var setvalue = frmDreamSavingEdit.lblTargetAmntVal.text;\n \n frmDreamSavingEdit.lblTargetAmntVal.text = setvalue.replace(kony.i18n.getLocalizedString(\"currencyThaiBaht\"), \"\")"
        }]
    }
}