{
    "p2kwiet2012247629155_button474076475460875_onClick_seq0": {
        "id": "p2kwiet2012247629155_button474076475460875_onClick_seq0",
        "type": "ACTION_SEQUENCE",
        "params": [{
            "name": "eventobject",
            "value": "eventobject"
        }],
        "language": "js",
        "actions": [{
            "id": "preprocessdecision_onClick_72317201224767095",
            "type": "CHANNEL_CONDITION",
            "platforms": ["spaip", "spabbnth", "spawinphone8", "spaan", "spabb", "spawindows"]
        }, {
            "id": "preprocessdecision_onClick_64994201224767516",
            "type": "CHANNEL_CONDITION",
            "platforms": ["j2me", "bb", "bb10", "winphone8", "palm", "android", "iphone", "winmobile", "symbian", "winmobile6x"]
        }, {
            "id": "navigation_onClick_546292012247692",
            "type": "DISPLAY_POPUP",
            "popupId": "popUploadPicSpa",
            "popupKUID": "p2kwiet2012247650323",
            "mappings": {},
            "mappingsOrder": [],
            "parentId": "preprocessdecision_onClick_72317201224767095",
            "enableMappingEditor": true
        }, {
            "id": "customcode_onClick_95222201224765776",
            "type": "INVOKE_FUNCTION",
            "sequenceKUID": "checkCameraPermissionsForEditProfile",
            "display": "checkCameraPermissionsForEditProfile",
            "inputparams": [],
            "parentId": "preprocessdecision_onClick_64994201224767516",
            "source": "module"
        }]
    }
}