{
    "p2kwiet2012247632394_segAccounts_onPull_seq0": {
        "id": "p2kwiet2012247632394_segAccounts_onPull_seq0",
        "type": "ACTION_SEQUENCE",
        "params": [{
            "name": "eventobject",
            "value": "eventobject"
        }],
        "language": "js",
        "actions": [{
            "id": "customcode_onPull_31611201224763255",
            "type": "INVOKE_FUNCTION",
            "sequenceKUID": "onPullQuickBalanceSegment",
            "display": "onPullQuickBalanceSegment",
            "inputparams": [],
            "source": "module"
        }]
    }
}