{
    "p2kwiet2012247633659_txtBxAccnt1_SPA_onBeginEditing_seq0": {
        "id": "p2kwiet2012247633659_txtBxAccnt1_SPA_onBeginEditing_seq0",
        "type": "ACTION_SEQUENCE",
        "params": [{
            "name": "eventobject",
            "value": "eventobject"
        }, {
            "name": "changedtext",
            "value": "changedtext"
        }],
        "language": "js",
        "actions": [{
            "id": "customcode_onBeginEditing_39710201224769645",
            "type": "INVOKE_FUNCTION",
            "sequenceKUID": "dontAllowNonNeumaric",
            "display": "dontAllowNonNeumaric",
            "inputparams": [{
                "name": "textbozId",
                "value": "txtBxAccnt1"
            }],
            "source": "module"
        }]
    }
}