{
    "p2kwiet2012247633010_txtTempAccess_iPhone_onBeginEditing_seq0": {
        "id": "p2kwiet2012247633010_txtTempAccess_iPhone_onBeginEditing_seq0",
        "type": "ACTION_SEQUENCE",
        "params": [{
            "name": "eventobject",
            "value": "eventobject"
        }, {
            "name": "changedtext",
            "value": "changedtext"
        }],
        "language": "js",
        "actions": [{
            "id": "expression_onBeginEditing_665201224766434",
            "type": "ADD_SNIPPET",
            "codeSnippet": "frmMBsetPasswd.hbox50285458140.skin = \"hboxBG\"\n if(isMenuShown){\n frmMBsetPasswd.scrollboxMain.scrollToEnd();\n isMenuShown = false;\n } \n gblTxtFocusFlag = 2;"
        }]
    }
}