{
    "p2kwiet2012247650469_btnPopupTractConf_onClick_seq0": {
        "id": "p2kwiet2012247650469_btnPopupTractConf_onClick_seq0",
        "type": "ACTION_SEQUENCE",
        "params": [{
            "name": "eventobject",
            "value": "eventobject"
        }],
        "language": "js",
        "actions": [{
            "id": "customcode_onClick_35530201224761997",
            "type": "INVOKE_FUNCTION",
            "sequenceKUID": "ehPopupTractPwd_btnPopupTractConf_onClick",
            "display": "ehPopupTractPwd_btnPopupTractConf_onClick",
            "inputparams": [],
            "source": "module"
        }]
    }
}