{
    "p2kwiet2012247629304_button101086657957077_onClick_seq0": {
        "id": "p2kwiet2012247629304_button101086657957077_onClick_seq0",
        "type": "ACTION_SEQUENCE",
        "params": [{
            "name": "eventobject",
            "value": "eventobject"
        }],
        "language": "js",
        "actions": [{
            "id": "customcode_onClick_70481201224764571",
            "type": "INVOKE_FUNCTION",
            "sequenceKUID": "showAccountSummaryFromMenu",
            "display": "showAccountSummaryFromMenu",
            "inputparams": [],
            "source": "module"
        }]
    }
}