{
    "p2kwiet2012247651231_btnConfirm_onClick_seq0": {
        "id": "p2kwiet2012247651231_btnConfirm_onClick_seq0",
        "type": "ACTION_SEQUENCE",
        "params": [{
            "name": "eventobject",
            "value": "eventobject"
        }],
        "language": "js",
        "actions": [{
            "id": "navigation_onClick_81752201224769096",
            "type": "DISPLAY_POPUP",
            "popupId": "popupConfirmation",
            "popupKUID": "p2kwiet2012247650261",
            "mappings": {},
            "mappingsOrder": [],
            "enableMappingEditor": true
        }]
    }
}