{
    "p2kwiet2012247633448_btnEng_onClick_seq0": {
        "id": "p2kwiet2012247633448_btnEng_onClick_seq0",
        "type": "ACTION_SEQUENCE",
        "params": [{
            "name": "eventobject",
            "value": "eventobject"
        }],
        "language": "js",
        "actions": [{
            "id": "customcode_onClick_34992201224761982",
            "type": "INVOKE_FUNCTION",
            "sequenceKUID": "changeLocale",
            "display": "changeLocale",
            "inputparams": [],
            "source": "module"
        }]
    }
}