{
    "p2kwiet2012247634709_button474225406726368_onClick_seq0": {
        "id": "p2kwiet2012247634709_button474225406726368_onClick_seq0",
        "type": "ACTION_SEQUENCE",
        "params": [{
            "name": "eventobject",
            "value": "eventobject"
        }],
        "language": "js",
        "actions": [{
            "id": "expression_onClick_77842201224763927",
            "type": "ADD_SNIPPET",
            "codeSnippet": "gblAddMoreRcTrack = gblAddMoreRcTrack + multiSelectedFacebook.length;"
        }, {
            "id": "decision_onClick_24341201224761882",
            "type": "IF_CONDITION",
            "conditions": [{
                "leftValueType": "expression",
                "leftValue": "(gblAddMoreRcTrack + myRecipientsRs.length) >= gblMAXRecipientCount "
            }],
            "criteria": "all"
        }, {
            "id": "decision_onClick_56356201224768823",
            "type": "ELSE_CONDITION",
            "conditions": [],
            "criteria": "all"
        }, {
            "id": "customcode_onClick_60159201224769118",
            "type": "INVOKE_FUNCTION",
            "sequenceKUID": "alert99LimitReached",
            "display": "alert99LimitReached",
            "inputparams": [],
            "parentId": "decision_onClick_24341201224761882",
            "source": "module"
        }, {
            "id": "expression_onClick_3499520122476357",
            "type": "ADD_SNIPPET",
            "codeSnippet": "for(var i = 0; i < multiSelectedFacebook.length; i++){\n gblAddMoreFromFacebookCache.push(multiSelectedFacebook[i]);\n }",
            "parentId": "decision_onClick_56356201224768823"
        }, {
            "id": "navigation_onClick_1318201224762034",
            "type": "NAVIGATE_TO_FORM",
            "formId": "frmMyRecipientSelectFacebook",
            "formKUID": "p2kwiet2012247634671",
            "mappings": {},
            "mappingsOrder": [],
            "parentId": "decision_onClick_56356201224768823",
            "enableMappingEditor": true,
            "package": ""
        }]
    }
}