{
    "p2kwiet2012247629155_button474230331217991_onClick_seq0": {
        "id": "p2kwiet2012247629155_button474230331217991_onClick_seq0",
        "type": "ACTION_SEQUENCE",
        "params": [{
            "name": "eventobject",
            "value": "eventobject"
        }],
        "language": "js",
        "actions": [{
            "id": "expression_onClick_10961201224765768",
            "type": "ADD_SNIPPET",
            "codeSnippet": "mptemp = \"preshow\";\n confirmEdit = false;\n selectState = \"\";\n selectDist = \"\";\n selectSubDist = \"\";\n selectZip = \"\";\n resulttableState = []; \n resulttableDist = []; \n resulttableSubDist = []; \n resulttableStateZip = [];\n changeState = false;\n changedist = false;\n changeSubDist = false;\n changeZip = false;"
        }, {
            "id": "navigation_onClick_1977120122476518",
            "type": "NAVIGATE_TO_FORM",
            "formId": "frmMyProfiles",
            "formKUID": "jf3c0918fd6c420bb062a968d5831f5d",
            "mappings": {},
            "mappingsOrder": [],
            "parentId": "",
            "enableMappingEditor": true,
            "package": ""
        }]
    }
}