{
    "p2kwiet2012247636497_button47428498625_onClick_seq0": {
        "id": "p2kwiet2012247636497_button47428498625_onClick_seq0",
        "type": "ACTION_SEQUENCE",
        "params": [{
            "name": "eventobject",
            "value": "eventobject"
        }],
        "language": "js",
        "actions": [{
            "id": "customcode_onClick_90827201224766765",
            "type": "INVOKE_FUNCTION",
            "sequenceKUID": "savePDFExecTOATDMB",
            "display": "savePDFExecTOATDMB",
            "inputparams": [{
                "name": "filetype",
                "value": "\"pdf\""
            }],
            "source": "module"
        }]
    }
}