{
    "p2kwiet2012247630679_frmMBCashAdvanceCardInfo_preshow_seq0": {
        "id": "p2kwiet2012247630679_frmMBCashAdvanceCardInfo_preshow_seq0",
        "type": "ACTION_SEQUENCE",
        "params": [{
            "name": "eventobject",
            "value": "eventobject"
        }],
        "language": "js",
        "actions": [{
            "id": "customcode_preshow_45204201224765839",
            "type": "INVOKE_FUNCTION",
            "sequenceKUID": "frmMBCashAdvanceCardInfoMenuPreshow",
            "display": "frmMBCashAdvanceCardInfoMenuPreshow",
            "inputparams": [],
            "source": "module"
        }]
    }
}