{
    "p2kwiet2012247650014_btnPopupTractConf_onClick_seq0": {
        "id": "p2kwiet2012247650014_btnPopupTractConf_onClick_seq0",
        "type": "ACTION_SEQUENCE",
        "params": [{
            "name": "eventobject",
            "value": "eventobject"
        }],
        "language": "js",
        "actions": [{
            "id": "expression_onClick_79932201224762962",
            "type": "ADD_SNIPPET",
            "codeSnippet": "popForgotPass.dismiss();\n \n try\n {\n var number=\"1558\";\n kony.phone.dial(number);\n }\n catch(err)\n {\n alert(\"error in dial:: \"+err);\n }"
        }]
    }
}