{
    "p2kwiet2012247630865_lblManageOtherCards_onClick_seq0": {
        "id": "p2kwiet2012247630865_lblManageOtherCards_onClick_seq0",
        "type": "ACTION_SEQUENCE",
        "params": [{
            "name": "eventobject",
            "value": "eventobject"
        }],
        "language": "js",
        "actions": [{
            "id": "customcode_onClick_63509201224767358",
            "type": "INVOKE_FUNCTION",
            "sequenceKUID": "onClickManageOfChangePINSuccess",
            "display": "onClickManageOfChangePINSuccess",
            "inputparams": [],
            "source": "module"
        }]
    }
}