{
    "p2kwiet15245716321319_hbox101271281131304_onClick_seq0": {
        "id": "p2kwiet15245716321319_hbox101271281131304_onClick_seq0",
        "type": "ACTION_SEQUENCE",
        "params": [{
            "name": "eventobject",
            "value": "eventobject"
        }],
        "language": "js",
        "actions": [{
            "id": "customcode_onClick_5729715245716327556",
            "type": "INVOKE_FUNCTION",
            "sequenceKUID": "hideUnhideBalanceBillPayment",
            "display": "hideUnhideBalanceBillPayment",
            "inputparams": [],
            "source": "module"
        }]
    }
}