{
    "p2kwiet2012247628805_frmDreamSavingEdit_preshow_seq0": {
        "id": "p2kwiet2012247628805_frmDreamSavingEdit_preshow_seq0",
        "type": "ACTION_SEQUENCE",
        "params": [{
            "name": "eventobject",
            "value": "eventobject"
        }, {
            "name": "neworientation",
            "value": "neworientation"
        }],
        "language": "js",
        "actions": [{
            "id": "customcode_preshow_802520122476219",
            "type": "INVOKE_FUNCTION",
            "sequenceKUID": "frmDreamSavingEditMenuPreshow",
            "display": "frmDreamSavingEditMenuPreshow",
            "inputparams": [],
            "source": "module"
        }]
    }
}