{
    "p2kwiet2012247628618_button506459299404751_onClick_seq0": {
        "id": "p2kwiet2012247628618_button506459299404751_onClick_seq0",
        "type": "ACTION_SEQUENCE",
        "params": [{
            "name": "eventobject",
            "value": "eventobject"
        }],
        "language": "js",
        "actions": [{
            "id": "expression_onClick_2762520122476477",
            "type": "ADD_SNIPPET",
            "codeSnippet": "kony.print(\"user--\"+isSignedUser);\n if(flowSpa){\n TMBUtil.DestroyForm(frmContactusFAQMB);\n }"
        }, {
            "id": "decision_onClick_51116201224762002",
            "type": "IF_CONDITION",
            "conditions": [{
                "leftValueType": "expression",
                "leftValue": "isSignedUser == true"
            }],
            "criteria": "all"
        }, {
            "id": "decision_onClick_23885201224769325",
            "type": "ELSE_CONDITION",
            "conditions": [],
            "criteria": "all"
        }, {
            "id": "customcode_onClick_23244201224766053",
            "type": "INVOKE_FUNCTION",
            "sequenceKUID": "contactUsDisplayForm",
            "display": "contactUsDisplayForm",
            "inputparams": [],
            "parentId": "decision_onClick_51116201224762002",
            "source": "module"
        }, {
            "id": "expression_onClick_6940201224763516",
            "type": "ADD_SNIPPET",
            "codeSnippet": "frmContactUsMB.show();\n frmContactUsMB.hbxPostLogin.setVisibility(false);\n frmContactUsMB.hbxFeedback.setVisibility(false);\n frmContactUsMB.hbxContact.setVisibility(true)\n frmContactUsMB.line47592361418663.setVisibility(true);\n frmContactUsMB.line47592361418559.setVisibility(true);\n frmContactUsMB.hbxFAQ.setVisibility(true);\n frmContactUsMB.hbxFB.setVisibility(false);\n frmContactUsMB.hbxFindTMB.setVisibility(false);\n frmContactUsMB.lblheader.text =kony.i18n.getLocalizedString(\"keyContactUs\");",
            "parentId": "decision_onClick_23885201224769325"
        }]
    }
}