{
    "p2kwiet2012247635003_btnCancel_onClick_seq0": {
        "id": "p2kwiet2012247635003_btnCancel_onClick_seq0",
        "type": "ACTION_SEQUENCE",
        "params": [{
            "name": "eventobject",
            "value": "eventobject"
        }],
        "language": "js",
        "actions": [{
            "id": "decision_onClick_66200201224761823",
            "type": "IF_CONDITION",
            "conditions": [{
                "leftValueType": "expression",
                "leftValue": "isMenuShown == false"
            }],
            "criteria": "all"
        }, {
            "id": "decision_onClick_17737201224763562",
            "type": "ELSE_CONDITION",
            "conditions": [],
            "criteria": "all"
        }, {
            "id": "expression_onClick_35452201224764873",
            "type": "ADD_SNIPPET",
            "codeSnippet": "frmViewTopUpBiller.imgComplete.setVisibility(false);\n frmViewTopUpBiller.show();",
            "parentId": "decision_onClick_66200201224761823"
        }, {
            "id": "expression_onClick_50127201224766457",
            "type": "ADD_SNIPPET",
            "codeSnippet": "frmMyTopUpEditScreens.scrollboxMain.scrollToEnd();\n isMenuShown = false;",
            "parentId": "decision_onClick_17737201224763562"
        }]
    }
}