{
    "p2kwiet2012247633659_txtBxAccnt1_onTextChange_seq0": {
        "id": "p2kwiet2012247633659_txtBxAccnt1_onTextChange_seq0",
        "type": "ACTION_SEQUENCE",
        "params": [{
            "name": "eventobject",
            "value": "eventobject"
        }, {
            "name": "changedtext",
            "value": "changedtext"
        }],
        "language": "js",
        "actions": [{
            "id": "customcode_onTextChange_62887201224766917",
            "type": "INVOKE_FUNCTION",
            "sequenceKUID": "depositAccntTextbox",
            "display": "depositAccntTextbox",
            "inputparams": [],
            "source": "module"
        }]
    }
}