{
    "p2kwiet2012247632394_btnAccessPin_onClick_seq0": {
        "id": "p2kwiet2012247632394_btnAccessPin_onClick_seq0",
        "type": "ACTION_SEQUENCE",
        "params": [{
            "name": "eventobject",
            "value": "eventobject"
        }],
        "language": "js",
        "actions": [{
            "id": "customcode_onClick_51248201224764734",
            "type": "INVOKE_FUNCTION",
            "sequenceKUID": "onClickEnterAccessPin",
            "display": "onClickEnterAccessPin",
            "inputparams": [],
            "source": "module"
        }]
    }
}