{
    "p2kwiet2012247630700_btnRight_onClick_seq0": {
        "id": "p2kwiet2012247630700_btnRight_onClick_seq0",
        "type": "ACTION_SEQUENCE",
        "params": [{
            "name": "eventobject",
            "value": "eventobject"
        }],
        "language": "js",
        "actions": [{
            "id": "preprocessdecision_onClick_60125201224766999",
            "type": "CHANNEL_CONDITION",
            "platforms": ["android", "iphone"]
        }, {
            "id": "expression_onClick_3204120122476215",
            "type": "ADD_SNIPPET",
            "codeSnippet": "currForm = frmMBCashAdvanceTnC;\n var deviceHght = kony.os.deviceInfo().deviceHeight;\n var osType = kony.os.deviceInfo().name;\n if (currForm.flxSaveCamEmail.isVisible == false) {\n currForm.flxSaveCamEmail.isVisible = true; \n currForm.btnRight.skin = \"btnShareNewOpenAc\"; \n } else {\n currForm.flxSaveCamEmail.isVisible = false; \n currForm.btnRight.skin = \"btnRightShare\"; \n }",
            "parentId": "preprocessdecision_onClick_60125201224766999"
        }]
    }
}