{
    "p2kwiet2012247628805_lblSetSavingVal_iPhone_onBeginEditing_seq0": {
        "id": "p2kwiet2012247628805_lblSetSavingVal_iPhone_onBeginEditing_seq0",
        "type": "ACTION_SEQUENCE",
        "params": [{
            "name": "eventobject",
            "value": "eventobject"
        }, {
            "name": "changedtext",
            "value": "changedtext"
        }],
        "language": "js",
        "actions": [{
            "id": "expression_onBeginEditing_33167201224768085",
            "type": "ADD_SNIPPET",
            "codeSnippet": "frmDreamSavingEdit.lblSetSavingVal.skin=\"txtFocusBG\";\n \n var setvalue = frmDreamSavingEdit.lblSetSavingVal.text;\n \n frmDreamSavingEdit.lblSetSavingVal.text = setvalue.replace(kony.i18n.getLocalizedString(\"currencyThaiBaht\"), \"\").replace(\"/\",\"\").replace(kony.i18n.getLocalizedString(\"keyCalendarMonth\"), \"\")"
        }]
    }
}