{
    "p2kwiet2012247650076_button474046533325957_onClick_seq0": {
        "id": "p2kwiet2012247650076_button474046533325957_onClick_seq0",
        "type": "ACTION_SEQUENCE",
        "params": [{
            "name": "eventobject",
            "value": "eventobject"
        }],
        "language": "js",
        "actions": [{
            "id": "expression_onClick_69813201224767839",
            "type": "ADD_SNIPPET",
            "codeSnippet": "popOtpSpa.dismiss()\n popOtpSpa.hbxTokenMsg.setVisibility(false);\n popOtpSpa.txttokenspa.text=\"\";"
        }]
    }
}