{
    "p2kwiet2012247632957_hbxAccessPin_onClick_seq0": {
        "id": "p2kwiet2012247632957_hbxAccessPin_onClick_seq0",
        "type": "ACTION_SEQUENCE",
        "params": [{
            "name": "eventobject",
            "value": "eventobject"
        }],
        "language": "js",
        "actions": [{
            "id": "customcode_onClick_26874201224762953",
            "type": "INVOKE_FUNCTION",
            "sequenceKUID": "focusTexbox",
            "display": "focusTexbox",
            "inputparams": [],
            "source": "module"
        }]
    }
}