{
    "p2kwiet2012247634343_btnTransfer_onClick_seq0": {
        "id": "p2kwiet2012247634343_btnTransfer_onClick_seq0",
        "type": "ACTION_SEQUENCE",
        "params": [{
            "name": "eventobject",
            "value": "eventobject"
        }],
        "language": "js",
        "actions": [{
            "id": "expression_onClick_34947201224768137",
            "type": "ADD_SNIPPET",
            "codeSnippet": "gblTransferFromRecipient=true;\n gbltransferFromForm = \"frmMyRecipientEditAccComplete\";"
        }, {
            "id": "customcode_onClick_2124520122476644",
            "type": "INVOKE_FUNCTION",
            "sequenceKUID": "getTransferFromAccounts",
            "display": "getTransferFromAccounts",
            "inputparams": [],
            "source": "module"
        }]
    }
}