{
    "p2kwiet2012247635762_txtODMnthSavAmt_Android_onEndEditing_seq0": {
        "id": "p2kwiet2012247635762_txtODMnthSavAmt_Android_onEndEditing_seq0",
        "type": "ACTION_SEQUENCE",
        "params": [{
            "name": "eventobject",
            "value": "eventobject"
        }, {
            "name": "changedtext",
            "value": "changedtext"
        }],
        "language": "js",
        "actions": [{
            "id": "expression_onEndEditing_92311201224764292",
            "type": "ADD_SNIPPET",
            "codeSnippet": "var myDreamAmtBaht = frmOpenAcDreamSaving.txtODMnthSavAmt.text;\n var tarAmount= myDreamAmtBaht.replace(kony.i18n.getLocalizedString(\"currencyThaiBaht\"), \"\").replace(/,/g, \"\")\n var targetAmtBaht = frmOpenAcDreamSaving.txtODTargetAmt.text;\n var entAmount= targetAmtBaht.replace(kony.i18n.getLocalizedString(\"currencyThaiBaht\"), \"\").replace(/,/g, \"\")\n //var tarAmount = frmOpenAcDreamSaving.txtODTargetAmt.text;\n \n //var entAmount = frmOpenAcDreamSaving.txtODMnthSavAmt.text;\n \n if (kony.string.isNumeric(tarAmount) == false){\n showAlert(kony.i18n.getLocalizedString(\"keydreamIncorrectMnthlySavingAmnt\"), kony.i18n.getLocalizedString(\"info\"));\n return false\n }\n \n \n if (tarAmount.indexOf(\"0\") == 0 ) {\n showAlert(kony.i18n.getLocalizedString(\"keyPleaseentercorrectamount\"), kony.i18n.getLocalizedString(\"info\"));\n frmOpenAcDreamSaving.txtODMyDream.text=\"\";\n return false\n }\n \n \n var indexdot=tarAmount.indexOf(\".\");\n var decimal=\"\";\n var remAmt=\"\";\n kony.print(\"indexdot\" + indexdot);\n if(indexdot > 0)\n { decimal=tarAmount.substr(indexdot);\n kony.print(\"decimal@@\" + decimal);\n if (decimal.length > 4){\n alert(\"Enter only 2 decimal values\");\n return false;\n }\n }\n \n \n var noOfMnths;\n tarAmount = kony.os.toNumber(tarAmount);\n entAmount = kony.os.toNumber(entAmount);\n \n if (tarAmount > entAmount){\n showAlert(kony.i18n.getLocalizedString(\"keyLessTargetAmt\"), kony.i18n.getLocalizedString(\"info\"));\n return false;\n }\n \n noOfMnths = entAmount/tarAmount;\n kony.print(\"noOfMnths before rounding\" + noOfMnths);\n noOfMnths = Math.round(noOfMnths);\n kony.print(\"noOfMnths after rounding\" + noOfMnths);\n \n var deviceinfo = kony.os.deviceInfo();\n if (deviceinfo[\"name\"] == \"android\") {\n noOfMnths = noOfMnths+ \"\";\n }\n \n kony.print(\"noOfMnths\" + noOfMnths);\n //if(frmOpenAcDreamSaving.txtODMyDream.text == \"\" || frmOpenAcDreamSaving.txtODMyDream.text == null){\n frmOpenAcDreamSaving.txtODMyDream.text = \"\";\n frmOpenAcDreamSaving.txtODMyDream.text = noOfMnths + kony.i18n.getLocalizedString(\"keymonths\");\n gblDreamMnths = noOfMnths;\n //}\n frmOpenAcDreamSaving.txtODMnthSavAmt.skin= \"txtFocusBG\"\n var AddOpenBahtDreamMnth =frmOpenAcDreamSaving.txtODMnthSavAmt.text\n frmOpenAcDreamSaving.txtODMnthSavAmt.text = commaFormattedOpenAct(AddOpenBahtDreamMnth)+\" \"+ kony.i18n.getLocalizedString(\"currencyThaiBaht\")"
        }]
    }
}