{
    "p2kwiet2012247651206_btnPopUpTermination_onClick_seq0": {
        "id": "p2kwiet2012247651206_btnPopUpTermination_onClick_seq0",
        "type": "ACTION_SEQUENCE",
        "params": [{
            "name": "eventobject",
            "value": "eventobject"
        }],
        "language": "js",
        "actions": [{
            "id": "customcode_onClick_47859201224761343",
            "type": "INVOKE_FUNCTION",
            "sequenceKUID": "onClickNextPwdRules",
            "display": "onClickNextPwdRules",
            "inputparams": [],
            "source": "module"
        }]
    }
}