{
    "p2kwiet2012247634458_button101086657957077_onClick_seq0": {
        "id": "p2kwiet2012247634458_button101086657957077_onClick_seq0",
        "type": "ACTION_SEQUENCE",
        "params": [{
            "name": "eventobject",
            "value": "eventobject"
        }],
        "language": "js",
        "actions": [{
            "id": "navigation_onClick_28820201224763013",
            "type": "NAVIGATE_TO_FORM",
            "formId": "frmMyRecipientDetail",
            "formKUID": "p2kwiet2012247634290",
            "mappings": {},
            "mappingsOrder": [],
            "parentId": "",
            "enableMappingEditor": true,
            "package": ""
        }]
    }
}