{
    "p2kwiet2012247627099_btnCombProvince_onClick_seq0": {
        "id": "p2kwiet2012247627099_btnCombProvince_onClick_seq0",
        "type": "ACTION_SEQUENCE",
        "params": [{
            "name": "eventobject",
            "value": "eventobject"
        }],
        "language": "js",
        "actions": [{
            "id": "customcode_onClick_52464201224761245",
            "type": "INVOKE_FUNCTION",
            "sequenceKUID": "callATMProvinceData",
            "display": "callATMProvinceData",
            "inputparams": [],
            "source": "module"
        }, {
            "id": "navigation_onClick_107542012247679",
            "type": "DISPLAY_POPUP",
            "popupId": "popUpProvinceData",
            "popupKUID": "p2kwiet2012247650401",
            "mappings": {},
            "mappingsOrder": [],
            "enableMappingEditor": true
        }]
    }
}