{
    "p2kwiet2012247632326_segAccountList_onRowClick_seq0": {
        "id": "p2kwiet2012247632326_segAccountList_onRowClick_seq0",
        "type": "ACTION_SEQUENCE",
        "params": [{
            "name": "eventobject",
            "value": "eventobject"
        }, {
            "name": "sectionNumber",
            "value": "sectionNumber"
        }, {
            "name": "rowNumber",
            "value": "rowNumber"
        }],
        "language": "js",
        "actions": [{
            "id": "customcode_onRowClick_85569201224764945",
            "type": "INVOKE_FUNCTION",
            "sequenceKUID": "onSelectToAccountForCashback",
            "display": "onSelectToAccountForCashback",
            "inputparams": [],
            "source": "module"
        }]
    }
}