{
    "p2kwiet2012247634373_btnCancel_onClick_seq0": {
        "id": "p2kwiet2012247634373_btnCancel_onClick_seq0",
        "type": "ACTION_SEQUENCE",
        "params": [{
            "name": "eventobject",
            "value": "eventobject"
        }],
        "language": "js",
        "actions": [{
            "id": "navigation_onClick_45489201224769976",
            "type": "NAVIGATE_TO_FORM",
            "formId": "frmMyRecipientViewAccount",
            "formKUID": "p2kwiet2012247634886",
            "mappings": {},
            "mappingsOrder": [],
            "parentId": "",
            "enableMappingEditor": true,
            "package": ""
        }]
    }
}