{
    "p2kwiet2012247627099_mapATMBranch_onSelection_seq0": {
        "id": "p2kwiet2012247627099_mapATMBranch_onSelection_seq0",
        "type": "ACTION_SEQUENCE",
        "params": [{
            "name": "eventobject",
            "value": "eventobject"
        }, {
            "name": "location",
            "value": "location"
        }],
        "language": "js",
        "actions": [{
            "id": "preprocessdecision_onSelection_11311201224765604",
            "type": "CHANNEL_CONDITION",
            "platforms": ["android"]
        }, {
            "id": "expression_onSelection_31155201224768043",
            "type": "ADD_SNIPPET",
            "codeSnippet": "kony.print(\"@@@CurrentLocDetails:::\"+currentLocDetails.lat+\"/\"+currentLocDetails.lon);\n kony.print(\"@@@Global Lat/Lon::::::\"+gblCurrenLocLat+\"/\"+gblCurrenLocLon);\n if(currentLocDetails.lat == gblCurrenLocLat && currentLocDetails.lon == gblCurrenLocLon){\n kony.print(\"*****Clicking on Current Location Template******\");\n }else{\n onClickDetails();\n }",
            "parentId": "preprocessdecision_onSelection_11311201224765604"
        }]
    }
}