{
    "p2kwiet2012247633569_segAccountDetails_onRowClick_seq0": {
        "id": "p2kwiet2012247633569_segAccountDetails_onRowClick_seq0",
        "type": "ACTION_SEQUENCE",
        "params": [{
            "name": "eventobject",
            "value": "eventobject"
        }, {
            "name": "sectionNumber",
            "value": "sectionNumber"
        }, {
            "name": "rowNumber",
            "value": "rowNumber"
        }],
        "language": "js",
        "actions": [{
            "id": "customcode_onRowClick_78243201224768341",
            "type": "INVOKE_FUNCTION",
            "sequenceKUID": "callMBMutualFundsDetails",
            "display": "callMBMutualFundsDetails",
            "inputparams": [{
                "name": "unitHolderNuber",
                "value": "frmMutualFundsSummaryLanding.segAccountDetails.selectedItems[0].lblunitHolderNumber"
            }, {
                "name": "fundcode",
                "value": "frmMutualFundsSummaryLanding.segAccountDetails.selectedItems[0].fundCode"
            }],
            "source": "module"
        }]
    }
}