{
    "p2kwiet2012247628058_btnedit_onClick_seq0": {
        "id": "p2kwiet2012247628058_btnedit_onClick_seq0",
        "type": "ACTION_SEQUENCE",
        "params": [{
            "name": "eventobject",
            "value": "eventobject"
        }],
        "language": "js",
        "actions": [{
            "id": "customcode_onClick_87208201224763368",
            "type": "INVOKE_FUNCTION",
            "sequenceKUID": "checkMBStatusForEditBP",
            "display": "checkMBStatusForEditBP",
            "inputparams": [],
            "source": "module"
        }]
    }
}