{
    "p2kwiet2012247634553_vbox475959051238712_onClick_seq0": {
        "id": "p2kwiet2012247634553_vbox475959051238712_onClick_seq0",
        "type": "ACTION_SEQUENCE",
        "params": [{
            "name": "eventobject",
            "value": "eventobject"
        }],
        "language": "js",
        "actions": [{
            "id": "customcode_onClick_54721201224767222",
            "type": "INVOKE_FUNCTION",
            "sequenceKUID": "onClickForInnerBoxes",
            "display": "onClickForInnerBoxes",
            "inputparams": [],
            "source": "module"
        }]
    }
}