{
    "p2kwiet2012247631720_lnkTaxDoc_onClick_seq0": {
        "id": "p2kwiet2012247631720_lnkTaxDoc_onClick_seq0",
        "type": "ACTION_SEQUENCE",
        "params": [{
            "name": "eventobject",
            "value": "eventobject"
        }],
        "language": "js",
        "actions": [{
            "id": "customcode_onClick_50663201224764312",
            "type": "INVOKE_FUNCTION",
            "sequenceKUID": "generateTaxDocPdfMB",
            "display": "generateTaxDocPdfMB",
            "inputparams": [],
            "source": "module"
        }]
    }
}