{
    "p2kwiet2012247628706_btnHdrMenu_onClick_seq0": {
        "id": "p2kwiet2012247628706_btnHdrMenu_onClick_seq0",
        "type": "ACTION_SEQUENCE",
        "params": [{
            "name": "eventobject",
            "value": "eventobject"
        }],
        "language": "js",
        "actions": [{
            "id": "customcode_onClick_39624201224763759",
            "type": "INVOKE_FUNCTION",
            "sequenceKUID": "handleMenuBtn",
            "display": "handleMenuBtn",
            "inputparams": [],
            "source": "module"
        }]
    }
}