{
    "p2kwiet2012247633962_button508395714293791_onClick_seq0": {
        "id": "p2kwiet2012247633962_button508395714293791_onClick_seq0",
        "type": "ACTION_SEQUENCE",
        "params": [{
            "name": "eventobject",
            "value": "eventobject"
        }],
        "language": "js",
        "actions": [{
            "id": "customcode_onClick_19602201224766187",
            "type": "INVOKE_FUNCTION",
            "sequenceKUID": "onClickMyProfileFlow",
            "display": "onClickMyProfileFlow",
            "inputparams": [],
            "source": "module"
        }]
    }
}