{
    "p2kwiet2012247629485_frmMBAccLocked_preshow_seq0": {
        "id": "p2kwiet2012247629485_frmMBAccLocked_preshow_seq0",
        "type": "ACTION_SEQUENCE",
        "params": [{
            "name": "eventobject",
            "value": "eventobject"
        }, {
            "name": "neworientation",
            "value": "neworientation"
        }],
        "language": "js",
        "actions": [{
            "id": "customcode_preshow_7364020122476296",
            "type": "INVOKE_FUNCTION",
            "sequenceKUID": "frmMBAccLockedMenuPreshow",
            "display": "frmMBAccLockedMenuPreshow",
            "inputparams": [],
            "source": "module"
        }]
    }
}