{
    "p2kwiet2012247629833_txtAccountNumber_Android_onBeginEditing_seq0": {
        "id": "p2kwiet2012247629833_txtAccountNumber_Android_onBeginEditing_seq0",
        "type": "ACTION_SEQUENCE",
        "params": [{
            "name": "eventobject",
            "value": "eventobject"
        }, {
            "name": "changedtext",
            "value": "changedtext"
        }],
        "language": "js",
        "actions": [{
            "id": "expression_onBeginEditing_30375201224762464",
            "type": "ADD_SNIPPET",
            "codeSnippet": "if(isMenuShown){\n frmMBActivation.scrollboxMain.scrollToEnd();\n isMenuShown = false;\n } "
        }]
    }
}