{
    "p2kwiet2012247633925_button47497021216166_onClick_seq0": {
        "id": "p2kwiet2012247633925_button47497021216166_onClick_seq0",
        "type": "ACTION_SEQUENCE",
        "params": [{
            "name": "eventobject",
            "value": "eventobject"
        }],
        "language": "js",
        "actions": [{
            "id": "expression_onClick_20479201224763740",
            "type": "ADD_SNIPPET",
            "codeSnippet": "TMBUtil.DestroyForm(frmeditMyProfile);\n editbuttonflag=\"profile\";\n gblLoanNav = \"\";\n "
        }, {
            "id": "customcode_onClick_68554201224764528",
            "type": "INVOKE_FUNCTION",
            "sequenceKUID": "getIBMBEditProfileStatus",
            "display": "getIBMBEditProfileStatus",
            "inputparams": [],
            "source": "module"
        }]
    }
}