{
    "p2kwiet2012247627714_vbxLine_onClick_seq0": {
        "id": "p2kwiet2012247627714_vbxLine_onClick_seq0",
        "type": "ACTION_SEQUENCE",
        "params": [{
            "name": "eventobject",
            "value": "eventobject"
        }],
        "language": "js",
        "actions": [{
            "id": "decision_onClick_63006201224769849",
            "type": "IF_CONDITION",
            "conditions": [{
                "leftValueType": "expression",
                "leftValue": "gblActivityIds == \"27\" || gblActivityIds == \"28\""
            }],
            "criteria": "all"
        }, {
            "id": "decision_onClick_11762201224768841",
            "type": "ELSE_CONDITION",
            "conditions": [],
            "criteria": "all"
        }, {
            "id": "customcode_onClick_4688420122476158",
            "type": "INVOKE_FUNCTION",
            "sequenceKUID": "shareIntentCall",
            "display": "shareIntentCall",
            "inputparams": [{
                "name": "inputmessage",
                "value": "\"line\""
            }, {
                "name": "flow",
                "value": "\"BillPayment\""
            }],
            "parentId": "decision_onClick_63006201224769849",
            "source": "module"
        }, {
            "id": "customcode_onClick_29481201224766608",
            "type": "INVOKE_FUNCTION",
            "sequenceKUID": "shareIntentCall",
            "display": "shareIntentCall",
            "inputparams": [{
                "name": "inputmessage",
                "value": "\"line\""
            }, {
                "name": "flow",
                "value": "\"TOPUpPayment\""
            }],
            "parentId": "decision_onClick_11762201224768841",
            "source": "module"
        }]
    }
}