{
    "p2kwiet2012247627312_lblRef1Value_iPhone_onEndEditing_seq0": {
        "id": "p2kwiet2012247627312_lblRef1Value_iPhone_onEndEditing_seq0",
        "type": "ACTION_SEQUENCE",
        "params": [{
            "name": "eventobject",
            "value": "eventobject"
        }, {
            "name": "changedtext",
            "value": "changedtext"
        }],
        "language": "js",
        "actions": [{
            "id": "customcode_onEndEditing_53128201224764443",
            "type": "INVOKE_FUNCTION",
            "sequenceKUID": "onFocusLostOfRef1TextBox",
            "display": "onFocusLostOfRef1TextBox",
            "inputparams": [],
            "source": "module"
        }]
    }
}