{
    "p2kwiet2012247637527_btnTransCnfrmCancel_onClick_seq0": {
        "id": "p2kwiet2012247637527_btnTransCnfrmCancel_onClick_seq0",
        "type": "ACTION_SEQUENCE",
        "params": [{
            "name": "eventobject",
            "value": "eventobject"
        }],
        "language": "js",
        "actions": [{
            "id": "customcode_onClick_87000201224769638",
            "type": "INVOKE_FUNCTION",
            "sequenceKUID": "cancelTransferButton",
            "display": "cancelTransferButton",
            "inputparams": [],
            "source": "module"
        }]
    }
}