{
    "p2kwiet2012247629362_hbxAppleStore_onClick_seq0": {
        "id": "p2kwiet2012247629362_hbxAppleStore_onClick_seq0",
        "type": "ACTION_SEQUENCE",
        "params": [{
            "name": "eventobject",
            "value": "eventobject"
        }],
        "language": "js",
        "actions": [{
            "id": "preprocessdecision_onClick_25457201224766194",
            "type": "CHANNEL_CONDITION",
            "platforms": ["spaip"]
        }, {
            "id": "preprocessdecision_onClick_16580201224765616",
            "type": "CHANNEL_CONDITION",
            "platforms": ["spaan"]
        }, {
            "id": "customcode_onClick_54569201224763660",
            "type": "INVOKE_FUNCTION",
            "sequenceKUID": "navigateToAppleStoreIphone",
            "display": "navigateToAppleStoreIphone",
            "inputparams": [],
            "parentId": "preprocessdecision_onClick_25457201224766194",
            "source": "module"
        }, {
            "id": "customcode_onClick_34813201224767527",
            "type": "INVOKE_FUNCTION",
            "sequenceKUID": "navigateToAppleStore",
            "display": "navigateToAppleStore",
            "inputparams": [],
            "parentId": "preprocessdecision_onClick_16580201224765616",
            "source": "module"
        }]
    }
}