{
    "p2kwiet2012247626636_frmAccountSummaryLanding_preshow_seq0": {
        "id": "p2kwiet2012247626636_frmAccountSummaryLanding_preshow_seq0",
        "type": "ACTION_SEQUENCE",
        "params": [{
            "name": "eventobject",
            "value": "eventobject"
        }, {
            "name": "neworientation",
            "value": "neworientation"
        }],
        "language": "js",
        "actions": [{
            "id": "customcode_preshow_83680201224768385",
            "type": "INVOKE_FUNCTION",
            "sequenceKUID": "frmAccountSummaryLandingMenuPreshow",
            "display": "frmAccountSummaryLandingMenuPreshow",
            "inputparams": [],
            "source": "module"
        }]
    }
}