{
    "p2kwiet2012247633717_btnAgree_onClick_seq0": {
        "id": "p2kwiet2012247633717_btnAgree_onClick_seq0",
        "type": "ACTION_SEQUENCE",
        "params": [{
            "name": "eventobject",
            "value": "eventobject"
        }],
        "language": "js",
        "actions": [{
            "id": "customcode_onClick_71463201224762018",
            "type": "INVOKE_FUNCTION",
            "sequenceKUID": "saveAddAccountDetals",
            "display": "saveAddAccountDetals",
            "inputparams": [],
            "source": "module"
        }, {
            "id": "preprocessdecision_onClick_74872201224769676",
            "type": "CHANNEL_CONDITION",
            "platforms": ["j2me", "bb", "winphone8", "palm", "android", "winmobile", "iphone", "symbian", "winmobile6x"]
        }, {
            "id": "ADD_SNIPPET__b24dcbdfaf0147bfbc5ebefae98cf4a7",
            "type": "ADD_SNIPPET",
            "codeSnippet": "//showOTPPopup(kony.i18n.getLocalizedString(\"TransactionPass\") + \":\", \"\", \"\", onpopconfirmaccnt, 3);\nshowConfirmPopUpAddAccnt();",
            "parentId": "preprocessdecision_onClick_74872201224769676",
            "callbackType": null
        }, {
            "id": "preprocessdecision_onClick_31372201224762752",
            "type": "CHANNEL_CONDITION",
            "platforms": ["spaip", "spabbnth", "spawinphone8", "spaan", "spabb", "spawindows"]
        }, {
            "id": "expression_onClick_69384201224768908",
            "type": "ADD_SNIPPET",
            "codeSnippet": "var inputParams = {}\n spaChnage=\"myacctsadd\"\n gblOTPFlag = true;\n try {\n kony.timer.cancel(\"otpTimer\")\n }\n catch (e) {\n kony.print(\"Timer doesnot exist\");\n }\n //input params for SPA\n gblSpaChannel=\"IB-NEW_RC_ADDITION\";\n if (kony.i18n.getCurrentLocale() == \"en_US\") {\n SpaEventNotificationPolicy = \"MIB_AddMyAcc_EN\";\n SpaSMSSubject = \"MIB_AddMyAcc_EN\";\n } else {\n SpaEventNotificationPolicy = \"MIB_AddMyAcc_TH\";\n SpaSMSSubject = \"MIB_AddMyAcc_TH\";\n }\n onClickOTPRequestSpa();",
            "parentId": "preprocessdecision_onClick_31372201224762752"
        }]
    }
}