{
    "p2kwiet2012247629538_txtCreditCardNum_iPhone_onBeginEditing_seq0": {
        "id": "p2kwiet2012247629538_txtCreditCardNum_iPhone_onBeginEditing_seq0",
        "type": "ACTION_SEQUENCE",
        "params": [{
            "name": "eventobject",
            "value": "eventobject"
        }, {
            "name": "changedtext",
            "value": "changedtext"
        }],
        "language": "js",
        "actions": [{
            "id": "expression_onBeginEditing_56208201224766630",
            "type": "ADD_SNIPPET",
            "codeSnippet": "gblTxtFocusFlag = 0;"
        }]
    }
}