{
    "p2kwiet2012247633121_frmMBSoGooodConf_WinMobile_onDeviceBack_seq0": {
        "id": "p2kwiet2012247633121_frmMBSoGooodConf_WinMobile_onDeviceBack_seq0",
        "type": "ACTION_SEQUENCE",
        "params": [{
            "name": "eventobject",
            "value": "eventobject"
        }, {
            "name": "neworientation",
            "value": "neworientation"
        }],
        "language": "js",
        "actions": [{
            "id": "customcode_onDeviceBack_95833201224765869",
            "type": "INVOKE_FUNCTION",
            "sequenceKUID": "disableBackButton",
            "display": "disableBackButton",
            "inputparams": [],
            "source": "module"
        }]
    }
}