{
    "p2kwiet2012247626847_btnLtArrow_onClick_seq0": {
        "id": "p2kwiet2012247626847_btnLtArrow_onClick_seq0",
        "type": "ACTION_SEQUENCE",
        "params": [{
            "name": "eventobject",
            "value": "eventobject"
        }],
        "language": "js",
        "actions": [{
            "id": "decision_onClick_954201224766240",
            "type": "IF_CONDITION",
            "conditions": [{
                "leftValueType": "expression",
                "leftValue": "isMenuShown == false"
            }],
            "criteria": "all"
        }, {
            "id": "decision_onClick_9880120122476221",
            "type": "ELSE_CONDITION",
            "conditions": [],
            "criteria": "all"
        }, {
            "id": "customcode_onClick_29071201224765041",
            "type": "INVOKE_FUNCTION",
            "sequenceKUID": "onClickLeftArrowBB",
            "display": "onClickLeftArrowBB",
            "inputparams": [],
            "parentId": "decision_onClick_954201224766240",
            "source": "module"
        }, {
            "id": "expression_onClick_1462201224764840",
            "type": "ADD_SNIPPET",
            "codeSnippet": "frmAddTopUpToMB.scrollboxMain.scrollToEnd();\n isMenuShown = false;",
            "parentId": "decision_onClick_9880120122476221"
        }]
    }
}