{
    "p2kwiet2012247633066_txtTransPass_onTextChange_seq0": {
        "id": "p2kwiet2012247633066_txtTransPass_onTextChange_seq0",
        "type": "ACTION_SEQUENCE",
        "params": [{
            "name": "eventobject",
            "value": "eventobject"
        }, {
            "name": "changedtext",
            "value": "changedtext"
        }],
        "language": "js",
        "actions": [{
            "id": "customcode_onTextChange_63502201224765041",
            "type": "INVOKE_FUNCTION",
            "sequenceKUID": "passwordChanged",
            "display": "passwordChanged",
            "inputparams": [],
            "source": "module"
        }, {
            "id": "expression_onTextChange_69881201224763662",
            "type": "ADD_SNIPPET",
            "codeSnippet": "frmMBSetuseridSPA.hbxPassword.skin = \"hboxBG\""
        }]
    }
}