{
    "p2kwiet2012247634417_tbxMobileNo_onTextChange_seq0": {
        "id": "p2kwiet2012247634417_tbxMobileNo_onTextChange_seq0",
        "type": "ACTION_SEQUENCE",
        "params": [{
            "name": "eventobject",
            "value": "eventobject"
        }, {
            "name": "changedtext",
            "value": "changedtext"
        }],
        "language": "js",
        "actions": [{
            "id": "preprocessdecision_onTextChange_31627201224763049",
            "type": "CHANNEL_CONDITION",
            "platforms": ["spaip", "spabbnth", "spawinphone8", "spaan", "spabb", "spawindows"]
        }, {
            "id": "expression_onTextChange_55320122476104",
            "type": "ADD_SNIPPET",
            "codeSnippet": "onEditMobileNumberRecp(frmMyRecipientEditProfile.tbxMobileNo.text)",
            "parentId": "preprocessdecision_onTextChange_31627201224763049"
        }]
    }
}