{
    "p2kwiet2012247650020_popGoback_Android_onDeviceBack_seq0": {
        "id": "p2kwiet2012247650020_popGoback_Android_onDeviceBack_seq0",
        "type": "ACTION_SEQUENCE",
        "params": [{
            "name": "eventobject",
            "value": "eventobject"
        }, {
            "name": "neworientation",
            "value": "neworientation"
        }],
        "language": "js",
        "actions": [{
            "id": "expression_onDeviceBack_6517420122476790",
            "type": "ADD_SNIPPET",
            "codeSnippet": "try{\n popGoback.destroy();\n popGoback.dismiss();\n kony.timer.cancel(\"btnTimer\");\n gblTimerFlg=false;\n onLogoutPopUpConfrm();\n }catch(ex){\n alert(ex);\n }"
        }]
    }
}