{
    "p2kwiet15245716321319_vbxLine_onClick_seq0": {
        "id": "p2kwiet15245716321319_vbxLine_onClick_seq0",
        "type": "ACTION_SEQUENCE",
        "params": [{
            "name": "eventobject",
            "value": "eventobject"
        }],
        "language": "js",
        "actions": [{
            "id": "decision_onClick_440611524571632581",
            "type": "IF_CONDITION",
            "conditions": [{
                "leftValueType": "expression",
                "leftValue": "gblMyBillerTopUpBB==\"0\""
            }],
            "criteria": "all"
        }, {
            "id": "decision_onClick_5197915245716323257",
            "type": "ELSE_CONDITION",
            "conditions": [],
            "criteria": "all"
        }, {
            "id": "customcode_onClick_3948115245716325552",
            "type": "INVOKE_FUNCTION",
            "sequenceKUID": "shareIntentCall",
            "display": "shareIntentCall",
            "inputparams": [{
                "name": "inputmessage",
                "value": "\"line\""
            }, {
                "name": "flow",
                "value": "\"BillPayment\""
            }],
            "parentId": "decision_onClick_440611524571632581",
            "source": "module"
        }, {
            "id": "customcode_onClick_4655015245716326514",
            "type": "INVOKE_FUNCTION",
            "sequenceKUID": "shareIntentCall",
            "display": "shareIntentCall",
            "inputparams": [{
                "name": "inputmessage",
                "value": "\"line\""
            }, {
                "name": "flow",
                "value": "\"TOPUpPayment\""
            }],
            "parentId": "decision_onClick_5197915245716323257",
            "source": "module"
        }]
    }
}