{
    "p2kwiet2012247628580_frmConfirmationarchived_preshow_seq0": {
        "id": "p2kwiet2012247628580_frmConfirmationarchived_preshow_seq0",
        "type": "ACTION_SEQUENCE",
        "params": [{
            "name": "eventobject",
            "value": "eventobject"
        }, {
            "name": "neworientation",
            "value": "neworientation"
        }],
        "language": "js",
        "actions": [{
            "id": "customcode_preshow_91687201224761600",
            "type": "INVOKE_FUNCTION",
            "sequenceKUID": "frmConfirmationarchivedMenuPreshow",
            "display": "frmConfirmationarchivedMenuPreshow",
            "inputparams": [],
            "source": "module"
        }]
    }
}