{
    "p2kwiet2012247631467_btnSave_onClick_seq0": {
        "id": "p2kwiet2012247631467_btnSave_onClick_seq0",
        "type": "ACTION_SEQUENCE",
        "params": [{
            "name": "eventobject",
            "value": "eventobject"
        }],
        "language": "js",
        "actions": [{
            "id": "customcode_onClick_42801201224768133",
            "type": "INVOKE_FUNCTION",
            "sequenceKUID": "ehFrmMBFtSchedule_btnSave_onClick",
            "display": "ehFrmMBFtSchedule_btnSave_onClick",
            "inputparams": [],
            "source": "module"
        }]
    }
}