{
    "p2kwiet2012247633536_btnBack_onClick_seq0": {
        "id": "p2kwiet2012247633536_btnBack_onClick_seq0",
        "type": "ACTION_SEQUENCE",
        "params": [{
            "name": "eventobject",
            "value": "eventobject"
        }],
        "language": "js",
        "actions": [{
            "id": "expression_onClick_8884520122476905",
            "type": "ADD_SNIPPET",
            "codeSnippet": "//frmMBMutualFundDetails.hbxOnHandClick.isVisible = false;\n //frmMBMutualFundDetails.segcredit.removeAll();\n gblStmntSessionFlag= \"2\";\n //TMBUtil.DestroyForm(frmAccountStatementMB);\n frmMBMutualFundDetails.show();\n //frmAccountStatementMBDummy.show();"
        }]
    }
}