{
    "p2kwiet2012247626951_frmApplyServicesMB_postshow_seq0": {
        "id": "p2kwiet2012247626951_frmApplyServicesMB_postshow_seq0",
        "type": "ACTION_SEQUENCE",
        "params": [{
            "name": "eventobject",
            "value": "eventobject"
        }, {
            "name": "neworientation",
            "value": "neworientation"
        }],
        "language": "js",
        "actions": [{
            "id": "customcode_postshow_22097201224763256",
            "type": "INVOKE_FUNCTION",
            "sequenceKUID": "frmApplyServicesMBMenuPostshow",
            "display": "frmApplyServicesMBMenuPostshow",
            "inputparams": [],
            "source": "module"
        }]
    }
}