{
    "p2kwiet2012247630700_flexPdf_onTouchStart_seq0": {
        "id": "p2kwiet2012247630700_flexPdf_onTouchStart_seq0",
        "type": "ACTION_SEQUENCE",
        "params": [{
            "name": "eventobject",
            "value": "eventobject"
        }, {
            "name": "x",
            "value": "x"
        }, {
            "name": "y",
            "value": "y"
        }, {
            "name": "contextInfo",
            "value": "contextInfo"
        }],
        "language": "js",
        "actions": [{
            "id": "expression_onTouchStart_38532201224764889",
            "type": "ADD_SNIPPET",
            "codeSnippet": "frmMBCashAdvanceTnC.buttonPdf.skin=\"btnPdfSCFoc\";\n frmMBCashAdvanceTnC.flexPdf.skin=\"flexLightBlueLine\";"
        }]
    }
}