{
    "p2kwiet2012247628874_btnBack_onClick_seq0": {
        "id": "p2kwiet2012247628874_btnBack_onClick_seq0",
        "type": "ACTION_SEQUENCE",
        "params": [{
            "name": "eventobject",
            "value": "eventobject"
        }],
        "language": "js",
        "actions": [{
            "id": "customcode_onClick_68099201224764896",
            "type": "INVOKE_FUNCTION",
            "sequenceKUID": "dreamSavingPerformBackButton",
            "display": "dreamSavingPerformBackButton",
            "inputparams": [],
            "source": "module"
        }]
    }
}