{
    "p2kwiet2012247627099_btnSearchIcon_onClick_seq0": {
        "id": "p2kwiet2012247627099_btnSearchIcon_onClick_seq0",
        "type": "ACTION_SEQUENCE",
        "params": [{
            "name": "eventobject",
            "value": "eventobject"
        }],
        "language": "js",
        "actions": [{
            "id": "customcode_onClick_44959201224763093",
            "type": "INVOKE_FUNCTION",
            "sequenceKUID": "onclickBySearchIcon",
            "display": "onclickBySearchIcon",
            "inputparams": [],
            "source": "module"
        }]
    }
}