{
    "p2kwiet2012247631467_btnYearly_onClick_seq0": {
        "id": "p2kwiet2012247631467_btnYearly_onClick_seq0",
        "type": "ACTION_SEQUENCE",
        "params": [{
            "name": "eventobject",
            "value": "eventobject"
        }],
        "language": "js",
        "actions": [{
            "id": "customcode_onClick_207020122476914",
            "type": "INVOKE_FUNCTION",
            "sequenceKUID": "ehFrmMBFtSchedule_btnYearly_onClick",
            "display": "ehFrmMBFtSchedule_btnYearly_onClick",
            "inputparams": [],
            "source": "module"
        }]
    }
}