{
    "p2kwiet2012247630074_btnCancelCon_onClick_seq0": {
        "id": "p2kwiet2012247630074_btnCancelCon_onClick_seq0",
        "type": "ACTION_SEQUENCE",
        "params": [{
            "name": "eventobject",
            "value": "eventobject"
        }],
        "language": "js",
        "actions": [{
            "id": "ADD_SNIPPET__ce16c025a1e046a59fe39beab4eb15c6",
            "type": "ADD_SNIPPET",
            "codeSnippet": "kony.print(\"gblforcedCleanAS: \"+gblforcedCleanAS);\nclosePayAlert();\nif(gblforcedCleanAS === true){\n  showAccountSummaryFromMenu();\n}else{\n  showAccountSummaryWithoutRefresh();\n}",
            "parentId": null,
            "callbackType": null
        }]
    }
}