{
    "p2kwiet2012247632564_btnRight_onClick_seq0": {
        "id": "p2kwiet2012247632564_btnRight_onClick_seq0",
        "type": "ACTION_SEQUENCE",
        "params": [{
            "name": "eventobject",
            "value": "eventobject"
        }],
        "language": "js",
        "actions": [{
            "id": "preprocessdecision_onClick_57827201224762419",
            "type": "CHANNEL_CONDITION",
            "platforms": ["android", "iphone"]
        }, {
            "id": "expression_onClick_64853201224767807",
            "type": "ADD_SNIPPET",
            "codeSnippet": "if (frmMBSavingCareTnC.flxSaveCamEmail.isVisible == false) {\n frmMBSavingCareTnC.flxSaveCamEmail.setVisibility(true);\n frmMBSavingCareTnC.flexBodyScroll.minHeight=\"90%\";\n frmMBSavingCareTnC.btnRight.skin=\"btnShareNewOpenAc\";\n }else{\n frmMBSavingCareTnC.flxSaveCamEmail.setVisibility(false);\n frmMBSavingCareTnC.flexBodyScroll.minHeight=\"100%\";\n frmMBSavingCareTnC.btnRight.skin=\"btnRightShare\"\n }",
            "parentId": "preprocessdecision_onClick_57827201224762419"
        }]
    }
}