{
    "p2kwiet2012247629710_hbxPhoneAccount_onClick_seq0": {
        "id": "p2kwiet2012247629710_hbxPhoneAccount_onClick_seq0",
        "type": "ACTION_SEQUENCE",
        "params": [{
            "name": "eventobject",
            "value": "eventobject"
        }],
        "language": "js",
        "actions": [{
            "id": "customcode_onClick_98297201224766643",
            "type": "INVOKE_FUNCTION",
            "sequenceKUID": "showTMBAccounts",
            "display": "showTMBAccounts",
            "inputparams": [],
            "source": "module"
        }]
    }
}