{
    "p2kwiet2012247626873_btnBackHome_onClick_seq0": {
        "id": "p2kwiet2012247626873_btnBackHome_onClick_seq0",
        "type": "ACTION_SEQUENCE",
        "params": [{
            "name": "eventobject",
            "value": "eventobject"
        }],
        "language": "js",
        "actions": [{
            "id": "expression_onClick_6247201224762818",
            "type": "ADD_SNIPPET",
            "codeSnippet": "//frmAccountSummaryLanding =null;\n //frmAccountSummaryLandingGlobals();\n// TMBUtil.DestroyForm(frmAccountSummaryLanding);\n showAccuntSummaryScreen();\n "
        }]
    }
}