{
    "p2kwiet15245716321688_btnRight_onClick_seq0": {
        "id": "p2kwiet15245716321688_btnRight_onClick_seq0",
        "type": "ACTION_SEQUENCE",
        "params": [{
            "name": "eventobject",
            "value": "eventobject"
        }],
        "language": "js",
        "actions": [{
            "id": "customcode_onClick_9339115245716326300",
            "type": "INVOKE_FUNCTION",
            "sequenceKUID": "eh_frmBillPaymentConfirmationFuture_btnRight_onClick",
            "display": "eh_frmBillPaymentConfirmationFuture_btnRight_onClick",
            "inputparams": [],
            "source": "module"
        }]
    }
}