{
    "@class": "com.kony.gen.viz.model.container.KVizScrollFlexForm",
    "DNDConfig": null,
    "_footers_": [],
    "_headers_": [],
    "_margin_": [
        0,
        0,
        0,
        0
    ],
    "_orientation_": 1,
    "_padding_": [
        0,
        0,
        0,
        0
    ],
    "_percent_": true,
    "_skin_": "s69529a7c2ae464c8ca8207a6172aa79",
    "_title_": null,
    "addWidgetsdone": false,
    "allboxes": [],
    "android": {
        "psp": {
            "windowSoftInputMode": 2
        }
    },
    "bounces": false,
    "canUpdateUI": true,
    "children": [
        "flexFullBody"
    ],
    "containerweight": 100,
    "controllerInfo": {
        "default": {
            "channel": "mobile"
        }
    },
    "currentLocale": "default",
    "desktopweb": {
        "needAppMenu": false
    },
    "device": "iPhoneX",
    "displayorientation": 1,
    "enabledforidletimeout": true,
    "enablescrolling": false,
    "footer": "frmUVRequestHistory_footer",
    "header": "frmUVRequestHistory_header",
    "id": "frmUVRequestHistory",
    "info": null,
    "initdone": false,
    "inputaccessoryviewtype": 4,
    "ipad": {
        "psp": {
            "inputAccessoryViewType": 4
        }
    },
    "iphone": {
        "psp": {
            "inputAccessoryViewType": 4,
            "titleBarAttributes": {
                "barStyle": 0,
                "hidesBackButton": true,
                "kuid": "g5fb8b4eb64447b0b80b21b1408f2ba0",
                "leftBarButtonItems": [
                    {
                        "kuid": "hd26c69258e345c5b97f963e4e780d1b",
                        "leftButtonText": "Back",
                        "leftTitle": "Back",
                        "prevFormTitle": false,
                        "titleBarLeftSideView": "button",
                        "type": 4
                    }
                ],
                "leftItemsSupplementBackButton": true,
                "prompt": "",
                "renderTitleText": true,
                "rightBarButtonItems": [
                    {
                        "enabled": true,
                        "info": {
                            "title": "Edit"
                        },
                        "kuid": "g45e24e60ed34ad99a51db4e9b7b70d6",
                        "style": 0,
                        "tintColor": "333333ff",
                        "type": 1
                    }
                ],
                "tintColor": "333333ff",
                "translucent": true
            }
        },
        "titleBar": false
    },
    "isvisible": true,
    "kuid": "b251ae09063544dc8d3122c821b50925",
    "layouttype": 4,
    "name": "kony.ui.Form2",
    "needappmenu": true,
    "paddinginpixel": false,
    "platform": "iphone",
    "prevDevice": "iPhoneX",
    "prevPlatform": "iphone",
    "retainscrollposition": false,
    "shellCSS": "iOS_iPhoneX",
    "snapgridsize": 10,
    "snaptogrid": true,
    "titleBarSkin": "s4d78696e6a449938115e90fb37d4124",
    "titlebar": true,
    "type": 3,
    "wType": "Form"
}