{
    "DNDConfig": null,
    "_enabled_": false,
    "_margin_": [
        0,
        0,
        0,
        0
    ],
    "_orientation_": 2,
    "_position_": 3,
    "_resize_": true,
    "_skin_": "s05f73b33f0c4fd0856ac062a43bb865",
    "allboxes": [],
    "borderCollapse": false,
    "canUpdateUI": true,
    "children": [
        "hbxHeader",
        "hbxBtns",
        "hbxSuccess",
        "Fromaccount",
        "hbxFrom",
        "hbxBalanceAfterPayment",
        "headerLine",
        "hbxTo",
        "lblTransferDet",
        "hbxPaymentAmount",
        "hbxFee",
        "hbxXfer",
        "hbxScheduleDetails",
        "hbxNote",
        "hbxTRN",
        "hbxBtn"
    ],
    "containerweight": 50,
    "desktopweb": {
        "@class": "com.kony.gen.viz.model.container.property.vbox.DesktopWebVBoxProperty",
        "_padding_": [
            2,
            1,
            2,
            1
        ],
        "padding": [
            2,
            1,
            2,
            1
        ],
        "paddingInPixel": false,
        "render": true
    },
    "focusskin": "s05f73b33f0c4fd0856ac062a43bb865",
    "id": "vbxConfirm",
    "info": null,
    "isvisible": true,
    "kiosk": {
        "@class": "com.kony.gen.viz.model.container.property.vbox.KioskVBoxProperty",
        "render": true
    },
    "kuid": "p2kwiet2012247640086",
    "layouttype": 0,
    "margininpixel": false,
    "name": "kony.ui.Box",
    "paddInPixel": [
        15.72,
        7.86,
        15.72,
        7.86
    ],
    "parent": "hboxReceipentsLevel1",
    "pf": "frmIBBillPaymentExecutedTxn",
    "spa": {
        "@class": "com.kony.gen.viz.model.container.property.vbox.SPAVBoxProperty"
    },
    "templateType": "forms",
    "wType": "VBox",
    "widgetalignment": 1
}