{
    "@class": "com.kony.gen.viz.model.container.KVizHBox",
    "DNDConfig": null,
    "_margin_": [
        0,
        0,
        0,
        0
    ],
    "_orientation_": 1,
    "_padding_": [
        0,
        5,
        0,
        5
    ],
    "_percent_": true,
    "_position_": 3,
    "_skin_": "s3240d32b9a74cc78d1e0768cd2cdf1b",
    "allboxes": [],
    "canUpdateUI": true,
    "children": [
        "LinkPortfolio",
        "LinkPurchase",
        "LinkRedeem",
        "LinkSutability"
    ],
    "containerweight": 100,
    "contextmenu": null,
    "id": "HboxLinks",
    "info": null,
    "isvisible": true,
    "kuid": "bd3b3615dff64a19a6a309df53f0e8e5",
    "layouttype": 0,
    "name": "kony.ui.Box",
    "paddinginpixel": false,
    "parent": "vbox474969373109364",
    "pf": "frmIBMutualFundsPortfolio",
    "templateType": "forms",
    "wType": "HBox",
    "widgetalignment": 1
}