{
    "DNDConfig": null,
    "_enabled_": false,
    "_margin_": [
        0,
        0,
        0,
        0
    ],
    "_padding_": [
        0,
        0,
        0,
        0
    ],
    "_skin_": "sfbc61ac983c49b9850e424ab1eb3745",
    "_text_": "Order to be processed",
    "canUpdateUI": true,
    "containerweight": 56,
    "contentalignment": 4,
    "desktopweb": {
        "@class": "com.kony.gen.viz.model.component.property.link.DesktopWebLinkProperty",
        "render": true
    },
    "focusskin": "s24327274021437c86d178a58ef9a1ef",
    "hexpand": true,
    "id": "lblOrdToBProcess",
    "ide_onClick": "AS_Link_g9412f7484fb44ed96a8172c79a370fb",
    "info": null,
    "isvisible": true,
    "kiosk": {
        "@class": "com.kony.gen.viz.model.component.property.link.KioskLinkProperty",
        "render": true
    },
    "kuid": "b82b893097a9493e99145495bef83a45",
    "margininpixel": false,
    "name": "kony.ui.Link",
    "paddinginpixel": false,
    "parent": "hbox5028843721397",
    "pf": "frmIBMutualFundsPortfolio",
    "spa": {
        "@class": "com.kony.gen.viz.model.component.property.link.SPALinkProperty"
    },
    "texti18n": "MF_lbl_Order_tobe_process",
    "vexpand": false,
    "wType": "Link",
    "widgetalignment": 4
}