{
    "DNDConfig": null,
    "_enabled_": false,
    "_margin_": [
        0,
        0,
        0,
        0
    ],
    "_padding_": [
        0,
        0,
        0,
        0
    ],
    "_skin_": "s628f1d20a32462393ac474bd7eea812",
    "_text_": "Tax Doc",
    "canUpdateUI": true,
    "containerweight": 100,
    "contentalignment": 4,
    "desktopweb": {
        "@class": "com.kony.gen.viz.model.component.property.link.DesktopWebLinkProperty",
        "_padding_": [
            0,
            0,
            0,
            0
        ],
        "padding": [
            0,
            0,
            0,
            0
        ],
        "paddingInPixel": false,
        "render": true
    },
    "focusskin": "s4fb7a47aeb445229b21260e91554689",
    "hexpand": false,
    "id": "lnkTaxDoc",
    "ide_onClick": "AS_Link_bdeec8e4dd714ec39fc12b0faf473acc",
    "info": null,
    "isvisible": true,
    "kiosk": {
        "@class": "com.kony.gen.viz.model.component.property.link.KioskLinkProperty",
        "render": true
    },
    "kuid": "ee60380435924d71a3cddcb68fe668b4",
    "margininpixel": false,
    "name": "kony.ui.Link",
    "paddinginpixel": false,
    "parent": "hbox1811408442139099",
    "pf": "frmIBMutualFundsPortfolio",
    "spa": {
        "@class": "com.kony.gen.viz.model.component.property.link.SPALinkProperty"
    },
    "texti18n": "MF_lbl_Tax_doc",
    "vexpand": false,
    "wType": "Link",
    "widgetalignment": 4
}