{
    "DNDConfig": null,
    "_enabled_": false,
    "_margin_": [
        0,
        0,
        0,
        0
    ],
    "_orientation_": 2,
    "_padding_": [
        0,
        0,
        0,
        0
    ],
    "_position_": 3,
    "_resize_": true,
    "_skin_": "sa53654b4113418f8dcb6d569eb3ef8f",
    "allboxes": [],
    "borderCollapse": false,
    "canUpdateUI": true,
    "children": [
        "lblConfirmation",
        "imgConf",
        "hbox101071681311895",
        "hbox101071681312425",
        "line101071681314187",
        "hbox10107168132679",
        "line101071681314188",
        "hbox10107168132694",
        "line101071681314186",
        "label10107168132952",
        "hboxRcAccounts"
    ],
    "containerweight": 98,
    "desktopweb": {
        "@class": "com.kony.gen.viz.model.container.property.vbox.DesktopWebVBoxProperty",
        "_padding_": [
            0,
            0,
            0,
            0
        ],
        "padding": [
            0,
            0,
            0,
            0
        ],
        "paddingInPixel": false,
        "render": true
    },
    "id": "vbox10107168138803",
    "info": null,
    "isvisible": true,
    "kiosk": {
        "@class": "com.kony.gen.viz.model.container.property.vbox.KioskVBoxProperty",
        "render": true
    },
    "kuid": "p2kwiet2012247645173",
    "layouttype": 0,
    "margininpixel": false,
    "name": "kony.ui.Box",
    "paddinginpixel": false,
    "parent": "hboxMyRecipientAddConf",
    "pf": "frmIBMyReceipentsAddContactManuallyConf",
    "spa": {
        "@class": "com.kony.gen.viz.model.container.property.vbox.SPAVBoxProperty"
    },
    "templateType": "forms",
    "wType": "VBox",
    "widgetalignment": 1
}