{
    "DNDConfig": null,
    "_enabled_": false,
    "_margin_": [
        0,
        2,
        0,
        0
    ],
    "_orientation_": 1,
    "_padding_": [
        0,
        0,
        0,
        0
    ],
    "_percent_": true,
    "_position_": 2,
    "_resize_": true,
    "_skin_": "s3cd729155364efe97d4fcd79c72daf8",
    "allboxes": [],
    "borderCollapse": false,
    "canUpdateUI": true,
    "children": [
        "btnCancelPlanList",
        "btnNextPlanList"
    ],
    "containerweight": 100,
    "desktopweb": {
        "@class": "com.kony.gen.viz.model.container.property.hbox.DesktopWebHBoxProperty",
        "_margin_": [
            0,
            2,
            0,
            0
        ],
        "_position_": 2,
        "margin": [
            0,
            2,
            0,
            0
        ],
        "marginInPixel": false,
        "position": 2,
        "render": true
    },
    "id": "hbxPlanListFooter",
    "info": null,
    "isvisible": true,
    "kiosk": {
        "@class": "com.kony.gen.viz.model.container.property.hbox.KioskHBoxProperty",
        "_margin_": [
            0,
            2,
            0,
            0
        ],
        "_position_": 2,
        "margin": [
            0,
            2,
            0,
            0
        ],
        "marginInPixel": false,
        "position": 2,
        "render": true
    },
    "kuid": "p2kwiet2012247639024",
    "layoutalignment": 3,
    "layouttype": 0,
    "margininpixel": false,
    "name": "kony.ui.Box",
    "paddinginpixel": false,
    "parent": "vbox507353026213307",
    "pf": "frmIBApplySoGooODPlanList",
    "spa": {
        "@class": "com.kony.gen.viz.model.container.property.hbox.SPAHBoxProperty"
    },
    "templateType": "forms",
    "wType": "HBox",
    "widgetalignment": 7
}