{
    "DNDConfig": null,
    "_enabled_": false,
    "_margin_": [
        0,
        8,
        0,
        0
    ],
    "_padding_": [
        0,
        22,
        0,
        7
    ],
    "_skin_": "s88a9e0726034188b46f0b78f8bae640",
    "_text_": "",
    "canUpdateUI": true,
    "containerweight": 10,
    "contentalignment": 5,
    "desktopweb": {
        "@class": "com.kony.gen.viz.model.component.property.button.DesktopWebButtonProperty",
        "displayText": true,
        "render": true
    },
    "displaytext": true,
    "focusskin": "sa540f7de4854df6a385ed89a708e368",
    "hexpand": true,
    "id": "btnAddBillerSearch",
    "ide_onClick": "p2kwiet2012247639288_btnAddBillerSearch_onClick_seq0",
    "info": null,
    "isvisible": true,
    "kiosk": {
        "@class": "com.kony.gen.viz.model.component.property.button.KioskButtonProperty",
        "render": true
    },
    "kuid": "p2kwiet2012247639225",
    "margininpixel": false,
    "name": "kony.ui.Button",
    "paddinginpixel": false,
    "parent": "hbxBillerLogoName",
    "pf": "frmIBBeepAndBillApply",
    "spa": {
        "@class": "com.kony.gen.viz.model.component.property.button.SPAButtonProperty",
        "displayText": true
    },
    "vexpand": false,
    "wType": "Button",
    "widgetalignment": 5
}