{
    "DNDConfig": null,
    "_enabled_": false,
    "_margin_": [
        0,
        0,
        0,
        0
    ],
    "_orientation_": 1,
    "_padding_": [
        0,
        0,
        0,
        0
    ],
    "_percent_": true,
    "_position_": 3,
    "_resize_": true,
    "_skin_": "sf0f9ab93aee4f4085f657fd4e4c8bf0",
    "allboxes": [],
    "borderCollapse": false,
    "canUpdateUI": true,
    "children": [
        "lblAddBiller",
        "imgAddBillerLogo",
        "lblAddBillerCompCode",
        "btnAddBillerSearch",
        "imgArrowAddBiller"
    ],
    "containerweight": 100,
    "desktopweb": {
        "@class": "com.kony.gen.viz.model.container.property.hbox.DesktopWebHBoxProperty",
        "_margin_": [
            0,
            3,
            0,
            0
        ],
        "_padding_": [
            3,
            2,
            0,
            2
        ],
        "_position_": 3,
        "margin": [
            0,
            3,
            0,
            0
        ],
        "marginInPixel": false,
        "padding": [
            3,
            2,
            0,
            2
        ],
        "paddingInPixel": false,
        "position": 3,
        "render": true
    },
    "focusskin": "sf0f9ab93aee4f4085f657fd4e4c8bf0",
    "id": "hbxBillerLogoName",
    "info": null,
    "isvisible": true,
    "kiosk": {
        "@class": "com.kony.gen.viz.model.container.property.hbox.KioskHBoxProperty",
        "_position_": 3,
        "position": 3,
        "render": true
    },
    "kuid": "p2kwiet2012247639228",
    "layoutalignment": 3,
    "layouttype": 0,
    "margininpixel": false,
    "name": "kony.ui.Box",
    "paddinginpixel": false,
    "parent": "vbxInputBillerDetails",
    "pf": "frmIBBeepAndBillApply",
    "spa": {
        "@class": "com.kony.gen.viz.model.container.property.hbox.SPAHBoxProperty"
    },
    "templateType": "forms",
    "wType": "HBox",
    "widgetalignment": 1
}