{
    "DNDConfig": null,
    "_enabled_": false,
    "_margin_": [
        0,
        0,
        0,
        0
    ],
    "_padding_": [
        0,
        0,
        0,
        0
    ],
    "_skin_": "s1e9380ac6854372bea0caa099d3dc8b",
    "_text_": "",
    "autocapitalize": "none",
    "autocomplete": false,
    "autocorrect": false,
    "autofilter": false,
    "canUpdateUI": true,
    "containerheightmode": 1,
    "containerheightreference": 1,
    "containerweight": 47,
    "contentalignment": 4,
    "desktopweb": {
        "@class": "com.kony.gen.viz.model.component.property.textbox2.DesktopWebTextBox2Property",
        "containerHeightMode": 3,
        "ide_onBeginEditing": "p2kwiet2012247639288_txtAddBillerNickName_DESKTOPWEB_onBeginEditing_seq0",
        "ide_onEndEditing": "p2kwiet2012247639288_txtAddBillerNickName_DESKTOPWEB_onEndEditing_seq0",
        "render": true
    },
    "focusskin": "s1e9380ac6854372bea0caa099d3dc8b",
    "hexpand": true,
    "id": "txtAddBillerNickName",
    "info": null,
    "isvisible": true,
    "keyboardstyle": "A",
    "keyboardtype": "A",
    "kiosk": {
        "@class": "com.kony.gen.viz.model.component.property.textbox2.KioskTextBox2Property",
        "render": true
    },
    "kuid": "p2kwiet2012247639230",
    "margininpixel": false,
    "maxtextlength": 20,
    "mode": "A",
    "name": "kony.ui.TextBox2",
    "paddinginpixel": false,
    "parent": "hbxBillerNickname",
    "pf": "frmIBBeepAndBillApply",
    "securetextentry": false,
    "spa": {
        "@class": "com.kony.gen.viz.model.component.property.textbox2.SPATextBox2Property",
        "autoCorrect": false,
        "containerHeightMode": 3
    },
    "textinputmode": "A",
    "vexpand": false,
    "viewtype": "default",
    "wType": "TextField",
    "widgetalignment": 5
}