{
    "DNDConfig": null,
    "__parentReadjusting__": false,
    "_height_": {
        "type": "string",
        "value": "71%"
    },
    "_left_": {
        "type": "string",
        "value": "0.00%"
    },
    "_margin_": [
        0,
        0,
        0,
        0
    ],
    "_orientation_": 6,
    "_padding_": [
        0,
        0,
        0,
        0
    ],
    "_percent_": true,
    "_skin_": "s35553cbdcd64d06b81e2dc5d27f1b06",
    "_top_": {
        "type": "string",
        "value": "19.00%"
    },
    "_width_": {
        "type": "string",
        "value": "100%"
    },
    "allboxes": [],
    "allowhorizontalbounce": false,
    "allowverticalbounce": true,
    "bounces": true,
    "canUpdateUI": true,
    "children": [
        "flxsaluation",
        "flxThaiName",
        "flxEngName",
        "flxMobileNoInfo",
        "flxAddessWithData",
        "flxEmail",
        "flxResidentialStatus",
        "flxSorceOfIncome",
        "flxESatement",
        "flxAddress",
        "flxMobileNoMain",
        "flxContactInfoWithAllData",
        "flxBottomSupport"
    ],
    "clipbounds": true,
    "containerweight": 100,
    "decelerat": false,
    "defaultunit": 3,
    "dragg": false,
    "enablescrolling": true,
    "horizontalscrollindicator": true,
    "id": "flxMain",
    "info": null,
    "isvisible": true,
    "kuid": "bef7e7d55e70484ba0e391f600903206",
    "layouttype": 4,
    "name": "kony.ui.FlexScrollContainer",
    "pagingenabled": false,
    "parent": "frmLoanPersonalInfo",
    "pf": "frmLoanPersonalInfo",
    "scrolldirection": 2,
    "snapgridsize": 10,
    "snaptogrid": true,
    "track": false,
    "verticalscrollindicator": true,
    "vizProps": {},
    "wType": "FlexScrollContainer",
    "widgetalignment": 1,
    "zindex": 1
}