{
    "@class": "com.kony.gen.viz.model.container.KVizWatchForm",
    "DNDConfig": null,
    "_margin_": [
        0,
        0,
        0,
        0
    ],
    "_orientation_": 1,
    "_padding_": [
        1,
        0,
        1,
        0
    ],
    "_percent_": true,
    "_skin_": "s968b7b31d444ba081514bab5c359e2f",
    "_spacing_": 4,
    "_title_": "TMB Bank",
    "addWidgetsdone": false,
    "allboxes": [],
    "android": {
        "psp": {
            "windowSoftInputMode": 2
        }
    },
    "canUpdateUI": true,
    "children": [
        "grpHeader1",
        "grpHeader2",
        "grpAccounts",
        "grpTMBLogo",
        "grpLoading"
    ],
    "containerweight": 100,
    "currentLocale": "default",
    "desktopweb": {
        "needAppMenu": false
    },
    "device": "appleWatch42",
    "displayorientation": 1,
    "enabledforidletimeout": false,
    "hideswhenloading": true,
    "id": "frmWatchQuickBalance",
    "ide_onWillActivate": "AS_Form_a0ec8ecc3db54647b304e6aea81e4d38",
    "info": null,
    "initdone": false,
    "inputaccessoryviewtype": 4,
    "ipad": {
        "psp": {
            "inputAccessoryViewType": 4
        }
    },
    "iphone": {
        "psp": {
            "inputAccessoryViewType": 4
        }
    },
    "isvisible": true,
    "kuid": "ff15cc28949d4d25a4479b1861b5bc45",
    "layouttype": 4,
    "name": "kony.ui.Form2",
    "needappmenu": true,
    "paddinginpixel": true,
    "platform": "watchos",
    "prevDevice": "appleWatch38",
    "prevPlatform": "watchos",
    "retainscrollposition": false,
    "shellCSS": "appleWatch42",
    "titleBarSkin": "s4d78696e6a449938115e90fb37d4124",
    "titlebar": true,
    "type": 3,
    "wType": "Form"
}