{
    "DNDConfig": null,
    "_enabled_": false,
    "_margin_": [
        1,
        0,
        0,
        0
    ],
    "_padding_": [
        0,
        0,
        0,
        0
    ],
    "_skin_": "s66503611a2e4c3da4c5fd2ebab15ae2",
    "_text_": "Terms & Conditions",
    "canUpdateUI": true,
    "containerweight": 19,
    "contentalignment": 4,
    "desktopweb": {
        "@class": "com.kony.gen.viz.model.component.property.link.DesktopWebLinkProperty",
        "_padding_": [
            0,
            0,
            0,
            0
        ],
        "padding": [
            0,
            0,
            0,
            0
        ],
        "paddingInPixel": false,
        "render": true
    },
    "focusskin": "s2838b17860149c9939109eb00ca8110",
    "hexpand": true,
    "id": "linkTnC",
    "ide_onClick": "p2kwiet2012247651270_linkTnC_onClick_seq0",
    "info": null,
    "isvisible": true,
    "kiosk": {
        "@class": "com.kony.gen.viz.model.component.property.link.KioskLinkProperty",
        "render": true
    },
    "kuid": "p2kwiet2012247651249",
    "margininpixel": false,
    "name": "kony.ui.Link",
    "paddinginpixel": false,
    "parent": "hbox502795003206266",
    "pf": "footerPreLogin",
    "spa": {
        "@class": "com.kony.gen.viz.model.component.property.link.SPALinkProperty"
    },
    "texti18n": "keyIBFooterTermsnConditions",
    "vexpand": false,
    "wType": "Link",
    "widgetalignment": 5
}