{
    "DNDConfig": null,
    "__markedForDelete__": true,
    "__parentReadjusting__": false,
    "_height_": {
        "type": "string",
        "value": "10dp"
    },
    "_left_": {
        "type": "string",
        "value": "0dp"
    },
    "_margin_": [
        0,
        0,
        0,
        0
    ],
    "_orientation_": 6,
    "_padding_": [
        0,
        0,
        0,
        0
    ],
    "_percent_": true,
    "_skin_": "s60d3e7f3fb544ea96258083be54ed7b",
    "_top_": {
        "type": "string",
        "value": "1%"
    },
    "_width_": {
        "type": "string",
        "value": "100%"
    },
    "allboxes": [],
    "autogrowmode": 0,
    "canUpdateUI": true,
    "children": [],
    "clipbounds": true,
    "containerweight": 100,
    "enablescrolling": true,
    "focusskin": "s60d3e7f3fb544ea96258083be54ed7b",
    "id": "FlexContainer0fa2548186eb242",
    "info": null,
    "isvisible": true,
    "kuid": "de9a40d3240f43349da292b254717ff3",
    "layouttype": 2,
    "name": "kony.ui.FlexContainer",
    "parent": "flexBody",
    "pf": "frmCardlesswithdrawConfirmation",
    "snapgridsize": 10,
    "snaptogrid": true,
    "wType": "FlexContainer",
    "widgetalignment": 1,
    "zindex": 1
}