{
    "DNDConfig": null,
    "__parentReadjusting__": false,
    "_height_": {
        "type": "string",
        "value": "12%"
    },
    "_margin_": [
        0,
        0,
        0,
        0
    ],
    "_orientation_": 6,
    "_padding_": [
        0,
        0,
        0,
        0
    ],
    "_percent_": true,
    "_skin_": "s918d2c198cc4b1b99c1a0fe1f4e0370",
    "_width_": {
        "type": "string",
        "value": "100%"
    },
    "allboxes": [],
    "autogrowmode": 0,
    "canUpdateUI": true,
    "children": [
        "flxLine1",
        "flxStep1",
        "flxLine2",
        "flxStep2",
        "flxLine3",
        "flxStep3",
        "flxLine4",
        "flxStep4",
        "flxLine5",
        "flxStepDone"
    ],
    "clipbounds": true,
    "containerweight": 100,
    "enablescrolling": true,
    "id": "flexStepIndicator",
    "info": null,
    "isvisible": true,
    "kuid": "hfcaa6ac15cb48ef9923ba8858155a07",
    "layouttype": 3,
    "name": "kony.ui.FlexContainer",
    "parent": "flxScrlBody",
    "pf": "frmMFSuitabilityTest1",
    "snapgridsize": 10,
    "snaptogrid": true,
    "wType": "FlexContainer",
    "widgetalignment": 1,
    "zindex": 1
}