{
    "DNDConfig": null,
    "__parentReadjusting__": false,
    "_height_": {
        "type": "string",
        "value": "27dp"
    },
    "_left_": {
        "type": "string",
        "value": "8%"
    },
    "_margin_": [
        0,
        0,
        0,
        0
    ],
    "_orientation_": 6,
    "_padding_": [
        0,
        0,
        0,
        0
    ],
    "_percent_": true,
    "_skin_": "s1aca281f16748b384bf1fe0a5dcaee8",
    "_top_": {
        "type": "string",
        "value": "16dp"
    },
    "_width_": {
        "type": "string",
        "value": "27dp"
    },
    "allboxes": [],
    "autogrowmode": 0,
    "canUpdateUI": true,
    "children": [],
    "clipbounds": true,
    "containerweight": 100,
    "enablescrolling": true,
    "id": "flxTick2",
    "ide_onTouchStart": "AS_FlexContainer_e07529f263614a2a85507b66898afb3f",
    "info": null,
    "isvisible": true,
    "kuid": "a4991c3aa9074c699faf0cdb4d09ffca",
    "layouttype": 2,
    "name": "kony.ui.FlexContainer",
    "parent": "flxAnswer2",
    "pf": "frmMFSuitabilityTest1",
    "snapgridsize": 10,
    "snaptogrid": true,
    "wType": "FlexContainer",
    "widgetalignment": 1,
    "zindex": 1
}