{
    "DNDConfig": null,
    "_enabled_": false,
    "_margin_": [
        0,
        0,
        0,
        0
    ],
    "_padding_": [
        0,
        0,
        0,
        0
    ],
    "_skin_": "s3fac7f5c4394523b159eab74ba11516",
    "_text_": "",
    "canUpdateUI": true,
    "containerweight": 90,
    "contentalignment": 4,
    "desktopweb": {
        "@class": "com.kony.gen.viz.model.component.property.combobox.DesktopWebComboBoxProperty",
        "_margin_": [
            0,
            0,
            0,
            0
        ],
        "_padding_": [
            0,
            0,
            0,
            0
        ],
        "margin": [
            0,
            0,
            0,
            0
        ],
        "marginInPixel": false,
        "padding": [
            0,
            0,
            0,
            0
        ],
        "paddingInPixel": false,
        "psp": {
            "autoSuggest": false,
            "hoverSkin": "s97ba7df10db4d458ccdd2cb756a5173",
            "viewType": 0
        },
        "render": true
    },
    "focusskin": "s97ba7df10db4d458ccdd2cb756a5173",
    "hexpand": true,
    "id": "cmbobxAccntType",
    "ide_onSelection": "p2kwiet2012247644098_cmbobxAccntType_onSelection_seq0",
    "info": null,
    "isvisible": true,
    "kiosk": {
        "@class": "com.kony.gen.viz.model.component.property.combobox.KioskComboBoxProperty",
        "_margin_": [
            0,
            0,
            0,
            0
        ],
        "margin": [
            0,
            0,
            0,
            0
        ],
        "marginInPixel": false,
        "render": true
    },
    "kuid": "p2kwiet2012247644014",
    "margininpixel": false,
    "masterdata": [
        [
            "Default",
            "PleaseSelect"
        ],
        [
            "DEPOSIT",
            "Deposit"
        ],
        [
            "LOAN",
            "Loan"
        ],
        [
            "CREDIT CARD",
            "CreditCard"
        ]
    ],
    "name": "kony.ui.ComboBox",
    "paddinginpixel": false,
    "parent": "hbox447417227843",
    "pf": "frmIBMyAccnts",
    "selectedkey": "Default",
    "selectedkeyvalue": [
        "Default",
        "PleaseSelect"
    ],
    "spa": {
        "@class": "com.kony.gen.viz.model.component.property.combobox.SPAComboBoxProperty"
    },
    "vexpand": false,
    "wType": "ComboBox",
    "widgetalignment": 5
}