{
    "DNDConfig": null,
    "_data_": [],
    "_enabled_": false,
    "_indicator_": "none",
    "_margin_": [
        0,
        0,
        0,
        0
    ],
    "_orientation_": 2,
    "_padding_": [
        0,
        0,
        0,
        0
    ],
    "_skin_": "seg2Normal",
    "canUpdateUI": true,
    "containerheightreference": 1,
    "containerweight": 100,
    "context": {
        "channel": "mobile",
        "formID": "AdvancedWidgetsSegements",
        "templateType": "segments",
        "topLevelBox": false
    },
    "counter": 3,
    "desktopweb": {
        "@class": "com.kony.gen.viz.model.container.property.segment2.DesktopWebSegment2Property",
        "render": true
    },
    "focusedindex": null,
    "focuseditem": null,
    "generatedtemplate": "p2kwiet2012247644101",
    "groupcells": false,
    "hasSections": false,
    "hiddencolumns": {
        "acctStatus": "text",
        "bankCD": "text",
        "bankName": "text",
        "fiident": "text",
        "hiddenAccountNo": "text",
        "hiddenAcctName": "text",
        "hiddenAcctType": "text",
        "isTMB": "boolean",
        "personalizedAcctId": "text",
        "personalizedId": "text"
    },
    "id": "segTMBAccntsList",
    "ide_onRowClick": "p2kwiet2012247644098_segTMBAccntsList_onRowClick_seq0",
    "info": null,
    "isvisible": true,
    "kiosk": {
        "@class": "com.kony.gen.viz.model.container.property.segment2.KioskSegment2Property",
        "render": true
    },
    "kuid": "p2kwiet2012247643992",
    "layoutalignment": 3,
    "layouttype": 0,
    "margininpixel": false,
    "name": "kony.ui.SegmentedUI2",
    "needpageindicator": true,
    "paddinginpixel": false,
    "paginationconfig": {
        "position": "bottom"
    },
    "parent": "scrollbox44557018542146",
    "pf": "frmIBMyAccnts",
    "retainselection": false,
    "rowTemplateId": "p2kwiet2012247644101",
    "rowcounter": 2,
    "rowfocusskin": "sf9921663168478e88850b338e726ac3",
    "rowskin": "s01e0182a4d14a4da5e4e707eafeea1b",
    "screenlevelwidget": false,
    "scrollingevents": false,
    "seccounter": 0,
    "sectionheaderskin": "s9bd6d2f2f8c4fce89dae24cc47abe06",
    "selectedRows": null,
    "selectedState": false,
    "selectedindex": null,
    "selectedindices": null,
    "selecteditems": null,
    "selectedsectionindex": 0,
    "selectionbehavior": "default",
    "selectionbehaviorconfig": {},
    "separatorcolor": "bebebe00",
    "separatorrequired": false,
    "separatorthickness": 0,
    "showscrollbars": false,
    "spa": {
        "@class": "com.kony.gen.viz.model.container.property.segment2.SPASegment2Property"
    },
    "viewtype": "tableview",
    "wType": "Segment",
    "widgetalignment": 1,
    "widgetdatamap": {
        "hbox44646006666659": "hbox44646006666659",
        "imgAccountPicture": "imgAccountPicture",
        "imgTMBSegArrow": "imgTMBSegArrow",
        "lblSegTMBAccntDetails": "lblSegTMBAccntDetails"
    }
}