{
    "DNDConfig": null,
    "__parentReadjusting__": false,
    "_height_": {
        "type": "string",
        "value": "10%"
    },
    "_left_": {
        "type": "string",
        "value": "5%"
    },
    "_margin_": [
        0,
        0,
        0,
        0
    ],
    "_orientation_": 6,
    "_padding_": [
        0,
        0,
        0,
        0
    ],
    "_percent_": true,
    "_skin_": "s601cdd9fa3649ca93158b9088d5415b",
    "_top_": {
        "type": "string",
        "value": "34%"
    },
    "_width_": {
        "type": "string",
        "value": "90%"
    },
    "allboxes": [],
    "autogrowmode": 0,
    "canUpdateUI": true,
    "children": [
        "lbldebit",
        "lbldebitvalue",
        "lblDebitNo",
        "tbxDebitNo"
    ],
    "clipbounds": true,
    "containerweight": 100,
    "enablescrolling": true,
    "id": "flexdebitOld",
    "info": null,
    "isvisible": true,
    "kuid": "e1e4f02a8f204d87a33301bc31aa6c4c",
    "layouttype": 2,
    "name": "kony.ui.FlexContainer",
    "parent": "flexPaymentPopup",
    "pf": "frmFacilityInformation",
    "snapgridsize": 10,
    "snaptogrid": true,
    "wType": "FlexContainer",
    "widgetalignment": 1,
    "zindex": 1
}