{
    "@class": "com.kony.gen.viz.model.component.KVizLabel",
    "DNDConfig": null,
    "__parentReadjusting__": false,
    "_height_": {
        "type": "string",
        "value": "26dp"
    },
    "_left_": {
        "type": "string",
        "value": "0dp"
    },
    "_margin_": [
        1,
        1,
        1,
        1
    ],
    "_padding_": [
        0,
        0,
        0,
        0
    ],
    "_skin_": "s1674afd1d2f40e6a12ef6c95837ddd8",
    "_text_": "A",
    "_top_": {
        "type": "number",
        "value": "0"
    },
    "_width_": {
        "type": "string",
        "value": "26dp"
    },
    "_wrapping_": 2,
    "android": {
        "textStyle": {
            "letterSpacing": 0,
            "strikeThrough": false
        }
    },
    "canUpdateUI": true,
    "centery": {
        "type": "string",
        "value": "49.63%"
    },
    "containerweight": 100,
    "contentalignment": 5,
    "id": "lblcircle",
    "info": null,
    "ipad": {
        "psp": {
            "wrapping": 2
        }
    },
    "iphone": {
        "psp": {
            "wrapping": 2
        }
    },
    "isvisible": true,
    "kuid": "eb1cdee1b4934f83bda740e0768f97ef",
    "name": "kony.ui.Label",
    "parent": "flxcircle",
    "pf": "frmFacilityInformation",
    "textstyle": {},
    "tooltip": "",
    "wType": "Label",
    "zindex": 1
}