{
    "@class": "com.kony.gen.viz.model.component.KVizLabel",
    "DNDConfig": null,
    "__parentReadjusting__": false,
    "_height_": {
        "type": "ref",
        "value": "preferred"
    },
    "_left_": {
        "type": "string",
        "value": "4%"
    },
    "_margin_": [
        1,
        1,
        1,
        1
    ],
    "_padding_": [
        0,
        6,
        0,
        6
    ],
    "_skin_": "sd966d5becbb4e709d4a627970f57d1e",
    "_text_": "",
    "_width_": {
        "type": "string",
        "value": "85%"
    },
    "_wrapping_": 2,
    "android": {
        "textStyle": {
            "letterSpacing": 0,
            "strikeThrough": false
        }
    },
    "canUpdateUI": true,
    "containerweight": 100,
    "contentalignment": 4,
    "id": "lblLoanRecevie",
    "info": null,
    "ipad": {
        "psp": {
            "wrapping": 2
        }
    },
    "iphone": {
        "psp": {
            "wrapping": 2
        }
    },
    "isvisible": true,
    "kuid": "ga50626dcd2844b386fe008574c4c5b7",
    "name": "kony.ui.Label",
    "paddinginpixel": false,
    "parent": "FlexContainer0c7ef00be718b4f",
    "pf": "frmFacilityInformation",
    "texti18n": "Loan_Receive_label",
    "textstyle": {},
    "tooltip": "",
    "wType": "Label",
    "zindex": 1
}