{
    "DNDConfig": null,
    "_margin_": [
        0,
        0,
        0,
        0
    ],
    "_padding_": [
        0,
        0,
        0,
        0
    ],
    "_skin_": "s69529a7c2ae464c8ca8207a6172aa79",
    "_title_": "",
    "allboxes": [],
    "allowhorizontalbounce": false,
    "allowverticalbounce": true,
    "android": {
        "@class": "com.kony.gen.viz.model.container.property.scrollflexform.AndroidScrollFlexFormProperty",
        "displayOrientation": 1,
        "footerOverlap": false,
        "headerOverlap": false,
        "inTransitionConfig": {
            "formAnimation": 0
        },
        "isModal": false,
        "menuPosition": 2,
        "needAppMenu": false,
        "outTransitionConfig": {
            "formAnimation": 0
        },
        "psp": {
            "showActionBar": true,
            "showActionBarIcon": true,
            "windowSoftInputMode": 2
        },
        "render": true
    },
    "bounces": true,
    "canUpdateUI": true,
    "children": [
        "flexBodyScroll"
    ],
    "containerheightreference": 1,
    "containerweight": 100,
    "contentoffset": {},
    "contentsize": {},
    "currentLocale": "default",
    "defaultunit": 2,
    "device": "iPhoneX",
    "displayorientation": 1,
    "enabledforidletimeout": true,
    "enablescrolling": false,
    "footer": "frmMBeKYCCitezenIDInfo_footer",
    "footeroverlap": false,
    "footersId": "ee5808548a70482d873465b977323143",
    "header": "frmMBeKYCCitezenIDInfo_header",
    "headeroverlap": false,
    "headersId": "g786aae650bd458d916de4e5feb65901",
    "horizontalscrollindicator": true,
    "id": "frmMBeKYCCitezenIDInfo",
    "ide_init": "AS_Form_gffcf48622314f9b93b0109f69654dd5",
    "invokedProperty": "headers",
    "iphone": {
        "@class": "com.kony.gen.viz.model.container.property.scrollflexform.IPhoneScrollFlexFormProperty",
        "displayOrientation": 1,
        "footerOverlap": false,
        "headerOverlap": false,
        "inTransitionConfig": {
            "transitionDirection": "none",
            "transitionEffect": "none"
        },
        "isModal": false,
        "needAppMenu": false,
        "outTransitionConfig": {
            "transitionDirection": "none",
            "transitionEffect": "none"
        },
        "psp": {
            "maxZoomScale": 1,
            "minZoomScale": 1,
            "titleBarAttributes": {
                "barStyle": 0,
                "hidesBackButton": true,
                "kuid": "g426ebd491d2489d9f663f10a164b675",
                "leftBarButtonItems": [
                    {
                        "kuid": "c34283f143284569a3d49570260e9b04",
                        "leftButtonText": "Back",
                        "leftTitle": "Back",
                        "prevFormTitle": false,
                        "titleBarLeftSideView": "button",
                        "type": 4
                    }
                ],
                "leftItemsSupplementBackButton": true,
                "prompt": "",
                "renderTitleText": true,
                "rightBarButtonItems": [
                    {
                        "enabled": true,
                        "info": {
                            "title": "Edit"
                        },
                        "kuid": "db91a4639ef141f4bfdb1f3863a28dbf",
                        "style": 0,
                        "tintColor": "333333ff",
                        "type": 1
                    }
                ],
                "tintColor": "333333ff",
                "translucent": true
            },
            "zoomScale": 1
        },
        "render": true,
        "titleBar": false
    },
    "ismodal": false,
    "isvisible": true,
    "kuid": "b394781b430545ffb74ea023536c5d4b",
    "layouttype": 2,
    "margininpixel": false,
    "menuposition": 2,
    "name": "kony.ui.Form2",
    "paddinginpixel": false,
    "pagingenabled": false,
    "platform": "iphone",
    "prevDevice": "GalaxyS8",
    "prevPlatform": "android",
    "retainscrollposition": false,
    "scrolldirection": 2,
    "shellCSS": "iOS_iPhoneX",
    "spa": {
        "@class": "com.kony.gen.viz.model.container.property.scrollflexform.SPAScrollFlexFormProperty",
        "inTransitionConfig": {
            "formTransition": "none"
        },
        "isModal": false,
        "needAppMenu": false,
        "outTransitionConfig": {
            "formTransition": "none"
        }
    },
    "spaan": {
        "@class": "com.kony.gen.viz.model.container.property.scrollflexform.SPAAndroidScrollFlexFormProperty",
        "needAppMenu": false,
        "render": true
    },
    "spabb": {
        "@class": "com.kony.gen.viz.model.container.property.scrollflexform.SPABBScrollFlexFormProperty",
        "needAppMenu": false,
        "render": false
    },
    "spaip": {
        "@class": "com.kony.gen.viz.model.container.property.scrollflexform.SPAIPhoneScrollFlexFormProperty",
        "needAppMenu": false,
        "render": true
    },
    "spawinphone8": {
        "@class": "com.kony.gen.viz.model.container.property.scrollflexform.SPAWinPhone8ScrollFlexFormProperty",
        "needAppMenu": false,
        "render": true
    },
    "titleBarSkin": "s4d78696e6a449938115e90fb37d4124",
    "titlebar": true,
    "transparencybehindthepopup": 100,
    "type": 3,
    "wType": "Form",
    "widgetalignment": 1,
    "windowsoftinputmode": 2,
    "winphone8": {
        "@class": "com.kony.gen.viz.model.container.property.scrollflexform.WinPhone8ScrollFlexFormProperty",
        "displayOrientation": 1,
        "inTransitionConfig": {
            "transitionSpeed": 0
        },
        "needAppMenu": false,
        "outTransitionConfig": {
            "transitionSpeed": 0
        },
        "psp": {
            "enableCache": false
        },
        "render": true
    },
    "zindex": 1
}