{
    "@class": "com.kony.gen.viz.model.container.KVizHBox",
    "DNDConfig": null,
    "_margin_": [
        0,
        2,
        0,
        0
    ],
    "_orientation_": 1,
    "_padding_": [
        0,
        0,
        0,
        0
    ],
    "_percent_": true,
    "_position_": 3,
    "_skin_": "s3240d32b9a74cc78d1e0768cd2cdf1b",
    "allboxes": [],
    "canUpdateUI": true,
    "children": [
        "vbxContents"
    ],
    "containerweight": 100,
    "contextmenu": null,
    "id": "HboxContents",
    "info": null,
    "isvisible": true,
    "kuid": "e33765f1193e48aaa0357fe5f016b33f",
    "layouttype": 0,
    "margininpixel": false,
    "name": "kony.ui.Box",
    "parent": "vboxMiddle",
    "pf": "frmIBMFSuitTest",
    "wType": "HBox",
    "widgetalignment": 1
}