{
    "@class": "com.kony.gen.viz.model.container.KVizHBox",
    "DNDConfig": null,
    "__markedForDelete__": true,
    "_margin_": [
        0,
        5,
        0,
        0
    ],
    "_orientation_": 1,
    "_padding_": [
        0,
        0,
        0,
        0
    ],
    "_percent_": true,
    "_position_": 3,
    "_skin_": "s3240d32b9a74cc78d1e0768cd2cdf1b",
    "allboxes": [],
    "canUpdateUI": true,
    "children": [
        "vbxTick2",
        "lblAnswer2"
    ],
    "containerweight": 100,
    "contextmenu": null,
    "id": "hbxAnswer2",
    "ide_onClick": "AS_HBox_a3862b5600fa4585b94c65f81c86ccae",
    "info": null,
    "isvisible": true,
    "kuid": "h692ed8cce724b55b5e915ae8114aa2f",
    "layouttype": 0,
    "margininpixel": false,
    "name": "kony.ui.Box",
    "parent": "vbxContents",
    "pf": "frmIBMFSuitTest",
    "wType": "HBox",
    "widgetalignment": 1
}