{
    "@class": "com.kony.gen.viz.model.container.KVizHBox",
    "DNDConfig": null,
    "_margin_": [
        0,
        5,
        0,
        5
    ],
    "_orientation_": 1,
    "_padding_": [
        0,
        0,
        0,
        0
    ],
    "_percent_": true,
    "_position_": 3,
    "_skin_": "s3240d32b9a74cc78d1e0768cd2cdf1b",
    "allboxes": [],
    "canUpdateUI": true,
    "children": [
        "vbxStep1",
        "vbxLine1",
        "vbxStep2",
        "vbxLine2",
        "vbxStep3",
        "vbxLine3",
        "vbxStep4",
        "vbxLine4"
    ],
    "containerweight": 100,
    "contextmenu": null,
    "id": "hbxStepBar",
    "info": null,
    "isvisible": true,
    "kuid": "g4833718508146ce9e211d3514ffdc9d",
    "layoutalignment": 4,
    "layouttype": 0,
    "margininpixel": false,
    "name": "kony.ui.Box",
    "parent": "vbxContents",
    "pf": "frmIBMFSuitTest",
    "wType": "HBox",
    "widgetalignment": 1
}