{
    "DNDConfig": null,
    "_enabled_": false,
    "_margin_": [
        0,
        0,
        0,
        0
    ],
    "_orientation_": 1,
    "_padding_": [
        0,
        0,
        0,
        0
    ],
    "_percent_": true,
    "_position_": 1,
    "_resize_": true,
    "_skin_": "sc7d4a69fa8c4edfb92ab6fd4ffbf89d",
    "allboxes": [],
    "android": {
        "@class": "com.kony.gen.viz.model.container.property.hbox.AndroidHBoxProperty",
        "_padding_": [
            5,
            0,
            5,
            0
        ],
        "_position_": 1,
        "padding": [
            5,
            0,
            5,
            0
        ],
        "paddingInPixel": true,
        "position": 1,
        "render": true
    },
    "borderCollapse": false,
    "canUpdateUI": true,
    "children": [
        "btnMonth",
        "btnDay",
        "BtnList"
    ],
    "containerweight": 100,
    "focusskin": "sc7d4a69fa8c4edfb92ab6fd4ffbf89d",
    "id": "hbxMenu",
    "info": null,
    "iphone": {
        "@class": "com.kony.gen.viz.model.container.property.hbox.IPhoneHBoxProperty",
        "_padding_": [
            10,
            0,
            10,
            0
        ],
        "_position_": 1,
        "padding": [
            10,
            0,
            10,
            0
        ],
        "paddingInPixel": true,
        "position": 1,
        "render": true
    },
    "isvisible": true,
    "kuid": "p2kwiet2012247631734",
    "layoutalignment": 3,
    "margininpixel": false,
    "name": "kony.ui.Box",
    "paddinginpixel": false,
    "parent": "sboxRight",
    "pf": "frmMBMyActivities",
    "spa": {
        "@class": "com.kony.gen.viz.model.container.property.hbox.SPAHBoxProperty"
    },
    "spaan": {
        "@class": "com.kony.gen.viz.model.container.property.hbox.SPAAndroidHBoxProperty",
        "_padding_": [
            2,
            2,
            2,
            2
        ],
        "padding": [
            2,
            2,
            2,
            2
        ],
        "paddingInPixel": false,
        "render": true
    },
    "spabb": {
        "@class": "com.kony.gen.viz.model.container.property.hbox.SPABBHBoxProperty",
        "_padding_": [
            2,
            2,
            2,
            2
        ],
        "padding": [
            2,
            2,
            2,
            2
        ],
        "paddingInPixel": false,
        "render": true
    },
    "spaip": {
        "@class": "com.kony.gen.viz.model.container.property.hbox.SPAIPhoneHBoxProperty",
        "_padding_": [
            2,
            2,
            2,
            2
        ],
        "padding": [
            2,
            2,
            2,
            2
        ],
        "paddingInPixel": false,
        "render": true
    },
    "spawinphone8": {
        "@class": "com.kony.gen.viz.model.container.property.hbox.SPAWinPhone8HBoxProperty",
        "_padding_": [
            2,
            2,
            2,
            2
        ],
        "padding": [
            2,
            2,
            2,
            2
        ],
        "paddingInPixel": false,
        "render": true
    },
    "templateType": "forms",
    "wType": "HBox",
    "widgetalignment": 1,
    "winphone8": {
        "@class": "com.kony.gen.viz.model.container.property.hbox.WinPhone8HBoxProperty",
        "_position_": 1,
        "position": 1,
        "psp": {
            "enableCache": false
        },
        "render": true
    }
}