{
    "DNDConfig": null,
    "__parentReadjusting__": false,
    "_height_": {
        "type": "string",
        "value": "100%"
    },
    "_left_": {
        "type": "string",
        "value": "0dp"
    },
    "_margin_": [
        0,
        0,
        0,
        0
    ],
    "_orientation_": 6,
    "_padding_": [
        0,
        0,
        0,
        0
    ],
    "_percent_": true,
    "_skin_": "sc5a1f71c24542f699593108a883cbc4",
    "_top_": {
        "type": "string",
        "value": "0dp"
    },
    "_width_": {
        "type": "string",
        "value": "100%"
    },
    "allboxes": [],
    "autogrowmode": 0,
    "canUpdateUI": true,
    "children": [
        "lblAllFree"
    ],
    "clipbounds": true,
    "containerId": true,
    "containerweight": 100,
    "enablescrolling": true,
    "focusskin": "sc5a1f71c24542f699593108a883cbc4",
    "id": "flxAllFreeAccount",
    "info": null,
    "iscustomlayout": false,
    "isvisible": false,
    "kuid": "b77a24efe26c4f16b06a1ccfed91fdaa",
    "layouttype": 3,
    "name": "kony.ui.FlexContainer",
    "parent": "flxAccountSummaryData",
    "pf": "segASRowRemp",
    "retaincontentalignment": false,
    "retainflexpositionproperties": false,
    "snapgridsize": 10,
    "snaptogrid": true,
    "wType": "FlexContainer",
    "widgetalignment": 1,
    "zindex": 1
}