{
    "@class": "com.kony.gen.viz.model.container.KVizHBox",
    "DNDConfig": null,
    "_margin_": [
        0,
        0,
        0,
        0
    ],
    "_orientation_": 1,
    "_padding_": [
        0,
        0,
        0,
        0
    ],
    "_percent_": true,
    "_position_": 2,
    "_skin_": "s3240d32b9a74cc78d1e0768cd2cdf1b",
    "allboxes": [],
    "canUpdateUI": true,
    "children": [
        "VBox0hed42a7a3d0943"
    ],
    "containerweight": 100,
    "contextmenu": null,
    "id": "HBox0d16e54a11a3741",
    "info": null,
    "iscustomlayout": false,
    "isvisible": true,
    "kuid": "heb1ab0edcb5441f8cb98b52cd6aefed",
    "layouttype": 0,
    "name": "kony.ui.Box",
    "parent": "sboxRight",
    "pf": "frmTouchIdSettings",
    "retaincontentalignment": false,
    "retainflexpositionproperties": false,
    "templateType": "forms",
    "wType": "HBox",
    "widgetalignment": 1
}