{
    "DNDConfig": null,
    "__parentReadjusting__": false,
    "_height_": {
        "type": "string",
        "value": "100%"
    },
    "_margin_": [
        0,
        0,
        0,
        0
    ],
    "_orientation_": 6,
    "_padding_": [
        0,
        0,
        0,
        0
    ],
    "_percent_": true,
    "_skin_": "s918d2c198cc4b1b99c1a0fe1f4e0370",
    "_top_": {
        "type": "string",
        "value": "0dp"
    },
    "_width_": {
        "type": "string",
        "value": "15%"
    },
    "allboxes": [],
    "autogrowmode": 0,
    "canUpdateUI": true,
    "centerx": {
        "type": "string",
        "value": "92%"
    },
    "children": [
        "Image0ab1660a236c140"
    ],
    "clipbounds": false,
    "containerweight": 100,
    "enablescrolling": true,
    "id": "flexCrossmark",
    "ide_onTouchStart": "AS_FlexContainer_dba0cefe3ae8424fa64c94f2caba68bf",
    "info": null,
    "isvisible": true,
    "kuid": "cd484db1d5124203a9eea7ea104be9f6",
    "layouttype": 2,
    "name": "kony.ui.FlexContainer",
    "parent": "FlexClose",
    "pf": "frmQRTransactionVerify",
    "snapgridsize": 10,
    "snaptogrid": true,
    "wType": "FlexContainer",
    "widgetalignment": 1,
    "zindex": 3
}