{
    "DNDConfig": null,
    "_enabled_": false,
    "_margin_": [
        2,
        0,
        0,
        0
    ],
    "_padding_": [
        0,
        0,
        0,
        0
    ],
    "_skin_": "s11f42b0de0e44079477e5ad007fe4ec",
    "_text_": "",
    "autocapitalize": "none",
    "autocomplete": false,
    "autocorrect": false,
    "autofilter": false,
    "canUpdateUI": true,
    "containerheightmode": 1,
    "containerheightreference": 1,
    "containerweight": 87,
    "contentalignment": 4,
    "desktopweb": {
        "@class": "com.kony.gen.viz.model.component.property.textbox2.DesktopWebTextBox2Property",
        "containerHeightMode": 3,
        "ide_onBeginEditing": "p2kwiet2012247640897_txtPassword_DESKTOPWEB_onBeginEditing_seq0",
        "ide_onEndEditing": "p2kwiet2012247640897_txtPassword_DESKTOPWEB_onEndEditing_seq0",
        "ide_onKeyUp": "p2kwiet2012247640897_txtPassword_DESKTOPWEB_onKeyUp_seq0",
        "render": true
    },
    "focusskin": "s81e25bd50564a9e8ca777b7ae0137e8",
    "hexpand": true,
    "id": "txtPassword",
    "ide_onTextChange": "p2kwiet2012247640897_txtPassword_onTextChange_seq0",
    "info": null,
    "isvisible": true,
    "keyboardstyle": "A",
    "keyboardtype": "A",
    "kiosk": {
        "@class": "com.kony.gen.viz.model.component.property.textbox2.KioskTextBox2Property",
        "render": true
    },
    "kuid": "p2kwiet2012247640795",
    "margininpixel": false,
    "maxtextlength": 20,
    "mode": "A",
    "name": "kony.ui.TextBox2",
    "paddinginpixel": false,
    "parent": "hbox47428873338443",
    "pf": "frmIBCMChgPwd",
    "securetextentry": true,
    "spa": {
        "@class": "com.kony.gen.viz.model.component.property.textbox2.SPATextBox2Property",
        "autoCorrect": false,
        "containerHeightMode": 3
    },
    "textinputmode": "A",
    "vexpand": false,
    "viewtype": "default",
    "wType": "TextField",
    "widgetalignment": 5
}