{
    "@class": "com.kony.gen.viz.model.component.KVizButton",
    "DNDConfig": null,
    "__parentReadjusting__": false,
    "_height_": {
        "type": "string",
        "value": "100%"
    },
    "_left_": {
        "type": "string",
        "value": "0%"
    },
    "_margin_": [
        6,
        6,
        6,
        6
    ],
    "_padding_": [
        0,
        0,
        0,
        0
    ],
    "_skin_": "sf7cdc954f794399ac2c94d16d1668d0",
    "_text_": "",
    "_top_": {
        "type": "string",
        "value": "0%"
    },
    "_width_": {
        "type": "string",
        "value": "50%"
    },
    "canUpdateUI": true,
    "containerweight": 100,
    "contentalignment": 5,
    "displaytext": true,
    "focusskin": "se83264d757a4de9937ea2037a117538",
    "id": "btnEmployeeDeselect",
    "info": null,
    "isvisible": false,
    "kuid": "a9648e7172314d3bba817d6b64047a7d",
    "name": "kony.ui.Button",
    "parent": "flxButtonsSelf",
    "pf": "frmLoanIncomeInfo",
    "texti18n": "Employee_label",
    "wType": "Button",
    "zindex": 1
}