{
    "@class": "com.kony.gen.viz.model.component.KVizLabel",
    "DNDConfig": null,
    "__parentReadjusting__": false,
    "_height_": {
        "type": "ref",
        "value": "preferred"
    },
    "_left_": {
        "type": "string",
        "value": "0%"
    },
    "_margin_": [
        1,
        1,
        1,
        1
    ],
    "_padding_": [
        0,
        0,
        0,
        0
    ],
    "_skin_": "s94b2ca44f5446f2ac59a535e8094e21",
    "_text_": "",
    "_top_": {
        "type": "string",
        "value": "2%"
    },
    "_width_": {
        "type": "string",
        "value": "90%"
    },
    "_wrapping_": 2,
    "android": {
        "textStyle": {
            "letterSpacing": 0,
            "lineSpacing": 5,
            "strikeThrough": false
        }
    },
    "canUpdateUI": true,
    "centerx": {
        "type": "string",
        "value": "50%"
    },
    "containerweight": 100,
    "contentalignment": 4,
    "id": "lblNCBDesc",
    "info": null,
    "ipad": {
        "psp": {
            "wrapping": 2
        }
    },
    "iphone": {
        "psp": {
            "wrapping": 2
        },
        "textStyle": {
            "baseline": 0,
            "letterSpacing": 0,
            "lineSpacing": 5,
            "strikeThrough": false
        }
    },
    "isvisible": true,
    "kuid": "fcb54a7ecff340f7afca15b7ba2f0681",
    "name": "kony.ui.Label",
    "parent": "flxNCBDetail",
    "pf": "frmLoanIncomeInfo",
    "textstyle": {
        "baseline": 0,
        "letterSpacing": 0,
        "lineSpacing": 5,
        "strikeThrough": false
    },
    "tooltip": "",
    "wType": "Label",
    "zindex": 1
}