{
    "@class": "com.kony.gen.viz.model.component.KVizButton",
    "DNDConfig": null,
    "__parentReadjusting__": false,
    "_height_": {
        "type": "string",
        "value": "60%"
    },
    "_margin_": [
        6,
        6,
        6,
        6
    ],
    "_padding_": [
        0,
        0,
        0,
        0
    ],
    "_right_": {
        "type": "string",
        "value": "15dp"
    },
    "_skin_": "seed46f1a3224ab298bbafca6837057d",
    "_text_": "",
    "_width_": {
        "type": "string",
        "value": "8%"
    },
    "canUpdateUI": true,
    "centery": {
        "type": "string",
        "value": "50%"
    },
    "containerweight": 100,
    "contentalignment": 5,
    "displaytext": true,
    "focusskin": "seed46f1a3224ab298bbafca6837057d",
    "id": "btnTMBID",
    "info": null,
    "iscustomlayout": false,
    "isvisible": true,
    "kuid": "d2f03aa94170483c943f69437ba1c450",
    "name": "kony.ui.Button",
    "parent": "flexHeader",
    "pf": "frmAccountSummary",
    "retaincontentalignment": false,
    "retainflexpositionproperties": false,
    "wType": "Button",
    "zindex": 2
}