{
    "DNDConfig": null,
    "_enabled_": false,
    "_margin_": [
        0,
        0,
        0,
        0
    ],
    "_padding_": [
        0,
        0,
        0,
        0
    ],
    "_skin_": "s287b9b199ce4e9996453a4d684ceee5",
    "_text_": "",
    "canUpdateUI": true,
    "containerweight": 4,
    "contentalignment": 5,
    "desktopweb": {
        "@class": "com.kony.gen.viz.model.component.property.button.DesktopWebButtonProperty",
        "_margin_": [
            10,
            2,
            0,
            2
        ],
        "_padding_": [
            0,
            8,
            0,
            8
        ],
        "displayText": true,
        "margin": [
            10,
            2,
            0,
            2
        ],
        "marginInPixel": false,
        "padding": [
            0,
            8,
            0,
            8
        ],
        "paddingInPixel": false,
        "render": true
    },
    "displaytext": true,
    "focusskin": "sea037bf37ea4c2881359ae254668f4e",
    "hexpand": false,
    "id": "btnBPBiller",
    "ide_onClick": "p2kwiet2012247640009_btnBPBiller_onClick_seq0",
    "info": null,
    "isvisible": true,
    "kiosk": {
        "@class": "com.kony.gen.viz.model.component.property.button.KioskButtonProperty",
        "render": true
    },
    "kuid": "p2kwiet2012247639995",
    "margininpixel": false,
    "name": "kony.ui.Button",
    "paddinginpixel": false,
    "parent": "hbox474225279250353",
    "pf": "frmIBBillPaymentCW",
    "spa": {
        "@class": "com.kony.gen.viz.model.component.property.button.SPAButtonProperty",
        "displayText": true
    },
    "vexpand": false,
    "wType": "Button",
    "widgetalignment": 4
}