{
    "DNDConfig": null,
    "_enabled_": false,
    "_margin_": [
        0,
        2,
        0,
        0
    ],
    "_padding_": [
        0,
        0,
        0,
        0
    ],
    "_render_": true,
    "_skin_": "s07f8174887f4d03b1c77175e0ba46d6",
    "_text_": "",
    "autocapitalize": "none",
    "autocomplete": false,
    "autocorrect": false,
    "autofilter": false,
    "canUpdateUI": true,
    "closebuttontext": "",
    "containerweight": 55,
    "contentalignment": 1,
    "desktopweb": {
        "@class": "com.kony.gen.viz.model.component.property.textarea2.DesktopWebTextArea2Property",
        "_margin_": [
            0,
            2,
            9,
            0
        ],
        "ide_onBeginEditing": "p2kwiet2012247640009_txtAreaBPMyNote_DESKTOPWEB_onBeginEditing_seq0",
        "ide_onEndEditing": "p2kwiet2012247640009_txtAreaBPMyNote_DESKTOPWEB_onEndEditing_seq0",
        "margin": [
            0,
            2,
            9,
            0
        ],
        "marginInPixel": false,
        "psp": {
            "hoverSkin": "s9a3eac2a571479eb712da186314a22f"
        },
        "render": true
    },
    "focusskin": "s9a3eac2a571479eb712da186314a22f",
    "hexpand": true,
    "id": "txtAreaBPMyNote",
    "info": null,
    "isvisible": false,
    "keyboardactionlabel": "",
    "keyboardstyle": "A",
    "keyboardtype": "A",
    "kiosk": {
        "@class": "com.kony.gen.viz.model.component.property.textarea2.KioskTextArea2Property",
        "render": true
    },
    "kuid": "p2kwiet2012247639958",
    "margininpixel": false,
    "maxtextlength": 50,
    "mode": "A",
    "name": "kony.ui.TextArea2",
    "numberofvisiblelines": 3,
    "paddinginpixel": false,
    "parent": "hbxMyNote",
    "pf": "frmIBBillPaymentCW",
    "securetextentry": false,
    "showclosebutton": false,
    "showoprogressindicator": true,
    "showprogressindicator": false,
    "spa": {
        "@class": "com.kony.gen.viz.model.component.property.textarea2.SPATextArea2Property",
        "autoCorrect": false
    },
    "textinputmode": "A",
    "vexpand": false,
    "viewtype": "default",
    "wType": "TextArea",
    "widgetalignment": 5
}