{
    "@class": "com.kony.gen.viz.model.component.KVizButton",
    "DNDConfig": null,
    "__parentReadjusting__": false,
    "_height_": {
        "type": "string",
        "value": "100%"
    },
    "_left_": {
        "type": "string",
        "value": "2dp"
    },
    "_margin_": [
        6,
        6,
        6,
        6
    ],
    "_padding_": [
        0,
        0,
        0,
        0
    ],
    "_skin_": "s4e7245e00594a0397b0372c63fa41fe",
    "_text_": "May 17",
    "_top_": {
        "type": "string",
        "value": "0dp"
    },
    "_width_": {
        "type": "string",
        "value": "17%"
    },
    "canUpdateUI": true,
    "containerweight": 100,
    "contentalignment": 5,
    "displaytext": true,
    "focusskin": "s33bd4deeda14a5f9f4dd96adc468ecf",
    "id": "btn6",
    "ide_onClick": "AS_Button_63f8fe710b9e4079bcd0b8f408c24d8e",
    "info": null,
    "isvisible": true,
    "kuid": "464eef2c36b24d9784942eec64e921ae",
    "name": "kony.ui.Button",
    "parent": "FlexMonthTab",
    "pf": "frmMFFullStatementNFundSummary",
    "wType": "Button",
    "zindex": 1
}