{
    "@class": "com.kony.gen.viz.model.component.KVizLabel",
    "DNDConfig": null,
    "__parentReadjusting__": false,
    "_height_": {
        "type": "ref",
        "value": "preferred"
    },
    "_left_": {
        "type": "string",
        "value": "0dp"
    },
    "_margin_": [
        1,
        1,
        1,
        1
    ],
    "_padding_": [
        0,
        0,
        0,
        0
    ],
    "_skin_": "s6567f9306eb47a08d46d6809d851683",
    "_text_": "60",
    "_top_": {
        "type": "string",
        "value": "0dp"
    },
    "_width_": {
        "type": "string",
        "value": "90%"
    },
    "_wrapping_": 2,
    "android": {
        "contentAlignment": 6,
        "textStyle": {
            "letterSpacing": 0,
            "strikeThrough": false
        }
    },
    "canUpdateUI": true,
    "containerweight": 100,
    "contentalignment": 6,
    "id": "lblInvestmentVal",
    "info": null,
    "ipad": {
        "psp": {
            "wrapping": 2
        }
    },
    "iphone": {
        "contentAlignment": 6,
        "psp": {
            "wrapping": 2
        }
    },
    "isvisible": true,
    "kuid": "7c9023541a974a13b4aeabff01d368ef",
    "name": "kony.ui.Label",
    "parent": "FlexContainer04cff132c77b940",
    "pf": "frmMFFullStatementNFundSummary",
    "tooltip": "",
    "wType": "Label",
    "zindex": 2
}