{
    "DNDConfig": null,
    "_enabled_": false,
    "_margin_": [
        0,
        0,
        0,
        0
    ],
    "_padding_": [
        0,
        3,
        0,
        3
    ],
    "_skin_": "s90694f7e620432d8217675ee025b519",
    "_text_": "",
    "canUpdateUI": true,
    "containerweight": 13,
    "contentalignment": 5,
    "desktopweb": {
        "@class": "com.kony.gen.viz.model.component.property.button.DesktopWebButtonProperty",
        "_margin_": [
            3,
            4,
            0,
            0
        ],
        "_padding_": [
            0,
            0,
            0,
            16
        ],
        "contentAlignment": 5,
        "displayText": true,
        "margin": [
            3,
            4,
            0,
            0
        ],
        "marginInPixel": false,
        "padding": [
            0,
            0,
            0,
            16
        ],
        "paddingInPixel": false,
        "psp": {
            "hoverSkin": "s89d2520e4af49ffbf586636a3c17f96"
        },
        "render": true
    },
    "displaytext": true,
    "focusskin": "s89d2520e4af49ffbf586636a3c17f96",
    "hexpand": true,
    "id": "btncsv",
    "ide_onClick": "p2kwiet2012247643877_btncsv_onClick_seq0",
    "info": null,
    "isvisible": true,
    "kuid": "p2kwiet2012247643830",
    "margininpixel": false,
    "name": "kony.ui.Button",
    "paddinginpixel": false,
    "parent": "hbxStmtPdf",
    "pf": "frmIBMFAcctFullStatement",
    "spa": {
        "@class": "com.kony.gen.viz.model.component.property.button.SPAButtonProperty",
        "displayText": true
    },
    "vexpand": false,
    "wType": "Button",
    "widgetalignment": 5
}