{
    "@class": "com.kony.gen.viz.model.container.KVizVBox",
    "DNDConfig": null,
    "_margin_": [
        4,
        0,
        0,
        0
    ],
    "_orientation_": 2,
    "_padding_": [
        0,
        0,
        0,
        0
    ],
    "_percent_": true,
    "_position_": 3,
    "_skin_": "s0e13ed4077f481ab090dae6b2e595ed",
    "allboxes": [],
    "canUpdateUI": true,
    "children": [
        "CopyHBox0a5e4a092cf7a42"
    ],
    "containerweight": 48,
    "contextmenu": null,
    "donotUpdateContainerWeight": false,
    "id": "CopyVBox0ecdf97f0979b44",
    "info": null,
    "isvisible": true,
    "kuid": "ae3b82f005e946b0a7193365348a26a9",
    "layouttype": 0,
    "margininpixel": false,
    "name": "kony.ui.Box",
    "paddInPixel": [
        0,
        0,
        0,
        0
    ],
    "parent": "hbxBut0otn",
    "pf": "popUpCancelorder",
    "wType": "VBox",
    "widgetalignment": 1
}