{
    "@class": "com.kony.gen.viz.model.container.KVizSegment2",
    "DNDConfig": null,
    "__parentReadjusting__": false,
    "_data_": [
        {
            "imgClose": {
                "@class": "com.viz.ide.model.segment.ImageSegmentData",
                "src": ""
            },
            "imgRTPIcon": {
                "@class": "com.viz.ide.model.segment.ImageSegmentData",
                "src": ""
            },
            "lblAccountName": {
                "@class": "com.viz.ide.model.segment.SimpleTextSegmentData",
                "text": ""
            },
            "lblAmount": {
                "@class": "com.viz.ide.model.segment.SimpleTextSegmentData",
                "text": ""
            },
            "lblDate": {
                "@class": "com.viz.ide.model.segment.SimpleTextSegmentData",
                "text": ""
            },
            "lblDescription": {
                "@class": "com.viz.ide.model.segment.SimpleTextSegmentData",
                "text": ""
            },
            "lblRefNum": {
                "@class": "com.viz.ide.model.segment.SimpleTextSegmentData",
                "text": ""
            }
        }
    ],
    "_height_": {
        "type": "ref",
        "value": "preferred"
    },
    "_indicator_": "none",
    "_left_": {
        "type": "string",
        "value": "0dp"
    },
    "_margin_": [
        0,
        0,
        0,
        0
    ],
    "_orientation_": 2,
    "_padding_": [
        0,
        0,
        0,
        0
    ],
    "_top_": {
        "type": "string",
        "value": "0dp"
    },
    "_width_": {
        "type": "string",
        "value": "100%"
    },
    "autogrowmode": 1,
    "canUpdateUI": true,
    "containerweight": 100,
    "counter": "00",
    "focusedindex": null,
    "focuseditem": null,
    "groupcells": false,
    "hasSections": false,
    "id": "segEkycDetails",
    "info": null,
    "ipad": {
        "psp": {
            "indicator": "rowselect"
        }
    },
    "iphone": {
        "psp": {
            "indicator": "none",
            "showProgressIndicator": false
        }
    },
    "isvisible": true,
    "kuid": "dfa3a19c2dfb475aba5c8e2ab3dd988b",
    "masterdata": {},
    "name": "kony.ui.SegmentedUI2",
    "needpageindicator": true,
    "pageoffdotimage": "pageoffdot.png",
    "pageondotimage": "pageondot.png",
    "paginationconfig": {
        "position": "bottom"
    },
    "parent": "flxScrlSegEkycDetails",
    "pf": "frmMBRTPDetailsList",
    "retainselection": false,
    "rowTemplateId": "e2a1101faefe416190b6f4697596ec27",
    "rowcounter": 0,
    "rowfocusskin": "s009bc538a8e4cf18a5af25fd740374b",
    "rowskin": "s01e0182a4d14a4da5e4e707eafeea1b",
    "rowtemplate": "flxRTPDetails",
    "screenlevelwidget": false,
    "seccounter": 0,
    "sectionheaderskin": "s8bfadf7251c4abfa23d31af10ef7493",
    "selectedRows": null,
    "selectedState": false,
    "selectedindex": null,
    "selectedindices": null,
    "selecteditems": null,
    "selectedsectionindex": null,
    "selectionbehavior": "default",
    "separatorcolor": "ceedf700",
    "separatorrequired": true,
    "separatorthickness": 1,
    "showprogressindicator": false,
    "showscrollbars": false,
    "viewtype": "tableview",
    "wType": "Segment",
    "widgetalignment": 5,
    "widgetdatamap": {
        "flxDelete": "flxDelete",
        "flxDetails": "flxDetails",
        "flxImage": "flxImage",
        "flxNameAmount": "flxNameAmount",
        "flxRTPDetails": "flxRTPDetails",
        "imgClose": "imgClose",
        "imgRTPIcon": "imgRTPIcon",
        "lblAccountName": "lblAccountName",
        "lblAmount": "lblAmount",
        "lblDate": "lblDate",
        "lblDescription": "lblDescription",
        "lblRefNum": "lblRefNum"
    },
    "zindex": 1
}