{
    "DNDConfig": null,
    "_height_": {
        "type": "ref",
        "value": "preferred"
    },
    "_margin_": [
        0,
        0,
        0,
        0
    ],
    "_orientation_": 6,
    "_padding_": [
        0,
        0,
        0,
        0
    ],
    "_percent_": true,
    "_skin_": "sf16386922154a1ea965e4cdf033ea5e",
    "allboxes": [],
    "autogrowmode": 1,
    "canUpdateUI": true,
    "children": [
        "imgBillerLogo",
        "FlexContainer0decbb3f78cfb46",
        "flexFav"
    ],
    "clipbounds": true,
    "containerId": true,
    "containerweight": 100,
    "enablescrolling": true,
    "id": "FlexContainer0g554304d1dae4f",
    "info": null,
    "isTemplate": true,
    "isvisible": true,
    "kuid": "c51981837c694c5eae06f841ca7e1346",
    "layouttype": 3,
    "name": "kony.ui.FlexContainer",
    "parent": "tempSegEDonationBillers",
    "pf": "tempSegEDonationBillers",
    "snapgridsize": 10,
    "snaptogrid": true,
    "wType": "FlexContainer",
    "widgetalignment": 1
}