{
    "DNDConfig": null,
    "_enabled_": false,
    "_margin_": [
        0,
        0,
        0,
        0
    ],
    "_padding_": [
        1,
        1,
        1,
        1
    ],
    "_skin_": "s1576c487d154b718a2012ba3ba0c50c",
    "_text_": "The exchange rates above are for reference use only and are subject to change without prior notice. Please contact our foreign currency service counter for applicable rates before conducting transaction. The results provided by the exchange calculator program on this website are not proposed as TMB exchange rate quotation.",
    "_wrapping_": 2,
    "canUpdateUI": true,
    "containerweight": 85,
    "contentalignment": 4,
    "desktopweb": {
        "@class": "com.kony.gen.viz.model.component.property.label.DesktopWebLabelProperty",
        "_margin_": [
            0,
            0,
            0,
            0
        ],
        "_padding_": [
            1,
            0,
            0,
            0
        ],
        "contentAlignment": 1,
        "margin": [
            0,
            0,
            0,
            0
        ],
        "marginInPixel": false,
        "padding": [
            1,
            0,
            0,
            0
        ],
        "paddingInPixel": false,
        "psp": {
            "textCopyable": false
        },
        "render": true
    },
    "hexpand": true,
    "id": "label86682411736041",
    "info": null,
    "isvisible": true,
    "kuid": "p2kwiet2012247643258",
    "margininpixel": false,
    "name": "kony.ui.Label",
    "paddinginpixel": false,
    "parent": "hbox86682411736038",
    "pf": "frmIBExchangeRates",
    "spa": {
        "@class": "com.kony.gen.viz.model.component.property.label.SPALabelProperty",
        "psp": {
            "textCopyable": false
        }
    },
    "texti18n": "ExgRages_Disclm1",
    "tooltip": "",
    "vexpand": false,
    "wType": "Label",
    "widgetalignment": 5
}