{
    "DNDConfig": null,
    "_enabled_": false,
    "_margin_": [
        0,
        0,
        0,
        0
    ],
    "_padding_": [
        0,
        0,
        0,
        0
    ],
    "_skin_": "s10d32fc15aa42839714fdcc09d9f237",
    "_text_": "",
    "canUpdateUI": true,
    "containerweight": 26,
    "contentalignment": 5,
    "desktopweb": {
        "@class": "com.kony.gen.viz.model.component.property.button.DesktopWebButtonProperty",
        "_padding_": [
            0,
            8,
            0,
            8
        ],
        "displayText": true,
        "padding": [
            0,
            8,
            0,
            8
        ],
        "paddingInPixel": false,
        "render": true
    },
    "displaytext": true,
    "focusskin": "s496bc5144644cfd94e84f48303c2141",
    "hexpand": false,
    "id": "btnTnCEmail",
    "ide_onClick": "p2kwiet2012247638905_btnTnCEmail_onClick_seq0",
    "info": null,
    "isvisible": true,
    "kiosk": {
        "@class": "com.kony.gen.viz.model.component.property.button.KioskButtonProperty",
        "render": true
    },
    "kuid": "p2kwiet2012247638888",
    "margininpixel": false,
    "name": "kony.ui.Button",
    "paddinginpixel": false,
    "parent": "hboxSaveCamEmail",
    "pf": "frmIBAnyIDRegistration",
    "spa": {
        "@class": "com.kony.gen.viz.model.component.property.button.SPAButtonProperty",
        "displayText": true
    },
    "vexpand": false,
    "wType": "Button",
    "widgetalignment": 5
}