{
    "DNDConfig": null,
    "_enabled_": false,
    "_margin_": [
        0,
        0,
        0,
        2
    ],
    "_orientation_": 1,
    "_padding_": [
        6,
        0,
        6,
        0
    ],
    "_percent_": true,
    "_position_": 3,
    "_resize_": true,
    "_skin_": "s388897762934e1f8bc1a1b047375710",
    "allboxes": [],
    "borderCollapse": false,
    "canUpdateUI": true,
    "children": [
        "imgCitizenidAccountSymbol",
        "lblCitizenidAccountName",
        "lblCitizenidAccountNumber",
        "image23902450651133616"
    ],
    "containerweight": 100,
    "desktopweb": {
        "@class": "com.kony.gen.viz.model.container.property.hbox.DesktopWebHBoxProperty",
        "_position_": 3,
        "position": 3,
        "render": true
    },
    "id": "hbxCitizenIdAccountDetails",
    "ide_onClick": "p2kwiet2012247638905_hbxCitizenIdAccountDetails_onClick_seq0",
    "info": null,
    "isvisible": true,
    "kiosk": {
        "@class": "com.kony.gen.viz.model.container.property.hbox.KioskHBoxProperty",
        "_position_": 3,
        "position": 3,
        "render": true
    },
    "kuid": "p2kwiet2012247638841",
    "layoutalignment": 3,
    "layouttype": 0,
    "margininpixel": false,
    "name": "kony.ui.Box",
    "paddinginpixel": false,
    "parent": "vboxMiddle",
    "pf": "frmIBAnyIDRegistration",
    "spa": {
        "@class": "com.kony.gen.viz.model.container.property.hbox.SPAHBoxProperty"
    },
    "templateType": "forms",
    "wType": "HBox",
    "widgetalignment": 4
}