{
    "@class": "com.kony.gen.viz.model.component.KVizLabel",
    "DNDConfig": null,
    "__parentReadjusting__": false,
    "_height_": {
        "type": "string",
        "value": "48%"
    },
    "_left_": {
        "type": "string",
        "value": "22%"
    },
    "_margin_": [
        1,
        1,
        1,
        1
    ],
    "_padding_": [
        3,
        0,
        3,
        0
    ],
    "_skin_": "s068442dd7694a25b62677fb828e2318",
    "_text_": "",
    "_top_": {
        "type": "string",
        "value": "8%"
    },
    "_width_": {
        "type": "string",
        "value": "78%"
    },
    "_wrapping_": 2,
    "android": {
        "textStyle": {
            "letterSpacing": 0,
            "strikeThrough": false
        }
    },
    "canUpdateUI": true,
    "containerweight": 100,
    "contentalignment": 1,
    "id": "lblRef2",
    "info": null,
    "ipad": {
        "psp": {
            "wrapping": 2
        }
    },
    "iphone": {
        "psp": {
            "wrapping": 2
        }
    },
    "isvisible": true,
    "kuid": "c4d64f819eb84acdb6b05b81371e0f9e",
    "name": "kony.ui.Label",
    "paddinginpixel": false,
    "parent": "flxRef2",
    "pf": "frmMBRTPApplyBiller",
    "tooltip": "",
    "wType": "Label",
    "zindex": 1
}