{
    "DNDConfig": null,
    "_enabled_": false,
    "_margin_": [
        0,
        0,
        0,
        0
    ],
    "_orientation_": 1,
    "_percent_": true,
    "_position_": 3,
    "_resize_": true,
    "_skin_": "s21dc34943c04d0182cbfd98d4a8a027",
    "allboxes": [],
    "borderCollapse": false,
    "canUpdateUI": true,
    "children": [
        "imgSugBillerLogo",
        "vbox11839738682686",
        "vbox156334898455696",
        "btnSugBillerAdd"
    ],
    "containerweight": 100,
    "desktopweb": {
        "@class": "com.kony.gen.viz.model.container.property.hbox.DesktopWebHBoxProperty",
        "_padding_": [
            0,
            5,
            2,
            5
        ],
        "_position_": 3,
        "padding": [
            0,
            5,
            2,
            5
        ],
        "paddingInPixel": false,
        "position": 3,
        "psp": {
            "hoverSkin": "sc80101ab3a841ea8cdd8cfe228cb0c0"
        },
        "render": true
    },
    "focusskin": "sc80101ab3a841ea8cdd8cfe228cb0c0",
    "id": "hbxSugBillerContainer",
    "info": null,
    "isvisible": true,
    "kiosk": {
        "@class": "com.kony.gen.viz.model.container.property.hbox.KioskHBoxProperty",
        "_position_": 3,
        "position": 3,
        "render": true
    },
    "kuid": "p2kwiet2012247652015",
    "layoutalignment": 3,
    "layouttype": 0,
    "margininpixel": false,
    "name": "kony.ui.Box",
    "parent": "IBMyTopUpBiller",
    "pf": "IBMyTopUpBiller",
    "spa": {
        "@class": "com.kony.gen.viz.model.container.property.hbox.SPAHBoxProperty"
    },
    "templateType": "forms",
    "wType": "HBox",
    "widgetalignment": 1
}