{
    "@class": "com.kony.gen.viz.model.component.KVizButton",
    "DNDConfig": null,
    "_margin_": [
        0,
        2,
        0,
        2
    ],
    "_padding_": [
        0,
        0,
        0,
        0
    ],
    "_skin_": "sf76c2ddba4147759320d63cbe2395b8",
    "_text_": "",
    "canUpdateUI": true,
    "containerweight": 12,
    "contentalignment": 5,
    "displaytext": true,
    "donotUpdateContainerWeight": false,
    "focusskin": "sf76c2ddba4147759320d63cbe2395b8",
    "hexpand": false,
    "id": "btnEditEmail",
    "info": null,
    "iscustomlayout": false,
    "isvisible": true,
    "kuid": "h27931e190634758827d873604284675",
    "margininpixel": false,
    "name": "kony.ui.Button",
    "paddInPixel": [
        0,
        0,
        0,
        0
    ],
    "paddinginpixel": false,
    "parent": "hbox967337254446815",
    "pf": "frmMBEStatementLanding",
    "retaincontentalignment": false,
    "retainflexpositionproperties": false,
    "vexpand": false,
    "wType": "Button"
}